{
 "actions": [],
 "creation": "2019-11-20 11:23:08.555662",
 "doctype": "DocType",
 "editable_grid": 1,
 "engine": "InnoDB",
 "field_order": [
  "card_number",
  "card_name",
  "exp_month",
  "expiry_year",
  "customer",
  "card_cvv"
 ],
 "fields": [
  {
   "fieldname": "card_number",
   "fieldtype": "Data",
   "in_list_view": 1,
   "label": "Card Number",
   "reqd": 1
  },
  {
   "fieldname": "card_name",
   "fieldtype": "Data",
   "in_list_view": 1,
   "label": "Card Name"
  },
  {
   "fieldname": "exp_month",
   "fieldtype": "Data",
   "in_list_view": 1,
   "label": "Expiry Month ",
   "reqd": 1
  },
  {
   "fieldname": "expiry_year",
   "fieldtype": "Data",
   "in_list_view": 1,
   "label": "Expiry Year",
   "reqd": 1
  },
  {
   "fieldname": "customer",
   "fieldtype": "Link",
   "label": "Customer",
   "options": "User",
   "reqd": 1
  },
  {
   "fieldname": "card_cvv",
   "fieldtype": "Data",
   "label": "Card CVV",
   "reqd": 1
  }
 ],
 "links": [],
 "modified": "2020-02-20 17:36:20.044893",
 "modified_by": "Administrator",
 "module": "Payment",
 "name": "Cards",
 "owner": "Administrator",
 "permissions": [
  {
   "create": 1,
   "delete": 1,
   "email": 1,
   "export": 1,
   "print": 1,
   "read": 1,
   "report": 1,
   "role": "System Manager",
   "share": 1,
   "write": 1
  },
  {
   "create": 1,
   "delete": 1,
   "email": 1,
   "export": 1,
   "print": 1,
   "read": 1,
   "report": 1,
   "role": "Purchase User",
   "share": 1,
   "write": 1
  }
 ],
 "quick_entry": 1,
 "sort_field": "modified",
 "sort_order": "DESC",
 "track_changes": 1
}