[DEBUG] 2020-04-25 14:54:01,486 | /home/abhi/Documents/frappe/frappe-iwinch/apps/frappe/frappe/utils/scheduler.py:
Site: iwinchsite
Queued events for site iwinchsite
[DEBUG] 2020-04-25 14:55:01,632 | /home/abhi/Documents/frappe/frappe-iwinch/apps/frappe/frappe/utils/scheduler.py:
Site: iwinchsite
Queued events for site iwinchsite
[DEBUG] 2020-04-25 14:56:01,791 | /home/abhi/Documents/frappe/frappe-iwinch/apps/frappe/frappe/utils/scheduler.py:
Site: iwinchsite
Queued events for site iwinchsite
[DEBUG] 2020-04-25 14:57:14,203 | /home/abhi/Documents/frappe/frappe-iwinch/apps/frappe/frappe/utils/scheduler.py:
Site: iwinchsite
Queued events for site iwinchsite
[DEBUG] 2020-04-25 15:00:52,419 | /home/abhi/Documents/frappe/frappe-iwinch/apps/frappe/frappe/utils/scheduler.py:
Site: iwinchsite
Queued events for site iwinchsite
[DEBUG] 2020-04-25 15:01:52,659 | /home/abhi/Documents/frappe/frappe-iwinch/apps/frappe/frappe/utils/scheduler.py:
Site: iwinchsite
Queued events for site iwinchsite
[DEBUG] 2020-04-25 15:02:52,758 | /home/abhi/Documents/frappe/frappe-iwinch/apps/frappe/frappe/utils/scheduler.py:
Site: iwinchsite
Queued events for site iwinchsite
[DEBUG] 2020-04-25 15:03:52,865 | /home/abhi/Documents/frappe/frappe-iwinch/apps/frappe/frappe/utils/scheduler.py:
Site: iwinchsite
Queued events for site iwinchsite
[DEBUG] 2020-04-25 15:04:53,056 | /home/abhi/Documents/frappe/frappe-iwinch/apps/frappe/frappe/utils/scheduler.py:
Site: iwinchsite
Queued events for site iwinchsite
[DEBUG] 2020-04-25 15:05:53,159 | /home/abhi/Documents/frappe/frappe-iwinch/apps/frappe/frappe/utils/scheduler.py:
Site: iwinchsite
Queued events for site iwinchsite
[DEBUG] 2020-04-25 15:06:53,278 | /home/abhi/Documents/frappe/frappe-iwinch/apps/frappe/frappe/utils/scheduler.py:
Site: iwinchsite
Queued events for site iwinchsite
[DEBUG] 2020-04-25 15:07:53,390 | /home/abhi/Documents/frappe/frappe-iwinch/apps/frappe/frappe/utils/scheduler.py:
Site: iwinchsite
Queued events for site iwinchsite
[DEBUG] 2020-04-25 15:08:53,699 | /home/abhi/Documents/frappe/frappe-iwinch/apps/frappe/frappe/utils/scheduler.py:
Site: iwinchsite
Queued events for site iwinchsite
[DEBUG] 2020-04-25 15:09:53,959 | /home/abhi/Documents/frappe/frappe-iwinch/apps/frappe/frappe/utils/scheduler.py:
Site: iwinchsite
Queued events for site iwinchsite
[DEBUG] 2020-04-25 15:10:54,392 | /home/abhi/Documents/frappe/frappe-iwinch/apps/frappe/frappe/utils/scheduler.py:
Site: iwinchsite
Queued events for site iwinchsite
[DEBUG] 2020-04-25 15:11:54,566 | /home/abhi/Documents/frappe/frappe-iwinch/apps/frappe/frappe/utils/scheduler.py:
Site: iwinchsite
Queued events for site iwinchsite
[DEBUG] 2020-04-25 15:12:54,972 | /home/abhi/Documents/frappe/frappe-iwinch/apps/frappe/frappe/utils/scheduler.py:
Site: iwinchsite
Queued events for site iwinchsite
[ERROR] 2020-04-25 15:13:20,367 | /home/abhi/Documents/frappe/frappe-iwinch/apps/frappe/frappe/app.py:
Site: iwinchsite
Form Dict: {
 "cmd": "",
 "filters": "{\"customer\":\"\"}",
 "page_length": "10",
 "start": "0"
}
Request Error
Traceback (most recent call last):
  File "/home/abhi/Documents/frappe/frappe-iwinch/apps/frappe/frappe/app.py", line 62, in application
    response = frappe.api.handle()
  File "/home/abhi/Documents/frappe/frappe-iwinch/apps/frappe/frappe/api.py", line 56, in handle
    return frappe.handler.handle()
  File "/home/abhi/Documents/frappe/frappe-iwinch/apps/frappe/frappe/handler.py", line 22, in handle
    data = execute_cmd(cmd)
  File "/home/abhi/Documents/frappe/frappe-iwinch/apps/frappe/frappe/handler.py", line 50, in execute_cmd
    raise e
  File "/home/abhi/Documents/frappe/frappe-iwinch/apps/frappe/frappe/handler.py", line 47, in execute_cmd
    method = get_attr(cmd)
  File "/home/abhi/Documents/frappe/frappe-iwinch/apps/frappe/frappe/handler.py", line 207, in get_attr
    method = globals()[cmd]
KeyError: ''
[ERROR] 2020-04-25 15:13:21,143 | /home/abhi/Documents/frappe/frappe-iwinch/apps/frappe/frappe/utils/error.py:
Could not take error snapshot: invalid syntax (<string>, line 1)
Traceback (most recent call last):
  File "/home/abhi/Documents/frappe/frappe-iwinch/apps/frappe/frappe/app.py", line 62, in application
    response = frappe.api.handle()
  File "/home/abhi/Documents/frappe/frappe-iwinch/apps/frappe/frappe/api.py", line 56, in handle
    return frappe.handler.handle()
  File "/home/abhi/Documents/frappe/frappe-iwinch/apps/frappe/frappe/handler.py", line 22, in handle
    data = execute_cmd(cmd)
  File "/home/abhi/Documents/frappe/frappe-iwinch/apps/frappe/frappe/handler.py", line 50, in execute_cmd
    raise e
  File "/home/abhi/Documents/frappe/frappe-iwinch/apps/frappe/frappe/handler.py", line 47, in execute_cmd
    method = get_attr(cmd)
  File "/home/abhi/Documents/frappe/frappe-iwinch/apps/frappe/frappe/handler.py", line 207, in get_attr
    method = globals()[cmd]
KeyError: ''

During handling of the above exception, another exception occurred:

Traceback (most recent call last):
  File "/home/abhi/Documents/frappe/frappe-iwinch/apps/frappe/frappe/utils/error.py", line 36, in make_error_snapshot
    snapshot = get_snapshot(exception)
  File "/home/abhi/Documents/frappe/frappe-iwinch/apps/frappe/frappe/utils/error.py", line 132, in get_snapshot
    value = eval(value)
  File "<string>", line 1
    <built-in method with_traceback of KeyError object>
    ^
SyntaxError: invalid syntax
[DEBUG] 2020-04-25 15:14:00,838 | /home/abhi/Documents/frappe/frappe-iwinch/apps/frappe/frappe/utils/scheduler.py:
Site: iwinchsite
Queued events for site iwinchsite
[ERROR] 2020-04-25 15:14:31,894 | /home/abhi/Documents/frappe/frappe-iwinch/apps/frappe/frappe/app.py:
Site: iwinchsite
Form Dict: {
 "cmd": "",
 "filters": "{\"customer\":\"suku@xyz.com\"}",
 "page_length": "10",
 "start": "0"
}
Request Error
Traceback (most recent call last):
  File "/home/abhi/Documents/frappe/frappe-iwinch/apps/frappe/frappe/app.py", line 62, in application
    response = frappe.api.handle()
  File "/home/abhi/Documents/frappe/frappe-iwinch/apps/frappe/frappe/api.py", line 56, in handle
    return frappe.handler.handle()
  File "/home/abhi/Documents/frappe/frappe-iwinch/apps/frappe/frappe/handler.py", line 22, in handle
    data = execute_cmd(cmd)
  File "/home/abhi/Documents/frappe/frappe-iwinch/apps/frappe/frappe/handler.py", line 50, in execute_cmd
    raise e
  File "/home/abhi/Documents/frappe/frappe-iwinch/apps/frappe/frappe/handler.py", line 47, in execute_cmd
    method = get_attr(cmd)
  File "/home/abhi/Documents/frappe/frappe-iwinch/apps/frappe/frappe/handler.py", line 207, in get_attr
    method = globals()[cmd]
KeyError: ''
[ERROR] 2020-04-25 15:14:31,977 | /home/abhi/Documents/frappe/frappe-iwinch/apps/frappe/frappe/utils/error.py:
Could not take error snapshot: invalid syntax (<string>, line 1)
Traceback (most recent call last):
  File "/home/abhi/Documents/frappe/frappe-iwinch/apps/frappe/frappe/app.py", line 62, in application
    response = frappe.api.handle()
  File "/home/abhi/Documents/frappe/frappe-iwinch/apps/frappe/frappe/api.py", line 56, in handle
    return frappe.handler.handle()
  File "/home/abhi/Documents/frappe/frappe-iwinch/apps/frappe/frappe/handler.py", line 22, in handle
    data = execute_cmd(cmd)
  File "/home/abhi/Documents/frappe/frappe-iwinch/apps/frappe/frappe/handler.py", line 50, in execute_cmd
    raise e
  File "/home/abhi/Documents/frappe/frappe-iwinch/apps/frappe/frappe/handler.py", line 47, in execute_cmd
    method = get_attr(cmd)
  File "/home/abhi/Documents/frappe/frappe-iwinch/apps/frappe/frappe/handler.py", line 207, in get_attr
    method = globals()[cmd]
KeyError: ''

During handling of the above exception, another exception occurred:

Traceback (most recent call last):
  File "/home/abhi/Documents/frappe/frappe-iwinch/apps/frappe/frappe/utils/error.py", line 36, in make_error_snapshot
    snapshot = get_snapshot(exception)
  File "/home/abhi/Documents/frappe/frappe-iwinch/apps/frappe/frappe/utils/error.py", line 132, in get_snapshot
    value = eval(value)
  File "<string>", line 1
    <built-in method with_traceback of KeyError object>
    ^
SyntaxError: invalid syntax
[DEBUG] 2020-04-25 15:15:01,390 | /home/abhi/Documents/frappe/frappe-iwinch/apps/frappe/frappe/utils/scheduler.py:
Site: iwinchsite
Queued events for site iwinchsite
[ERROR] 2020-04-25 15:15:06,076 | /home/abhi/Documents/frappe/frappe-iwinch/apps/frappe/frappe/app.py:
Site: iwinchsite
Form Dict: {
 "cmd": "",
 "filters": "{\"customer\":\"suku@xyz.com\"}",
 "page_length": "10",
 "start": "0"
}
Request Error
Traceback (most recent call last):
  File "/home/abhi/Documents/frappe/frappe-iwinch/apps/frappe/frappe/app.py", line 62, in application
    response = frappe.api.handle()
  File "/home/abhi/Documents/frappe/frappe-iwinch/apps/frappe/frappe/api.py", line 56, in handle
    return frappe.handler.handle()
  File "/home/abhi/Documents/frappe/frappe-iwinch/apps/frappe/frappe/handler.py", line 22, in handle
    data = execute_cmd(cmd)
  File "/home/abhi/Documents/frappe/frappe-iwinch/apps/frappe/frappe/handler.py", line 50, in execute_cmd
    raise e
  File "/home/abhi/Documents/frappe/frappe-iwinch/apps/frappe/frappe/handler.py", line 47, in execute_cmd
    method = get_attr(cmd)
  File "/home/abhi/Documents/frappe/frappe-iwinch/apps/frappe/frappe/handler.py", line 207, in get_attr
    method = globals()[cmd]
KeyError: ''
[ERROR] 2020-04-25 15:15:06,087 | /home/abhi/Documents/frappe/frappe-iwinch/apps/frappe/frappe/utils/error.py:
Could not take error snapshot: invalid syntax (<string>, line 1)
Traceback (most recent call last):
  File "/home/abhi/Documents/frappe/frappe-iwinch/apps/frappe/frappe/app.py", line 62, in application
    response = frappe.api.handle()
  File "/home/abhi/Documents/frappe/frappe-iwinch/apps/frappe/frappe/api.py", line 56, in handle
    return frappe.handler.handle()
  File "/home/abhi/Documents/frappe/frappe-iwinch/apps/frappe/frappe/handler.py", line 22, in handle
    data = execute_cmd(cmd)
  File "/home/abhi/Documents/frappe/frappe-iwinch/apps/frappe/frappe/handler.py", line 50, in execute_cmd
    raise e
  File "/home/abhi/Documents/frappe/frappe-iwinch/apps/frappe/frappe/handler.py", line 47, in execute_cmd
    method = get_attr(cmd)
  File "/home/abhi/Documents/frappe/frappe-iwinch/apps/frappe/frappe/handler.py", line 207, in get_attr
    method = globals()[cmd]
KeyError: ''

During handling of the above exception, another exception occurred:

Traceback (most recent call last):
  File "/home/abhi/Documents/frappe/frappe-iwinch/apps/frappe/frappe/utils/error.py", line 36, in make_error_snapshot
    snapshot = get_snapshot(exception)
  File "/home/abhi/Documents/frappe/frappe-iwinch/apps/frappe/frappe/utils/error.py", line 132, in get_snapshot
    value = eval(value)
  File "<string>", line 1
    <built-in method with_traceback of KeyError object>
    ^
SyntaxError: invalid syntax
[DEBUG] 2020-04-25 15:16:01,680 | /home/abhi/Documents/frappe/frappe-iwinch/apps/frappe/frappe/utils/scheduler.py:
Site: iwinchsite
Queued events for site iwinchsite
[ERROR] 2020-04-25 15:18:26,483 | /home/abhi/Documents/frappe/frappe-iwinch/apps/frappe/frappe/app.py:
Site: iwinchsite
Form Dict: {
 "cmd": "frappe.realtime.get_user_info"
}
Request Error
Traceback (most recent call last):
  File "/home/abhi/Documents/frappe/frappe-iwinch/apps/frappe/frappe/app.py", line 62, in application
    response = frappe.api.handle()
  File "/home/abhi/Documents/frappe/frappe-iwinch/apps/frappe/frappe/api.py", line 56, in handle
    return frappe.handler.handle()
  File "/home/abhi/Documents/frappe/frappe-iwinch/apps/frappe/frappe/handler.py", line 22, in handle
    data = execute_cmd(cmd)
  File "/home/abhi/Documents/frappe/frappe-iwinch/apps/frappe/frappe/handler.py", line 61, in execute_cmd
    return frappe.call(method, **frappe.form_dict)
  File "/home/abhi/Documents/frappe/frappe-iwinch/apps/frappe/frappe/__init__.py", line 1055, in call
    return fn(*args, **newargs)
TypeError: get_user_info() missing 1 required positional argument: 'sid'
[ERROR] 2020-04-25 15:18:26,712 | /home/abhi/Documents/frappe/frappe-iwinch/apps/frappe/frappe/utils/error.py:
Could not take error snapshot: invalid syntax (<string>, line 1)
Traceback (most recent call last):
  File "/home/abhi/Documents/frappe/frappe-iwinch/apps/frappe/frappe/app.py", line 62, in application
    response = frappe.api.handle()
  File "/home/abhi/Documents/frappe/frappe-iwinch/apps/frappe/frappe/api.py", line 56, in handle
    return frappe.handler.handle()
  File "/home/abhi/Documents/frappe/frappe-iwinch/apps/frappe/frappe/handler.py", line 22, in handle
    data = execute_cmd(cmd)
  File "/home/abhi/Documents/frappe/frappe-iwinch/apps/frappe/frappe/handler.py", line 61, in execute_cmd
    return frappe.call(method, **frappe.form_dict)
  File "/home/abhi/Documents/frappe/frappe-iwinch/apps/frappe/frappe/__init__.py", line 1055, in call
    return fn(*args, **newargs)
TypeError: get_user_info() missing 1 required positional argument: 'sid'

During handling of the above exception, another exception occurred:

Traceback (most recent call last):
  File "/home/abhi/Documents/frappe/frappe-iwinch/apps/frappe/frappe/utils/error.py", line 36, in make_error_snapshot
    snapshot = get_snapshot(exception)
  File "/home/abhi/Documents/frappe/frappe-iwinch/apps/frappe/frappe/utils/error.py", line 132, in get_snapshot
    value = eval(value)
  File "<string>", line 1
    <built-in method with_traceback of TypeError object>
    ^
SyntaxError: invalid syntax
[DEBUG] 2020-04-25 15:19:49,616 | /home/abhi/Documents/frappe/frappe-iwinch/apps/frappe/frappe/utils/scheduler.py:
Site: iwinchsite
Queued events for site iwinchsite
[DEBUG] 2020-04-25 15:20:50,355 | /home/abhi/Documents/frappe/frappe-iwinch/apps/frappe/frappe/utils/scheduler.py:
Site: iwinchsite
Queued events for site iwinchsite
[DEBUG] 2020-04-25 15:21:50,451 | /home/abhi/Documents/frappe/frappe-iwinch/apps/frappe/frappe/utils/scheduler.py:
Site: iwinchsite
Queued events for site iwinchsite
[DEBUG] 2020-04-25 15:22:50,611 | /home/abhi/Documents/frappe/frappe-iwinch/apps/frappe/frappe/utils/scheduler.py:
Site: iwinchsite
Queued events for site iwinchsite
[DEBUG] 2020-04-25 15:23:50,755 | /home/abhi/Documents/frappe/frappe-iwinch/apps/frappe/frappe/utils/scheduler.py:
Site: iwinchsite
Queued events for site iwinchsite
[DEBUG] 2020-04-25 15:24:51,042 | /home/abhi/Documents/frappe/frappe-iwinch/apps/frappe/frappe/utils/scheduler.py:
Site: iwinchsite
Queued events for site iwinchsite
[DEBUG] 2020-04-25 15:25:51,177 | /home/abhi/Documents/frappe/frappe-iwinch/apps/frappe/frappe/utils/scheduler.py:
Site: iwinchsite
Queued events for site iwinchsite
[DEBUG] 2020-04-25 15:26:51,289 | /home/abhi/Documents/frappe/frappe-iwinch/apps/frappe/frappe/utils/scheduler.py:
Site: iwinchsite
Queued events for site iwinchsite
[DEBUG] 2020-04-25 15:27:51,389 | /home/abhi/Documents/frappe/frappe-iwinch/apps/frappe/frappe/utils/scheduler.py:
Site: iwinchsite
Queued events for site iwinchsite
[DEBUG] 2020-04-25 15:29:06,481 | /home/abhi/Documents/frappe/frappe-iwinch/apps/frappe/frappe/utils/scheduler.py:
Site: iwinchsite
Queued events for site iwinchsite
[DEBUG] 2020-04-25 15:30:40,547 | /home/abhi/Documents/frappe/frappe-iwinch/apps/frappe/frappe/utils/scheduler.py:
Site: iwinchsite
Queued events for site iwinchsite
[DEBUG] 2020-04-25 16:14:03,750 | /home/abhi/Documents/frappe/frappe-iwinch/apps/frappe/frappe/utils/scheduler.py:
Site: iwinchsite
Queued events for site iwinchsite
[DEBUG] 2020-04-25 16:15:03,890 | /home/abhi/Documents/frappe/frappe-iwinch/apps/frappe/frappe/utils/scheduler.py:
Site: iwinchsite
Queued events for site iwinchsite
[DEBUG] 2020-04-25 16:16:04,018 | /home/abhi/Documents/frappe/frappe-iwinch/apps/frappe/frappe/utils/scheduler.py:
Site: iwinchsite
Queued events for site iwinchsite
[DEBUG] 2020-04-25 16:17:04,138 | /home/abhi/Documents/frappe/frappe-iwinch/apps/frappe/frappe/utils/scheduler.py:
Site: iwinchsite
Queued events for site iwinchsite
[DEBUG] 2020-04-25 16:29:46,234 | /home/abhi/Documents/frappe/frappe-iwinch/apps/frappe/frappe/utils/scheduler.py:
Site: iwinchsite
Queued events for site iwinchsite
[DEBUG] 2020-04-25 16:30:46,393 | /home/abhi/Documents/frappe/frappe-iwinch/apps/frappe/frappe/utils/scheduler.py:
Site: iwinchsite
Queued events for site iwinchsite
[DEBUG] 2020-04-25 16:31:46,719 | /home/abhi/Documents/frappe/frappe-iwinch/apps/frappe/frappe/utils/scheduler.py:
Site: iwinchsite
Queued events for site iwinchsite
[DEBUG] 2020-04-25 16:32:46,975 | /home/abhi/Documents/frappe/frappe-iwinch/apps/frappe/frappe/utils/scheduler.py:
Site: iwinchsite
Queued events for site iwinchsite
[ERROR] 2020-04-25 16:33:20,944 | /home/abhi/Documents/frappe/frappe-iwinch/apps/frappe/frappe/app.py:
Site: iwinchsite
Form Dict: {
 "cmd": "otp_login.api.web_login"
}
Request Error
Traceback (most recent call last):
  File "/home/abhi/Documents/frappe/frappe-iwinch/apps/frappe/frappe/app.py", line 62, in application
    response = frappe.api.handle()
  File "/home/abhi/Documents/frappe/frappe-iwinch/apps/frappe/frappe/api.py", line 56, in handle
    return frappe.handler.handle()
  File "/home/abhi/Documents/frappe/frappe-iwinch/apps/frappe/frappe/handler.py", line 22, in handle
    data = execute_cmd(cmd)
  File "/home/abhi/Documents/frappe/frappe-iwinch/apps/frappe/frappe/handler.py", line 61, in execute_cmd
    return frappe.call(method, **frappe.form_dict)
  File "/home/abhi/Documents/frappe/frappe-iwinch/apps/frappe/frappe/__init__.py", line 1055, in call
    return fn(*args, **newargs)
TypeError: web_login() missing 1 required positional argument: 'uid'
[ERROR] 2020-04-25 16:33:21,385 | /home/abhi/Documents/frappe/frappe-iwinch/apps/frappe/frappe/utils/error.py:
Could not take error snapshot: invalid syntax (<string>, line 1)
Traceback (most recent call last):
  File "/home/abhi/Documents/frappe/frappe-iwinch/apps/frappe/frappe/app.py", line 62, in application
    response = frappe.api.handle()
  File "/home/abhi/Documents/frappe/frappe-iwinch/apps/frappe/frappe/api.py", line 56, in handle
    return frappe.handler.handle()
  File "/home/abhi/Documents/frappe/frappe-iwinch/apps/frappe/frappe/handler.py", line 22, in handle
    data = execute_cmd(cmd)
  File "/home/abhi/Documents/frappe/frappe-iwinch/apps/frappe/frappe/handler.py", line 61, in execute_cmd
    return frappe.call(method, **frappe.form_dict)
  File "/home/abhi/Documents/frappe/frappe-iwinch/apps/frappe/frappe/__init__.py", line 1055, in call
    return fn(*args, **newargs)
TypeError: web_login() missing 1 required positional argument: 'uid'

During handling of the above exception, another exception occurred:

Traceback (most recent call last):
  File "/home/abhi/Documents/frappe/frappe-iwinch/apps/frappe/frappe/utils/error.py", line 36, in make_error_snapshot
    snapshot = get_snapshot(exception)
  File "/home/abhi/Documents/frappe/frappe-iwinch/apps/frappe/frappe/utils/error.py", line 132, in get_snapshot
    value = eval(value)
  File "<string>", line 1
    <built-in method with_traceback of TypeError object>
    ^
SyntaxError: invalid syntax
[DEBUG] 2020-04-25 16:33:47,185 | /home/abhi/Documents/frappe/frappe-iwinch/apps/frappe/frappe/utils/scheduler.py:
Site: iwinchsite
Queued events for site iwinchsite
[DEBUG] 2020-04-25 16:34:47,304 | /home/abhi/Documents/frappe/frappe-iwinch/apps/frappe/frappe/utils/scheduler.py:
Site: iwinchsite
Queued events for site iwinchsite
[ERROR] 2020-04-25 16:36:17,854 | /home/abhi/Documents/frappe/frappe-iwinch/apps/frappe/frappe/app.py:
Site: iwinchsite
Form Dict: {
 "cmd": "profiles.api_admin.customer_feedback",
 "filters": "{\"customer\":\"suku@xyz.com\"}",
 "page_length": "10",
 "start": "0"
}
Request Error
Traceback (most recent call last):
  File "/home/abhi/Documents/frappe/frappe-iwinch/apps/frappe/frappe/app.py", line 62, in application
    response = frappe.api.handle()
  File "/home/abhi/Documents/frappe/frappe-iwinch/apps/frappe/frappe/api.py", line 56, in handle
    return frappe.handler.handle()
  File "/home/abhi/Documents/frappe/frappe-iwinch/apps/frappe/frappe/handler.py", line 22, in handle
    data = execute_cmd(cmd)
  File "/home/abhi/Documents/frappe/frappe-iwinch/apps/frappe/frappe/handler.py", line 61, in execute_cmd
    return frappe.call(method, **frappe.form_dict)
  File "/home/abhi/Documents/frappe/frappe-iwinch/apps/frappe/frappe/__init__.py", line 1055, in call
    return fn(*args, **newargs)
  File "/home/abhi/Documents/frappe/frappe-iwinch/apps/profiles/profiles/api_admin.py", line 160, in customer_feedback
    start=start)
  File "/home/abhi/Documents/frappe/frappe-iwinch/apps/frappe/frappe/__init__.py", line 1291, in get_list
    return frappe.model.db_query.DatabaseQuery(doctype).execute(None, *args, **kwargs)
  File "/home/abhi/Documents/frappe/frappe-iwinch/apps/frappe/frappe/model/db_query.py", line 96, in execute
    result = self.build_and_run()
  File "/home/abhi/Documents/frappe/frappe-iwinch/apps/frappe/frappe/model/db_query.py", line 130, in build_and_run
    return frappe.db.sql(query, as_dict=not self.as_list, debug=self.debug, update=self.update)
  File "/home/abhi/Documents/frappe/frappe-iwinch/apps/frappe/frappe/database/database.py", line 171, in sql
    self._cursor.execute(query)
  File "/home/abhi/Documents/frappe/frappe-iwinch/env/lib/python3.6/site-packages/pymysql/cursors.py", line 170, in execute
    result = self._query(query)
  File "/home/abhi/Documents/frappe/frappe-iwinch/env/lib/python3.6/site-packages/pymysql/cursors.py", line 328, in _query
    conn.query(q)
  File "/home/abhi/Documents/frappe/frappe-iwinch/env/lib/python3.6/site-packages/pymysql/connections.py", line 517, in query
    self._affected_rows = self._read_query_result(unbuffered=unbuffered)
  File "/home/abhi/Documents/frappe/frappe-iwinch/env/lib/python3.6/site-packages/pymysql/connections.py", line 732, in _read_query_result
    result.read()
  File "/home/abhi/Documents/frappe/frappe-iwinch/env/lib/python3.6/site-packages/pymysql/connections.py", line 1075, in read
    first_packet = self.connection._read_packet()
  File "/home/abhi/Documents/frappe/frappe-iwinch/env/lib/python3.6/site-packages/pymysql/connections.py", line 684, in _read_packet
    packet.check_error()
  File "/home/abhi/Documents/frappe/frappe-iwinch/env/lib/python3.6/site-packages/pymysql/protocol.py", line 220, in check_error
    err.raise_mysql_exception(self._data)
  File "/home/abhi/Documents/frappe/frappe-iwinch/env/lib/python3.6/site-packages/pymysql/err.py", line 109, in raise_mysql_exception
    raise errorclass(errno, errval)
pymysql.err.ProgrammingError: (1064, "You have an error in your SQL syntax; check the manual that corresponds to your MariaDB server version for the right syntax to use near 'order, customer, provider, description\n\t\t\tfrom `tabCustomer Feedback`\n\t\t\twhere `' at line 1")
[ERROR] 2020-04-25 16:36:18,265 | /home/abhi/Documents/frappe/frappe-iwinch/apps/frappe/frappe/utils/error.py:
Could not take error snapshot: invalid syntax (<string>, line 1)
Traceback (most recent call last):
  File "/home/abhi/Documents/frappe/frappe-iwinch/apps/frappe/frappe/app.py", line 62, in application
    response = frappe.api.handle()
  File "/home/abhi/Documents/frappe/frappe-iwinch/apps/frappe/frappe/api.py", line 56, in handle
    return frappe.handler.handle()
  File "/home/abhi/Documents/frappe/frappe-iwinch/apps/frappe/frappe/handler.py", line 22, in handle
    data = execute_cmd(cmd)
  File "/home/abhi/Documents/frappe/frappe-iwinch/apps/frappe/frappe/handler.py", line 61, in execute_cmd
    return frappe.call(method, **frappe.form_dict)
  File "/home/abhi/Documents/frappe/frappe-iwinch/apps/frappe/frappe/__init__.py", line 1055, in call
    return fn(*args, **newargs)
  File "/home/abhi/Documents/frappe/frappe-iwinch/apps/profiles/profiles/api_admin.py", line 160, in customer_feedback
    start=start)
  File "/home/abhi/Documents/frappe/frappe-iwinch/apps/frappe/frappe/__init__.py", line 1291, in get_list
    return frappe.model.db_query.DatabaseQuery(doctype).execute(None, *args, **kwargs)
  File "/home/abhi/Documents/frappe/frappe-iwinch/apps/frappe/frappe/model/db_query.py", line 96, in execute
    result = self.build_and_run()
  File "/home/abhi/Documents/frappe/frappe-iwinch/apps/frappe/frappe/model/db_query.py", line 130, in build_and_run
    return frappe.db.sql(query, as_dict=not self.as_list, debug=self.debug, update=self.update)
  File "/home/abhi/Documents/frappe/frappe-iwinch/apps/frappe/frappe/database/database.py", line 171, in sql
    self._cursor.execute(query)
  File "/home/abhi/Documents/frappe/frappe-iwinch/env/lib/python3.6/site-packages/pymysql/cursors.py", line 170, in execute
    result = self._query(query)
  File "/home/abhi/Documents/frappe/frappe-iwinch/env/lib/python3.6/site-packages/pymysql/cursors.py", line 328, in _query
    conn.query(q)
  File "/home/abhi/Documents/frappe/frappe-iwinch/env/lib/python3.6/site-packages/pymysql/connections.py", line 517, in query
    self._affected_rows = self._read_query_result(unbuffered=unbuffered)
  File "/home/abhi/Documents/frappe/frappe-iwinch/env/lib/python3.6/site-packages/pymysql/connections.py", line 732, in _read_query_result
    result.read()
  File "/home/abhi/Documents/frappe/frappe-iwinch/env/lib/python3.6/site-packages/pymysql/connections.py", line 1075, in read
    first_packet = self.connection._read_packet()
  File "/home/abhi/Documents/frappe/frappe-iwinch/env/lib/python3.6/site-packages/pymysql/connections.py", line 684, in _read_packet
    packet.check_error()
  File "/home/abhi/Documents/frappe/frappe-iwinch/env/lib/python3.6/site-packages/pymysql/protocol.py", line 220, in check_error
    err.raise_mysql_exception(self._data)
  File "/home/abhi/Documents/frappe/frappe-iwinch/env/lib/python3.6/site-packages/pymysql/err.py", line 109, in raise_mysql_exception
    raise errorclass(errno, errval)
pymysql.err.ProgrammingError: (1064, "You have an error in your SQL syntax; check the manual that corresponds to your MariaDB server version for the right syntax to use near 'order, customer, provider, description\n\t\t\tfrom `tabCustomer Feedback`\n\t\t\twhere `' at line 1")

During handling of the above exception, another exception occurred:

Traceback (most recent call last):
  File "/home/abhi/Documents/frappe/frappe-iwinch/apps/frappe/frappe/utils/error.py", line 36, in make_error_snapshot
    snapshot = get_snapshot(exception)
  File "/home/abhi/Documents/frappe/frappe-iwinch/apps/frappe/frappe/utils/error.py", line 132, in get_snapshot
    value = eval(value)
  File "<string>", line 1
    <built-in method with_traceback of ProgrammingError object>
    ^
SyntaxError: invalid syntax
[DEBUG] 2020-04-25 16:36:46,245 | /home/abhi/Documents/frappe/frappe-iwinch/apps/frappe/frappe/utils/scheduler.py:
Site: iwinchsite
Queued events for site iwinchsite
[DEBUG] 2020-04-25 16:37:46,359 | /home/abhi/Documents/frappe/frappe-iwinch/apps/frappe/frappe/utils/scheduler.py:
Site: iwinchsite
Queued events for site iwinchsite
[DEBUG] 2020-04-25 16:38:46,461 | /home/abhi/Documents/frappe/frappe-iwinch/apps/frappe/frappe/utils/scheduler.py:
Site: iwinchsite
Queued events for site iwinchsite
[DEBUG] 2020-04-25 16:39:46,574 | /home/abhi/Documents/frappe/frappe-iwinch/apps/frappe/frappe/utils/scheduler.py:
Site: iwinchsite
Queued events for site iwinchsite
[DEBUG] 2020-04-25 16:40:46,862 | /home/abhi/Documents/frappe/frappe-iwinch/apps/frappe/frappe/utils/scheduler.py:
Site: iwinchsite
Queued events for site iwinchsite
[DEBUG] 2020-04-25 16:41:46,975 | /home/abhi/Documents/frappe/frappe-iwinch/apps/frappe/frappe/utils/scheduler.py:
Site: iwinchsite
Queued events for site iwinchsite
[DEBUG] 2020-04-25 16:42:47,086 | /home/abhi/Documents/frappe/frappe-iwinch/apps/frappe/frappe/utils/scheduler.py:
Site: iwinchsite
Queued events for site iwinchsite
[DEBUG] 2020-04-25 16:43:47,203 | /home/abhi/Documents/frappe/frappe-iwinch/apps/frappe/frappe/utils/scheduler.py:
Site: iwinchsite
Queued events for site iwinchsite
[DEBUG] 2020-04-25 16:44:47,343 | /home/abhi/Documents/frappe/frappe-iwinch/apps/frappe/frappe/utils/scheduler.py:
Site: iwinchsite
Queued events for site iwinchsite
[DEBUG] 2020-04-25 16:45:47,452 | /home/abhi/Documents/frappe/frappe-iwinch/apps/frappe/frappe/utils/scheduler.py:
Site: iwinchsite
Queued events for site iwinchsite
[DEBUG] 2020-04-25 16:46:47,679 | /home/abhi/Documents/frappe/frappe-iwinch/apps/frappe/frappe/utils/scheduler.py:
Site: iwinchsite
Queued events for site iwinchsite
[DEBUG] 2020-04-25 16:48:58,510 | /home/abhi/Documents/frappe/frappe-iwinch/apps/frappe/frappe/utils/scheduler.py:
Site: iwinchsite
Queued events for site iwinchsite
[DEBUG] 2020-04-25 16:49:58,656 | /home/abhi/Documents/frappe/frappe-iwinch/apps/frappe/frappe/utils/scheduler.py:
Site: iwinchsite
Queued events for site iwinchsite
[DEBUG] 2020-04-25 17:00:32,829 | /home/abhi/Documents/frappe/frappe-iwinch/apps/frappe/frappe/utils/scheduler.py:
Site: iwinchsite
Queued events for site iwinchsite
[DEBUG] 2020-04-25 17:01:32,977 | /home/abhi/Documents/frappe/frappe-iwinch/apps/frappe/frappe/utils/scheduler.py:
Site: iwinchsite
Queued events for site iwinchsite
[ERROR] 2020-04-25 17:02:25,882 | /home/abhi/Documents/frappe/frappe-iwinch/apps/frappe/frappe/app.py:
Site: iwinchsite
Form Dict: {
 "cmd": "otp_login.api.web_login"
}
Request Error
Traceback (most recent call last):
  File "/home/abhi/Documents/frappe/frappe-iwinch/apps/frappe/frappe/app.py", line 62, in application
    response = frappe.api.handle()
  File "/home/abhi/Documents/frappe/frappe-iwinch/apps/frappe/frappe/api.py", line 56, in handle
    return frappe.handler.handle()
  File "/home/abhi/Documents/frappe/frappe-iwinch/apps/frappe/frappe/handler.py", line 22, in handle
    data = execute_cmd(cmd)
  File "/home/abhi/Documents/frappe/frappe-iwinch/apps/frappe/frappe/handler.py", line 61, in execute_cmd
    return frappe.call(method, **frappe.form_dict)
  File "/home/abhi/Documents/frappe/frappe-iwinch/apps/frappe/frappe/__init__.py", line 1055, in call
    return fn(*args, **newargs)
TypeError: web_login() missing 1 required positional argument: 'uid'
[ERROR] 2020-04-25 17:02:26,165 | /home/abhi/Documents/frappe/frappe-iwinch/apps/frappe/frappe/utils/error.py:
Could not take error snapshot: invalid syntax (<string>, line 1)
Traceback (most recent call last):
  File "/home/abhi/Documents/frappe/frappe-iwinch/apps/frappe/frappe/app.py", line 62, in application
    response = frappe.api.handle()
  File "/home/abhi/Documents/frappe/frappe-iwinch/apps/frappe/frappe/api.py", line 56, in handle
    return frappe.handler.handle()
  File "/home/abhi/Documents/frappe/frappe-iwinch/apps/frappe/frappe/handler.py", line 22, in handle
    data = execute_cmd(cmd)
  File "/home/abhi/Documents/frappe/frappe-iwinch/apps/frappe/frappe/handler.py", line 61, in execute_cmd
    return frappe.call(method, **frappe.form_dict)
  File "/home/abhi/Documents/frappe/frappe-iwinch/apps/frappe/frappe/__init__.py", line 1055, in call
    return fn(*args, **newargs)
TypeError: web_login() missing 1 required positional argument: 'uid'

During handling of the above exception, another exception occurred:

Traceback (most recent call last):
  File "/home/abhi/Documents/frappe/frappe-iwinch/apps/frappe/frappe/utils/error.py", line 36, in make_error_snapshot
    snapshot = get_snapshot(exception)
  File "/home/abhi/Documents/frappe/frappe-iwinch/apps/frappe/frappe/utils/error.py", line 132, in get_snapshot
    value = eval(value)
  File "<string>", line 1
    <built-in method with_traceback of TypeError object>
    ^
SyntaxError: invalid syntax
[DEBUG] 2020-04-25 17:02:33,139 | /home/abhi/Documents/frappe/frappe-iwinch/apps/frappe/frappe/utils/scheduler.py:
Site: iwinchsite
Queued events for site iwinchsite
[ERROR] 2020-04-25 17:02:36,325 | /home/abhi/Documents/frappe/frappe-iwinch/apps/frappe/frappe/app.py:
Site: iwinchsite
Form Dict: {
 "cmd": "profiles.api_admin.customer_feedback",
 "filters": "{\"customer\":\"suku@xyz.com\"}",
 "page_length": "10",
 "start": "0"
}
Request Error
Traceback (most recent call last):
  File "/home/abhi/Documents/frappe/frappe-iwinch/apps/frappe/frappe/app.py", line 62, in application
    response = frappe.api.handle()
  File "/home/abhi/Documents/frappe/frappe-iwinch/apps/frappe/frappe/api.py", line 56, in handle
    return frappe.handler.handle()
  File "/home/abhi/Documents/frappe/frappe-iwinch/apps/frappe/frappe/handler.py", line 22, in handle
    data = execute_cmd(cmd)
  File "/home/abhi/Documents/frappe/frappe-iwinch/apps/frappe/frappe/handler.py", line 61, in execute_cmd
    return frappe.call(method, **frappe.form_dict)
  File "/home/abhi/Documents/frappe/frappe-iwinch/apps/frappe/frappe/__init__.py", line 1055, in call
    return fn(*args, **newargs)
  File "/home/abhi/Documents/frappe/frappe-iwinch/apps/profiles/profiles/api_admin.py", line 160, in customer_feedback
    start=start)
  File "/home/abhi/Documents/frappe/frappe-iwinch/apps/frappe/frappe/__init__.py", line 1291, in get_list
    return frappe.model.db_query.DatabaseQuery(doctype).execute(None, *args, **kwargs)
  File "/home/abhi/Documents/frappe/frappe-iwinch/apps/frappe/frappe/model/db_query.py", line 96, in execute
    result = self.build_and_run()
  File "/home/abhi/Documents/frappe/frappe-iwinch/apps/frappe/frappe/model/db_query.py", line 130, in build_and_run
    return frappe.db.sql(query, as_dict=not self.as_list, debug=self.debug, update=self.update)
  File "/home/abhi/Documents/frappe/frappe-iwinch/apps/frappe/frappe/database/database.py", line 171, in sql
    self._cursor.execute(query)
  File "/home/abhi/Documents/frappe/frappe-iwinch/env/lib/python3.6/site-packages/pymysql/cursors.py", line 170, in execute
    result = self._query(query)
  File "/home/abhi/Documents/frappe/frappe-iwinch/env/lib/python3.6/site-packages/pymysql/cursors.py", line 328, in _query
    conn.query(q)
  File "/home/abhi/Documents/frappe/frappe-iwinch/env/lib/python3.6/site-packages/pymysql/connections.py", line 517, in query
    self._affected_rows = self._read_query_result(unbuffered=unbuffered)
  File "/home/abhi/Documents/frappe/frappe-iwinch/env/lib/python3.6/site-packages/pymysql/connections.py", line 732, in _read_query_result
    result.read()
  File "/home/abhi/Documents/frappe/frappe-iwinch/env/lib/python3.6/site-packages/pymysql/connections.py", line 1075, in read
    first_packet = self.connection._read_packet()
  File "/home/abhi/Documents/frappe/frappe-iwinch/env/lib/python3.6/site-packages/pymysql/connections.py", line 684, in _read_packet
    packet.check_error()
  File "/home/abhi/Documents/frappe/frappe-iwinch/env/lib/python3.6/site-packages/pymysql/protocol.py", line 220, in check_error
    err.raise_mysql_exception(self._data)
  File "/home/abhi/Documents/frappe/frappe-iwinch/env/lib/python3.6/site-packages/pymysql/err.py", line 109, in raise_mysql_exception
    raise errorclass(errno, errval)
pymysql.err.ProgrammingError: (1064, "You have an error in your SQL syntax; check the manual that corresponds to your MariaDB server version for the right syntax to use near 'order, customer, provider, description\n\t\t\tfrom `tabCustomer Feedback`\n\t\t\twhere `' at line 1")
[ERROR] 2020-04-25 17:02:36,608 | /home/abhi/Documents/frappe/frappe-iwinch/apps/frappe/frappe/utils/error.py:
Could not take error snapshot: invalid syntax (<string>, line 1)
Traceback (most recent call last):
  File "/home/abhi/Documents/frappe/frappe-iwinch/apps/frappe/frappe/app.py", line 62, in application
    response = frappe.api.handle()
  File "/home/abhi/Documents/frappe/frappe-iwinch/apps/frappe/frappe/api.py", line 56, in handle
    return frappe.handler.handle()
  File "/home/abhi/Documents/frappe/frappe-iwinch/apps/frappe/frappe/handler.py", line 22, in handle
    data = execute_cmd(cmd)
  File "/home/abhi/Documents/frappe/frappe-iwinch/apps/frappe/frappe/handler.py", line 61, in execute_cmd
    return frappe.call(method, **frappe.form_dict)
  File "/home/abhi/Documents/frappe/frappe-iwinch/apps/frappe/frappe/__init__.py", line 1055, in call
    return fn(*args, **newargs)
  File "/home/abhi/Documents/frappe/frappe-iwinch/apps/profiles/profiles/api_admin.py", line 160, in customer_feedback
    start=start)
  File "/home/abhi/Documents/frappe/frappe-iwinch/apps/frappe/frappe/__init__.py", line 1291, in get_list
    return frappe.model.db_query.DatabaseQuery(doctype).execute(None, *args, **kwargs)
  File "/home/abhi/Documents/frappe/frappe-iwinch/apps/frappe/frappe/model/db_query.py", line 96, in execute
    result = self.build_and_run()
  File "/home/abhi/Documents/frappe/frappe-iwinch/apps/frappe/frappe/model/db_query.py", line 130, in build_and_run
    return frappe.db.sql(query, as_dict=not self.as_list, debug=self.debug, update=self.update)
  File "/home/abhi/Documents/frappe/frappe-iwinch/apps/frappe/frappe/database/database.py", line 171, in sql
    self._cursor.execute(query)
  File "/home/abhi/Documents/frappe/frappe-iwinch/env/lib/python3.6/site-packages/pymysql/cursors.py", line 170, in execute
    result = self._query(query)
  File "/home/abhi/Documents/frappe/frappe-iwinch/env/lib/python3.6/site-packages/pymysql/cursors.py", line 328, in _query
    conn.query(q)
  File "/home/abhi/Documents/frappe/frappe-iwinch/env/lib/python3.6/site-packages/pymysql/connections.py", line 517, in query
    self._affected_rows = self._read_query_result(unbuffered=unbuffered)
  File "/home/abhi/Documents/frappe/frappe-iwinch/env/lib/python3.6/site-packages/pymysql/connections.py", line 732, in _read_query_result
    result.read()
  File "/home/abhi/Documents/frappe/frappe-iwinch/env/lib/python3.6/site-packages/pymysql/connections.py", line 1075, in read
    first_packet = self.connection._read_packet()
  File "/home/abhi/Documents/frappe/frappe-iwinch/env/lib/python3.6/site-packages/pymysql/connections.py", line 684, in _read_packet
    packet.check_error()
  File "/home/abhi/Documents/frappe/frappe-iwinch/env/lib/python3.6/site-packages/pymysql/protocol.py", line 220, in check_error
    err.raise_mysql_exception(self._data)
  File "/home/abhi/Documents/frappe/frappe-iwinch/env/lib/python3.6/site-packages/pymysql/err.py", line 109, in raise_mysql_exception
    raise errorclass(errno, errval)
pymysql.err.ProgrammingError: (1064, "You have an error in your SQL syntax; check the manual that corresponds to your MariaDB server version for the right syntax to use near 'order, customer, provider, description\n\t\t\tfrom `tabCustomer Feedback`\n\t\t\twhere `' at line 1")

During handling of the above exception, another exception occurred:

Traceback (most recent call last):
  File "/home/abhi/Documents/frappe/frappe-iwinch/apps/frappe/frappe/utils/error.py", line 36, in make_error_snapshot
    snapshot = get_snapshot(exception)
  File "/home/abhi/Documents/frappe/frappe-iwinch/apps/frappe/frappe/utils/error.py", line 132, in get_snapshot
    value = eval(value)
  File "<string>", line 1
    <built-in method with_traceback of ProgrammingError object>
    ^
SyntaxError: invalid syntax
[DEBUG] 2020-04-25 17:03:33,392 | /home/abhi/Documents/frappe/frappe-iwinch/apps/frappe/frappe/utils/scheduler.py:
Site: iwinchsite
Queued events for site iwinchsite
[DEBUG] 2020-04-25 17:04:33,545 | /home/abhi/Documents/frappe/frappe-iwinch/apps/frappe/frappe/utils/scheduler.py:
Site: iwinchsite
Queued events for site iwinchsite
[DEBUG] 2020-04-25 17:05:33,652 | /home/abhi/Documents/frappe/frappe-iwinch/apps/frappe/frappe/utils/scheduler.py:
Site: iwinchsite
Queued events for site iwinchsite
[DEBUG] 2020-04-25 17:06:33,849 | /home/abhi/Documents/frappe/frappe-iwinch/apps/frappe/frappe/utils/scheduler.py:
Site: iwinchsite
Queued events for site iwinchsite
[DEBUG] 2020-04-25 17:07:33,964 | /home/abhi/Documents/frappe/frappe-iwinch/apps/frappe/frappe/utils/scheduler.py:
Site: iwinchsite
Queued events for site iwinchsite
[DEBUG] 2020-04-25 17:08:34,118 | /home/abhi/Documents/frappe/frappe-iwinch/apps/frappe/frappe/utils/scheduler.py:
Site: iwinchsite
Queued events for site iwinchsite
[DEBUG] 2020-04-25 17:09:34,275 | /home/abhi/Documents/frappe/frappe-iwinch/apps/frappe/frappe/utils/scheduler.py:
Site: iwinchsite
Queued events for site iwinchsite
[DEBUG] 2020-04-25 17:10:34,394 | /home/abhi/Documents/frappe/frappe-iwinch/apps/frappe/frappe/utils/scheduler.py:
Site: iwinchsite
Queued events for site iwinchsite
[DEBUG] 2020-04-25 17:11:34,494 | /home/abhi/Documents/frappe/frappe-iwinch/apps/frappe/frappe/utils/scheduler.py:
Site: iwinchsite
Queued events for site iwinchsite
[DEBUG] 2020-04-25 17:12:34,631 | /home/abhi/Documents/frappe/frappe-iwinch/apps/frappe/frappe/utils/scheduler.py:
Site: iwinchsite
Queued events for site iwinchsite
[DEBUG] 2020-04-25 17:13:34,742 | /home/abhi/Documents/frappe/frappe-iwinch/apps/frappe/frappe/utils/scheduler.py:
Site: iwinchsite
Queued events for site iwinchsite
[DEBUG] 2020-04-25 17:14:34,860 | /home/abhi/Documents/frappe/frappe-iwinch/apps/frappe/frappe/utils/scheduler.py:
Site: iwinchsite
Queued events for site iwinchsite
[DEBUG] 2020-04-25 17:15:34,973 | /home/abhi/Documents/frappe/frappe-iwinch/apps/frappe/frappe/utils/scheduler.py:
Site: iwinchsite
Queued events for site iwinchsite
[DEBUG] 2020-04-25 17:16:35,107 | /home/abhi/Documents/frappe/frappe-iwinch/apps/frappe/frappe/utils/scheduler.py:
Site: iwinchsite
Queued events for site iwinchsite
[DEBUG] 2020-04-25 17:17:35,223 | /home/abhi/Documents/frappe/frappe-iwinch/apps/frappe/frappe/utils/scheduler.py:
Site: iwinchsite
Queued events for site iwinchsite
[DEBUG] 2020-04-25 17:18:35,338 | /home/abhi/Documents/frappe/frappe-iwinch/apps/frappe/frappe/utils/scheduler.py:
Site: iwinchsite
Queued events for site iwinchsite
[DEBUG] 2020-04-25 17:19:35,454 | /home/abhi/Documents/frappe/frappe-iwinch/apps/frappe/frappe/utils/scheduler.py:
Site: iwinchsite
Queued events for site iwinchsite
[DEBUG] 2020-04-25 17:20:35,591 | /home/abhi/Documents/frappe/frappe-iwinch/apps/frappe/frappe/utils/scheduler.py:
Site: iwinchsite
Queued events for site iwinchsite
[DEBUG] 2020-04-25 17:21:35,711 | /home/abhi/Documents/frappe/frappe-iwinch/apps/frappe/frappe/utils/scheduler.py:
Site: iwinchsite
Queued events for site iwinchsite
[DEBUG] 2020-04-25 17:22:35,825 | /home/abhi/Documents/frappe/frappe-iwinch/apps/frappe/frappe/utils/scheduler.py:
Site: iwinchsite
Queued events for site iwinchsite
[DEBUG] 2020-04-25 17:23:35,933 | /home/abhi/Documents/frappe/frappe-iwinch/apps/frappe/frappe/utils/scheduler.py:
Site: iwinchsite
Queued events for site iwinchsite
[DEBUG] 2020-04-25 17:24:36,075 | /home/abhi/Documents/frappe/frappe-iwinch/apps/frappe/frappe/utils/scheduler.py:
Site: iwinchsite
Queued events for site iwinchsite
[DEBUG] 2020-04-25 17:25:36,210 | /home/abhi/Documents/frappe/frappe-iwinch/apps/frappe/frappe/utils/scheduler.py:
Site: iwinchsite
Queued events for site iwinchsite
[DEBUG] 2020-04-25 17:26:36,322 | /home/abhi/Documents/frappe/frappe-iwinch/apps/frappe/frappe/utils/scheduler.py:
Site: iwinchsite
Queued events for site iwinchsite
[DEBUG] 2020-04-25 17:27:36,437 | /home/abhi/Documents/frappe/frappe-iwinch/apps/frappe/frappe/utils/scheduler.py:
Site: iwinchsite
Queued events for site iwinchsite
[DEBUG] 2020-04-25 17:28:36,565 | /home/abhi/Documents/frappe/frappe-iwinch/apps/frappe/frappe/utils/scheduler.py:
Site: iwinchsite
Queued events for site iwinchsite
[DEBUG] 2020-04-25 17:29:36,686 | /home/abhi/Documents/frappe/frappe-iwinch/apps/frappe/frappe/utils/scheduler.py:
Site: iwinchsite
Queued events for site iwinchsite
[DEBUG] 2020-04-25 17:30:36,802 | /home/abhi/Documents/frappe/frappe-iwinch/apps/frappe/frappe/utils/scheduler.py:
Site: iwinchsite
Queued events for site iwinchsite
[DEBUG] 2020-04-25 17:31:36,910 | /home/abhi/Documents/frappe/frappe-iwinch/apps/frappe/frappe/utils/scheduler.py:
Site: iwinchsite
Queued events for site iwinchsite
[DEBUG] 2020-04-25 17:32:37,049 | /home/abhi/Documents/frappe/frappe-iwinch/apps/frappe/frappe/utils/scheduler.py:
Site: iwinchsite
Queued events for site iwinchsite
[DEBUG] 2020-04-25 17:33:37,158 | /home/abhi/Documents/frappe/frappe-iwinch/apps/frappe/frappe/utils/scheduler.py:
Site: iwinchsite
Queued events for site iwinchsite
[DEBUG] 2020-04-25 17:34:37,274 | /home/abhi/Documents/frappe/frappe-iwinch/apps/frappe/frappe/utils/scheduler.py:
Site: iwinchsite
Queued events for site iwinchsite
[DEBUG] 2020-04-25 17:35:37,386 | /home/abhi/Documents/frappe/frappe-iwinch/apps/frappe/frappe/utils/scheduler.py:
Site: iwinchsite
Queued events for site iwinchsite
[DEBUG] 2020-04-25 17:36:37,521 | /home/abhi/Documents/frappe/frappe-iwinch/apps/frappe/frappe/utils/scheduler.py:
Site: iwinchsite
Queued events for site iwinchsite
[DEBUG] 2020-04-25 17:37:37,641 | /home/abhi/Documents/frappe/frappe-iwinch/apps/frappe/frappe/utils/scheduler.py:
Site: iwinchsite
Queued events for site iwinchsite
[DEBUG] 2020-04-25 17:38:37,755 | /home/abhi/Documents/frappe/frappe-iwinch/apps/frappe/frappe/utils/scheduler.py:
Site: iwinchsite
Queued events for site iwinchsite
[DEBUG] 2020-04-25 17:39:37,878 | /home/abhi/Documents/frappe/frappe-iwinch/apps/frappe/frappe/utils/scheduler.py:
Site: iwinchsite
Queued events for site iwinchsite
[DEBUG] 2020-04-25 17:40:37,999 | /home/abhi/Documents/frappe/frappe-iwinch/apps/frappe/frappe/utils/scheduler.py:
Site: iwinchsite
Queued events for site iwinchsite
[DEBUG] 2020-04-25 17:41:38,113 | /home/abhi/Documents/frappe/frappe-iwinch/apps/frappe/frappe/utils/scheduler.py:
Site: iwinchsite
Queued events for site iwinchsite
[DEBUG] 2020-04-25 17:42:38,229 | /home/abhi/Documents/frappe/frappe-iwinch/apps/frappe/frappe/utils/scheduler.py:
Site: iwinchsite
Queued events for site iwinchsite
[DEBUG] 2020-04-25 17:43:38,342 | /home/abhi/Documents/frappe/frappe-iwinch/apps/frappe/frappe/utils/scheduler.py:
Site: iwinchsite
Queued events for site iwinchsite
[DEBUG] 2020-04-25 17:44:38,478 | /home/abhi/Documents/frappe/frappe-iwinch/apps/frappe/frappe/utils/scheduler.py:
Site: iwinchsite
Queued events for site iwinchsite
[DEBUG] 2020-04-25 17:45:39,741 | /home/abhi/Documents/frappe/frappe-iwinch/apps/frappe/frappe/utils/scheduler.py:
Site: iwinchsite
Queued events for site iwinchsite
[DEBUG] 2020-04-25 17:46:39,857 | /home/abhi/Documents/frappe/frappe-iwinch/apps/frappe/frappe/utils/scheduler.py:
Site: iwinchsite
Queued events for site iwinchsite
[DEBUG] 2020-04-25 17:47:39,974 | /home/abhi/Documents/frappe/frappe-iwinch/apps/frappe/frappe/utils/scheduler.py:
Site: iwinchsite
Queued events for site iwinchsite
[DEBUG] 2020-04-25 17:48:40,114 | /home/abhi/Documents/frappe/frappe-iwinch/apps/frappe/frappe/utils/scheduler.py:
Site: iwinchsite
Queued events for site iwinchsite
[DEBUG] 2020-04-25 17:49:40,233 | /home/abhi/Documents/frappe/frappe-iwinch/apps/frappe/frappe/utils/scheduler.py:
Site: iwinchsite
Queued events for site iwinchsite
[DEBUG] 2020-04-25 17:50:40,350 | /home/abhi/Documents/frappe/frappe-iwinch/apps/frappe/frappe/utils/scheduler.py:
Site: iwinchsite
Queued events for site iwinchsite
[DEBUG] 2020-04-25 17:51:40,459 | /home/abhi/Documents/frappe/frappe-iwinch/apps/frappe/frappe/utils/scheduler.py:
Site: iwinchsite
Queued events for site iwinchsite
[DEBUG] 2020-04-25 17:52:40,594 | /home/abhi/Documents/frappe/frappe-iwinch/apps/frappe/frappe/utils/scheduler.py:
Site: iwinchsite
Queued events for site iwinchsite
[DEBUG] 2020-04-25 17:53:40,718 | /home/abhi/Documents/frappe/frappe-iwinch/apps/frappe/frappe/utils/scheduler.py:
Site: iwinchsite
Queued events for site iwinchsite
[DEBUG] 2020-04-25 17:54:40,832 | /home/abhi/Documents/frappe/frappe-iwinch/apps/frappe/frappe/utils/scheduler.py:
Site: iwinchsite
Queued events for site iwinchsite
[DEBUG] 2020-04-25 17:55:40,956 | /home/abhi/Documents/frappe/frappe-iwinch/apps/frappe/frappe/utils/scheduler.py:
Site: iwinchsite
Queued events for site iwinchsite
[DEBUG] 2020-04-25 17:56:41,085 | /home/abhi/Documents/frappe/frappe-iwinch/apps/frappe/frappe/utils/scheduler.py:
Site: iwinchsite
Queued events for site iwinchsite
[DEBUG] 2020-04-25 17:57:41,205 | /home/abhi/Documents/frappe/frappe-iwinch/apps/frappe/frappe/utils/scheduler.py:
Site: iwinchsite
Queued events for site iwinchsite
[DEBUG] 2020-04-25 17:58:41,319 | /home/abhi/Documents/frappe/frappe-iwinch/apps/frappe/frappe/utils/scheduler.py:
Site: iwinchsite
Queued events for site iwinchsite
[DEBUG] 2020-04-25 17:59:41,438 | /home/abhi/Documents/frappe/frappe-iwinch/apps/frappe/frappe/utils/scheduler.py:
Site: iwinchsite
Queued events for site iwinchsite
[DEBUG] 2020-04-25 18:00:41,602 | /home/abhi/Documents/frappe/frappe-iwinch/apps/frappe/frappe/utils/scheduler.py:
Site: iwinchsite
Queued events for site iwinchsite
[DEBUG] 2020-04-25 18:01:41,705 | /home/abhi/Documents/frappe/frappe-iwinch/apps/frappe/frappe/utils/scheduler.py:
Site: iwinchsite
Queued events for site iwinchsite
[DEBUG] 2020-04-25 18:02:41,814 | /home/abhi/Documents/frappe/frappe-iwinch/apps/frappe/frappe/utils/scheduler.py:
Site: iwinchsite
Queued events for site iwinchsite
[DEBUG] 2020-04-25 18:03:41,922 | /home/abhi/Documents/frappe/frappe-iwinch/apps/frappe/frappe/utils/scheduler.py:
Site: iwinchsite
Queued events for site iwinchsite
[DEBUG] 2020-04-25 18:04:42,060 | /home/abhi/Documents/frappe/frappe-iwinch/apps/frappe/frappe/utils/scheduler.py:
Site: iwinchsite
Queued events for site iwinchsite
[DEBUG] 2020-04-25 18:05:42,164 | /home/abhi/Documents/frappe/frappe-iwinch/apps/frappe/frappe/utils/scheduler.py:
Site: iwinchsite
Queued events for site iwinchsite
[DEBUG] 2020-04-25 18:06:42,281 | /home/abhi/Documents/frappe/frappe-iwinch/apps/frappe/frappe/utils/scheduler.py:
Site: iwinchsite
Queued events for site iwinchsite
[DEBUG] 2020-04-25 18:07:42,396 | /home/abhi/Documents/frappe/frappe-iwinch/apps/frappe/frappe/utils/scheduler.py:
Site: iwinchsite
Queued events for site iwinchsite
[DEBUG] 2020-04-25 18:08:42,537 | /home/abhi/Documents/frappe/frappe-iwinch/apps/frappe/frappe/utils/scheduler.py:
Site: iwinchsite
Queued events for site iwinchsite
[DEBUG] 2020-04-25 18:09:42,653 | /home/abhi/Documents/frappe/frappe-iwinch/apps/frappe/frappe/utils/scheduler.py:
Site: iwinchsite
Queued events for site iwinchsite
[DEBUG] 2020-04-25 18:10:42,762 | /home/abhi/Documents/frappe/frappe-iwinch/apps/frappe/frappe/utils/scheduler.py:
Site: iwinchsite
Queued events for site iwinchsite
[DEBUG] 2020-04-25 18:11:42,885 | /home/abhi/Documents/frappe/frappe-iwinch/apps/frappe/frappe/utils/scheduler.py:
Site: iwinchsite
Queued events for site iwinchsite
[DEBUG] 2020-04-25 18:14:08,134 | /home/abhi/Documents/frappe/frappe-iwinch/apps/frappe/frappe/utils/scheduler.py:
Site: iwinchsite
Queued events for site iwinchsite
[DEBUG] 2020-04-25 18:15:08,296 | /home/abhi/Documents/frappe/frappe-iwinch/apps/frappe/frappe/utils/scheduler.py:
Site: iwinchsite
Queued events for site iwinchsite
[DEBUG] 2020-04-25 18:16:08,461 | /home/abhi/Documents/frappe/frappe-iwinch/apps/frappe/frappe/utils/scheduler.py:
Site: iwinchsite
Queued events for site iwinchsite
[DEBUG] 2020-04-25 18:17:32,574 | /home/abhi/Documents/frappe/frappe-iwinch/apps/frappe/frappe/utils/scheduler.py:
Site: iwinchsite
Queued events for site iwinchsite
[DEBUG] 2020-04-25 18:23:52,761 | /home/abhi/Documents/frappe/frappe-iwinch/apps/frappe/frappe/utils/scheduler.py:
Site: iwinchsite
Queued events for site iwinchsite
[DEBUG] 2020-04-25 18:24:53,022 | /home/abhi/Documents/frappe/frappe-iwinch/apps/frappe/frappe/utils/scheduler.py:
Site: iwinchsite
Queued events for site iwinchsite
[DEBUG] 2020-04-25 18:25:53,242 | /home/abhi/Documents/frappe/frappe-iwinch/apps/frappe/frappe/utils/scheduler.py:
Site: iwinchsite
Queued events for site iwinchsite
[DEBUG] 2020-04-25 18:26:53,352 | /home/abhi/Documents/frappe/frappe-iwinch/apps/frappe/frappe/utils/scheduler.py:
Site: iwinchsite
Queued events for site iwinchsite
[DEBUG] 2020-04-25 18:27:53,486 | /home/abhi/Documents/frappe/frappe-iwinch/apps/frappe/frappe/utils/scheduler.py:
Site: iwinchsite
Queued events for site iwinchsite
[DEBUG] 2020-04-25 18:28:53,621 | /home/abhi/Documents/frappe/frappe-iwinch/apps/frappe/frappe/utils/scheduler.py:
Site: iwinchsite
Queued events for site iwinchsite
[DEBUG] 2020-04-25 18:29:53,727 | /home/abhi/Documents/frappe/frappe-iwinch/apps/frappe/frappe/utils/scheduler.py:
Site: iwinchsite
Queued events for site iwinchsite
[ERROR] 2020-04-25 18:30:49,614 | /home/abhi/Documents/frappe/frappe-iwinch/apps/frappe/frappe/app.py:
Site: iwinchsite
Form Dict: {
 "cmd": "frappe.realtime.get_user_info"
}
Request Error
Traceback (most recent call last):
  File "/home/abhi/Documents/frappe/frappe-iwinch/apps/frappe/frappe/app.py", line 62, in application
    response = frappe.api.handle()
  File "/home/abhi/Documents/frappe/frappe-iwinch/apps/frappe/frappe/api.py", line 56, in handle
    return frappe.handler.handle()
  File "/home/abhi/Documents/frappe/frappe-iwinch/apps/frappe/frappe/handler.py", line 22, in handle
    data = execute_cmd(cmd)
  File "/home/abhi/Documents/frappe/frappe-iwinch/apps/frappe/frappe/handler.py", line 61, in execute_cmd
    return frappe.call(method, **frappe.form_dict)
  File "/home/abhi/Documents/frappe/frappe-iwinch/apps/frappe/frappe/__init__.py", line 1055, in call
    return fn(*args, **newargs)
TypeError: get_user_info() missing 1 required positional argument: 'sid'
[ERROR] 2020-04-25 18:30:50,060 | /home/abhi/Documents/frappe/frappe-iwinch/apps/frappe/frappe/utils/error.py:
Could not take error snapshot: invalid syntax (<string>, line 1)
Traceback (most recent call last):
  File "/home/abhi/Documents/frappe/frappe-iwinch/apps/frappe/frappe/app.py", line 62, in application
    response = frappe.api.handle()
  File "/home/abhi/Documents/frappe/frappe-iwinch/apps/frappe/frappe/api.py", line 56, in handle
    return frappe.handler.handle()
  File "/home/abhi/Documents/frappe/frappe-iwinch/apps/frappe/frappe/handler.py", line 22, in handle
    data = execute_cmd(cmd)
  File "/home/abhi/Documents/frappe/frappe-iwinch/apps/frappe/frappe/handler.py", line 61, in execute_cmd
    return frappe.call(method, **frappe.form_dict)
  File "/home/abhi/Documents/frappe/frappe-iwinch/apps/frappe/frappe/__init__.py", line 1055, in call
    return fn(*args, **newargs)
TypeError: get_user_info() missing 1 required positional argument: 'sid'

During handling of the above exception, another exception occurred:

Traceback (most recent call last):
  File "/home/abhi/Documents/frappe/frappe-iwinch/apps/frappe/frappe/utils/error.py", line 36, in make_error_snapshot
    snapshot = get_snapshot(exception)
  File "/home/abhi/Documents/frappe/frappe-iwinch/apps/frappe/frappe/utils/error.py", line 132, in get_snapshot
    value = eval(value)
  File "<string>", line 1
    <built-in method with_traceback of TypeError object>
    ^
SyntaxError: invalid syntax
[DEBUG] 2020-04-25 18:31:48,036 | /home/abhi/Documents/frappe/frappe-iwinch/apps/frappe/frappe/utils/scheduler.py:
Site: iwinchsite
Queued events for site iwinchsite
[DEBUG] 2020-04-25 18:32:48,177 | /home/abhi/Documents/frappe/frappe-iwinch/apps/frappe/frappe/utils/scheduler.py:
Site: iwinchsite
Queued events for site iwinchsite
[DEBUG] 2020-04-25 18:33:48,284 | /home/abhi/Documents/frappe/frappe-iwinch/apps/frappe/frappe/utils/scheduler.py:
Site: iwinchsite
Queued events for site iwinchsite
[DEBUG] 2020-04-25 18:34:48,394 | /home/abhi/Documents/frappe/frappe-iwinch/apps/frappe/frappe/utils/scheduler.py:
Site: iwinchsite
Queued events for site iwinchsite
[DEBUG] 2020-04-25 18:35:48,509 | /home/abhi/Documents/frappe/frappe-iwinch/apps/frappe/frappe/utils/scheduler.py:
Site: iwinchsite
Queued events for site iwinchsite
[ERROR] 2020-04-25 18:37:00,317 | /home/abhi/Documents/frappe/frappe-iwinch/apps/frappe/frappe/app.py:
Site: iwinchsite
Form Dict: {
 "cmd": "frappe.realtime.get_user_info"
}
Request Error
Traceback (most recent call last):
  File "/home/abhi/Documents/frappe/frappe-iwinch/apps/frappe/frappe/app.py", line 62, in application
    response = frappe.api.handle()
  File "/home/abhi/Documents/frappe/frappe-iwinch/apps/frappe/frappe/api.py", line 56, in handle
    return frappe.handler.handle()
  File "/home/abhi/Documents/frappe/frappe-iwinch/apps/frappe/frappe/handler.py", line 22, in handle
    data = execute_cmd(cmd)
  File "/home/abhi/Documents/frappe/frappe-iwinch/apps/frappe/frappe/handler.py", line 61, in execute_cmd
    return frappe.call(method, **frappe.form_dict)
  File "/home/abhi/Documents/frappe/frappe-iwinch/apps/frappe/frappe/__init__.py", line 1055, in call
    return fn(*args, **newargs)
TypeError: get_user_info() missing 1 required positional argument: 'sid'
[ERROR] 2020-04-25 18:37:00,669 | /home/abhi/Documents/frappe/frappe-iwinch/apps/frappe/frappe/utils/error.py:
Could not take error snapshot: invalid syntax (<string>, line 1)
Traceback (most recent call last):
  File "/home/abhi/Documents/frappe/frappe-iwinch/apps/frappe/frappe/app.py", line 62, in application
    response = frappe.api.handle()
  File "/home/abhi/Documents/frappe/frappe-iwinch/apps/frappe/frappe/api.py", line 56, in handle
    return frappe.handler.handle()
  File "/home/abhi/Documents/frappe/frappe-iwinch/apps/frappe/frappe/handler.py", line 22, in handle
    data = execute_cmd(cmd)
  File "/home/abhi/Documents/frappe/frappe-iwinch/apps/frappe/frappe/handler.py", line 61, in execute_cmd
    return frappe.call(method, **frappe.form_dict)
  File "/home/abhi/Documents/frappe/frappe-iwinch/apps/frappe/frappe/__init__.py", line 1055, in call
    return fn(*args, **newargs)
TypeError: get_user_info() missing 1 required positional argument: 'sid'

During handling of the above exception, another exception occurred:

Traceback (most recent call last):
  File "/home/abhi/Documents/frappe/frappe-iwinch/apps/frappe/frappe/utils/error.py", line 36, in make_error_snapshot
    snapshot = get_snapshot(exception)
  File "/home/abhi/Documents/frappe/frappe-iwinch/apps/frappe/frappe/utils/error.py", line 132, in get_snapshot
    value = eval(value)
  File "<string>", line 1
    <built-in method with_traceback of TypeError object>
    ^
SyntaxError: invalid syntax
[DEBUG] 2020-04-25 18:37:58,696 | /home/abhi/Documents/frappe/frappe-iwinch/apps/frappe/frappe/utils/scheduler.py:
Site: iwinchsite
Queued events for site iwinchsite
[DEBUG] 2020-04-25 18:38:58,796 | /home/abhi/Documents/frappe/frappe-iwinch/apps/frappe/frappe/utils/scheduler.py:
Site: iwinchsite
Queued events for site iwinchsite
[DEBUG] 2020-04-25 18:39:58,904 | /home/abhi/Documents/frappe/frappe-iwinch/apps/frappe/frappe/utils/scheduler.py:
Site: iwinchsite
Queued events for site iwinchsite
[DEBUG] 2020-04-25 18:41:17,250 | /home/abhi/Documents/frappe/frappe-iwinch/apps/frappe/frappe/utils/scheduler.py:
Site: iwinchsite
Queued events for site iwinchsite
[DEBUG] 2020-04-25 18:42:17,358 | /home/abhi/Documents/frappe/frappe-iwinch/apps/frappe/frappe/utils/scheduler.py:
Site: iwinchsite
Queued events for site iwinchsite
[DEBUG] 2020-04-25 18:43:17,471 | /home/abhi/Documents/frappe/frappe-iwinch/apps/frappe/frappe/utils/scheduler.py:
Site: iwinchsite
Queued events for site iwinchsite
[DEBUG] 2020-04-25 18:44:17,594 | /home/abhi/Documents/frappe/frappe-iwinch/apps/frappe/frappe/utils/scheduler.py:
Site: iwinchsite
Queued events for site iwinchsite
[DEBUG] 2020-04-25 18:45:17,706 | /home/abhi/Documents/frappe/frappe-iwinch/apps/frappe/frappe/utils/scheduler.py:
Site: iwinchsite
Queued events for site iwinchsite
[DEBUG] 2020-04-25 18:46:17,825 | /home/abhi/Documents/frappe/frappe-iwinch/apps/frappe/frappe/utils/scheduler.py:
Site: iwinchsite
Queued events for site iwinchsite
[DEBUG] 2020-04-25 18:47:17,946 | /home/abhi/Documents/frappe/frappe-iwinch/apps/frappe/frappe/utils/scheduler.py:
Site: iwinchsite
Queued events for site iwinchsite
[DEBUG] 2020-04-25 18:48:18,091 | /home/abhi/Documents/frappe/frappe-iwinch/apps/frappe/frappe/utils/scheduler.py:
Site: iwinchsite
Queued events for site iwinchsite
[DEBUG] 2020-04-25 18:49:18,206 | /home/abhi/Documents/frappe/frappe-iwinch/apps/frappe/frappe/utils/scheduler.py:
Site: iwinchsite
Queued events for site iwinchsite
[DEBUG] 2020-04-25 18:50:18,319 | /home/abhi/Documents/frappe/frappe-iwinch/apps/frappe/frappe/utils/scheduler.py:
Site: iwinchsite
Queued events for site iwinchsite
[DEBUG] 2020-04-25 18:51:18,418 | /home/abhi/Documents/frappe/frappe-iwinch/apps/frappe/frappe/utils/scheduler.py:
Site: iwinchsite
Queued events for site iwinchsite
[DEBUG] 2020-04-25 18:52:18,626 | /home/abhi/Documents/frappe/frappe-iwinch/apps/frappe/frappe/utils/scheduler.py:
Site: iwinchsite
Queued events for site iwinchsite
[DEBUG] 2020-04-25 18:53:18,734 | /home/abhi/Documents/frappe/frappe-iwinch/apps/frappe/frappe/utils/scheduler.py:
Site: iwinchsite
Queued events for site iwinchsite
[DEBUG] 2020-04-25 18:54:18,847 | /home/abhi/Documents/frappe/frappe-iwinch/apps/frappe/frappe/utils/scheduler.py:
Site: iwinchsite
Queued events for site iwinchsite
[DEBUG] 2020-04-25 18:55:18,953 | /home/abhi/Documents/frappe/frappe-iwinch/apps/frappe/frappe/utils/scheduler.py:
Site: iwinchsite
Queued events for site iwinchsite
[DEBUG] 2020-04-25 18:56:19,083 | /home/abhi/Documents/frappe/frappe-iwinch/apps/frappe/frappe/utils/scheduler.py:
Site: iwinchsite
Queued events for site iwinchsite
[DEBUG] 2020-04-25 18:57:19,187 | /home/abhi/Documents/frappe/frappe-iwinch/apps/frappe/frappe/utils/scheduler.py:
Site: iwinchsite
Queued events for site iwinchsite
[DEBUG] 2020-04-25 18:58:19,295 | /home/abhi/Documents/frappe/frappe-iwinch/apps/frappe/frappe/utils/scheduler.py:
Site: iwinchsite
Queued events for site iwinchsite
[DEBUG] 2020-04-25 18:59:19,408 | /home/abhi/Documents/frappe/frappe-iwinch/apps/frappe/frappe/utils/scheduler.py:
Site: iwinchsite
Queued events for site iwinchsite
[DEBUG] 2020-04-25 19:00:19,569 | /home/abhi/Documents/frappe/frappe-iwinch/apps/frappe/frappe/utils/scheduler.py:
Site: iwinchsite
Queued events for site iwinchsite
[DEBUG] 2020-04-25 19:01:19,676 | /home/abhi/Documents/frappe/frappe-iwinch/apps/frappe/frappe/utils/scheduler.py:
Site: iwinchsite
Queued events for site iwinchsite
[DEBUG] 2020-04-25 19:02:19,785 | /home/abhi/Documents/frappe/frappe-iwinch/apps/frappe/frappe/utils/scheduler.py:
Site: iwinchsite
Queued events for site iwinchsite
[DEBUG] 2020-04-25 19:03:19,897 | /home/abhi/Documents/frappe/frappe-iwinch/apps/frappe/frappe/utils/scheduler.py:
Site: iwinchsite
Queued events for site iwinchsite
[DEBUG] 2020-04-25 19:04:20,028 | /home/abhi/Documents/frappe/frappe-iwinch/apps/frappe/frappe/utils/scheduler.py:
Site: iwinchsite
Queued events for site iwinchsite
[DEBUG] 2020-04-25 19:05:20,141 | /home/abhi/Documents/frappe/frappe-iwinch/apps/frappe/frappe/utils/scheduler.py:
Site: iwinchsite
Queued events for site iwinchsite
[DEBUG] 2020-04-25 19:06:20,242 | /home/abhi/Documents/frappe/frappe-iwinch/apps/frappe/frappe/utils/scheduler.py:
Site: iwinchsite
Queued events for site iwinchsite
[DEBUG] 2020-04-25 19:07:20,351 | /home/abhi/Documents/frappe/frappe-iwinch/apps/frappe/frappe/utils/scheduler.py:
Site: iwinchsite
Queued events for site iwinchsite
[DEBUG] 2020-04-25 19:08:20,474 | /home/abhi/Documents/frappe/frappe-iwinch/apps/frappe/frappe/utils/scheduler.py:
Site: iwinchsite
Queued events for site iwinchsite
[DEBUG] 2020-04-25 19:09:20,581 | /home/abhi/Documents/frappe/frappe-iwinch/apps/frappe/frappe/utils/scheduler.py:
Site: iwinchsite
Queued events for site iwinchsite
[DEBUG] 2020-04-25 19:10:20,685 | /home/abhi/Documents/frappe/frappe-iwinch/apps/frappe/frappe/utils/scheduler.py:
Site: iwinchsite
Queued events for site iwinchsite
[DEBUG] 2020-04-25 19:11:20,786 | /home/abhi/Documents/frappe/frappe-iwinch/apps/frappe/frappe/utils/scheduler.py:
Site: iwinchsite
Queued events for site iwinchsite
[DEBUG] 2020-04-25 19:12:20,911 | /home/abhi/Documents/frappe/frappe-iwinch/apps/frappe/frappe/utils/scheduler.py:
Site: iwinchsite
Queued events for site iwinchsite
[DEBUG] 2020-04-25 19:13:21,024 | /home/abhi/Documents/frappe/frappe-iwinch/apps/frappe/frappe/utils/scheduler.py:
Site: iwinchsite
Queued events for site iwinchsite
[DEBUG] 2020-04-25 19:14:21,132 | /home/abhi/Documents/frappe/frappe-iwinch/apps/frappe/frappe/utils/scheduler.py:
Site: iwinchsite
Queued events for site iwinchsite
[DEBUG] 2020-04-25 19:15:21,231 | /home/abhi/Documents/frappe/frappe-iwinch/apps/frappe/frappe/utils/scheduler.py:
Site: iwinchsite
Queued events for site iwinchsite
[DEBUG] 2020-04-25 19:16:21,360 | /home/abhi/Documents/frappe/frappe-iwinch/apps/frappe/frappe/utils/scheduler.py:
Site: iwinchsite
Queued events for site iwinchsite
[ERROR] 2020-04-25 19:16:46,643 | /home/abhi/Documents/frappe/frappe-iwinch/apps/frappe/frappe/app.py:
Site: iwinchsite
Form Dict: {
 "cmd": "frappe.realtime.get_user_info"
}
Request Error
Traceback (most recent call last):
  File "/home/abhi/Documents/frappe/frappe-iwinch/apps/frappe/frappe/app.py", line 62, in application
    response = frappe.api.handle()
  File "/home/abhi/Documents/frappe/frappe-iwinch/apps/frappe/frappe/api.py", line 56, in handle
    return frappe.handler.handle()
  File "/home/abhi/Documents/frappe/frappe-iwinch/apps/frappe/frappe/handler.py", line 22, in handle
    data = execute_cmd(cmd)
  File "/home/abhi/Documents/frappe/frappe-iwinch/apps/frappe/frappe/handler.py", line 61, in execute_cmd
    return frappe.call(method, **frappe.form_dict)
  File "/home/abhi/Documents/frappe/frappe-iwinch/apps/frappe/frappe/__init__.py", line 1055, in call
    return fn(*args, **newargs)
TypeError: get_user_info() missing 1 required positional argument: 'sid'
[ERROR] 2020-04-25 19:16:46,896 | /home/abhi/Documents/frappe/frappe-iwinch/apps/frappe/frappe/utils/error.py:
Could not take error snapshot: invalid syntax (<string>, line 1)
Traceback (most recent call last):
  File "/home/abhi/Documents/frappe/frappe-iwinch/apps/frappe/frappe/app.py", line 62, in application
    response = frappe.api.handle()
  File "/home/abhi/Documents/frappe/frappe-iwinch/apps/frappe/frappe/api.py", line 56, in handle
    return frappe.handler.handle()
  File "/home/abhi/Documents/frappe/frappe-iwinch/apps/frappe/frappe/handler.py", line 22, in handle
    data = execute_cmd(cmd)
  File "/home/abhi/Documents/frappe/frappe-iwinch/apps/frappe/frappe/handler.py", line 61, in execute_cmd
    return frappe.call(method, **frappe.form_dict)
  File "/home/abhi/Documents/frappe/frappe-iwinch/apps/frappe/frappe/__init__.py", line 1055, in call
    return fn(*args, **newargs)
TypeError: get_user_info() missing 1 required positional argument: 'sid'

During handling of the above exception, another exception occurred:

Traceback (most recent call last):
  File "/home/abhi/Documents/frappe/frappe-iwinch/apps/frappe/frappe/utils/error.py", line 36, in make_error_snapshot
    snapshot = get_snapshot(exception)
  File "/home/abhi/Documents/frappe/frappe-iwinch/apps/frappe/frappe/utils/error.py", line 132, in get_snapshot
    value = eval(value)
  File "<string>", line 1
    <built-in method with_traceback of TypeError object>
    ^
SyntaxError: invalid syntax
[DEBUG] 2020-04-25 19:17:45,212 | /home/abhi/Documents/frappe/frappe-iwinch/apps/frappe/frappe/utils/scheduler.py:
Site: iwinchsite
Queued events for site iwinchsite
[DEBUG] 2020-04-25 19:18:45,328 | /home/abhi/Documents/frappe/frappe-iwinch/apps/frappe/frappe/utils/scheduler.py:
Site: iwinchsite
Queued events for site iwinchsite
[DEBUG] 2020-04-25 19:19:45,435 | /home/abhi/Documents/frappe/frappe-iwinch/apps/frappe/frappe/utils/scheduler.py:
Site: iwinchsite
Queued events for site iwinchsite
[DEBUG] 2020-04-25 19:20:45,581 | /home/abhi/Documents/frappe/frappe-iwinch/apps/frappe/frappe/utils/scheduler.py:
Site: iwinchsite
Queued events for site iwinchsite
[DEBUG] 2020-04-25 19:21:45,680 | /home/abhi/Documents/frappe/frappe-iwinch/apps/frappe/frappe/utils/scheduler.py:
Site: iwinchsite
Queued events for site iwinchsite
[DEBUG] 2020-04-25 19:22:45,787 | /home/abhi/Documents/frappe/frappe-iwinch/apps/frappe/frappe/utils/scheduler.py:
Site: iwinchsite
Queued events for site iwinchsite
[DEBUG] 2020-04-25 19:23:45,904 | /home/abhi/Documents/frappe/frappe-iwinch/apps/frappe/frappe/utils/scheduler.py:
Site: iwinchsite
Queued events for site iwinchsite
[DEBUG] 2020-04-25 19:24:46,031 | /home/abhi/Documents/frappe/frappe-iwinch/apps/frappe/frappe/utils/scheduler.py:
Site: iwinchsite
Queued events for site iwinchsite
[DEBUG] 2020-04-25 19:25:46,144 | /home/abhi/Documents/frappe/frappe-iwinch/apps/frappe/frappe/utils/scheduler.py:
Site: iwinchsite
Queued events for site iwinchsite
[DEBUG] 2020-04-25 19:26:46,255 | /home/abhi/Documents/frappe/frappe-iwinch/apps/frappe/frappe/utils/scheduler.py:
Site: iwinchsite
Queued events for site iwinchsite
[DEBUG] 2020-04-25 19:27:46,362 | /home/abhi/Documents/frappe/frappe-iwinch/apps/frappe/frappe/utils/scheduler.py:
Site: iwinchsite
Queued events for site iwinchsite
[DEBUG] 2020-04-25 19:28:46,494 | /home/abhi/Documents/frappe/frappe-iwinch/apps/frappe/frappe/utils/scheduler.py:
Site: iwinchsite
Queued events for site iwinchsite
[DEBUG] 2020-04-25 19:29:46,606 | /home/abhi/Documents/frappe/frappe-iwinch/apps/frappe/frappe/utils/scheduler.py:
Site: iwinchsite
Queued events for site iwinchsite
[DEBUG] 2020-04-25 19:30:46,714 | /home/abhi/Documents/frappe/frappe-iwinch/apps/frappe/frappe/utils/scheduler.py:
Site: iwinchsite
Queued events for site iwinchsite
[DEBUG] 2020-04-25 19:31:46,821 | /home/abhi/Documents/frappe/frappe-iwinch/apps/frappe/frappe/utils/scheduler.py:
Site: iwinchsite
Queued events for site iwinchsite
[DEBUG] 2020-04-25 19:32:46,947 | /home/abhi/Documents/frappe/frappe-iwinch/apps/frappe/frappe/utils/scheduler.py:
Site: iwinchsite
Queued events for site iwinchsite
[DEBUG] 2020-04-25 19:33:47,051 | /home/abhi/Documents/frappe/frappe-iwinch/apps/frappe/frappe/utils/scheduler.py:
Site: iwinchsite
Queued events for site iwinchsite
[DEBUG] 2020-04-25 19:34:47,157 | /home/abhi/Documents/frappe/frappe-iwinch/apps/frappe/frappe/utils/scheduler.py:
Site: iwinchsite
Queued events for site iwinchsite
[DEBUG] 2020-04-25 19:35:47,264 | /home/abhi/Documents/frappe/frappe-iwinch/apps/frappe/frappe/utils/scheduler.py:
Site: iwinchsite
Queued events for site iwinchsite
[DEBUG] 2020-04-25 19:36:47,385 | /home/abhi/Documents/frappe/frappe-iwinch/apps/frappe/frappe/utils/scheduler.py:
Site: iwinchsite
Queued events for site iwinchsite
[DEBUG] 2020-04-25 19:37:47,499 | /home/abhi/Documents/frappe/frappe-iwinch/apps/frappe/frappe/utils/scheduler.py:
Site: iwinchsite
Queued events for site iwinchsite
[DEBUG] 2020-04-25 19:38:47,608 | /home/abhi/Documents/frappe/frappe-iwinch/apps/frappe/frappe/utils/scheduler.py:
Site: iwinchsite
Queued events for site iwinchsite
[DEBUG] 2020-04-25 19:39:47,707 | /home/abhi/Documents/frappe/frappe-iwinch/apps/frappe/frappe/utils/scheduler.py:
Site: iwinchsite
Queued events for site iwinchsite
[DEBUG] 2020-04-25 19:40:47,826 | /home/abhi/Documents/frappe/frappe-iwinch/apps/frappe/frappe/utils/scheduler.py:
Site: iwinchsite
Queued events for site iwinchsite
[DEBUG] 2020-04-25 19:41:47,944 | /home/abhi/Documents/frappe/frappe-iwinch/apps/frappe/frappe/utils/scheduler.py:
Site: iwinchsite
Queued events for site iwinchsite
[DEBUG] 2020-04-25 19:42:48,055 | /home/abhi/Documents/frappe/frappe-iwinch/apps/frappe/frappe/utils/scheduler.py:
Site: iwinchsite
Queued events for site iwinchsite
[DEBUG] 2020-04-25 19:43:48,163 | /home/abhi/Documents/frappe/frappe-iwinch/apps/frappe/frappe/utils/scheduler.py:
Site: iwinchsite
Queued events for site iwinchsite
[DEBUG] 2020-04-25 19:44:48,296 | /home/abhi/Documents/frappe/frappe-iwinch/apps/frappe/frappe/utils/scheduler.py:
Site: iwinchsite
Queued events for site iwinchsite
[DEBUG] 2020-04-25 19:45:48,408 | /home/abhi/Documents/frappe/frappe-iwinch/apps/frappe/frappe/utils/scheduler.py:
Site: iwinchsite
Queued events for site iwinchsite
[DEBUG] 2020-04-25 19:46:48,523 | /home/abhi/Documents/frappe/frappe-iwinch/apps/frappe/frappe/utils/scheduler.py:
Site: iwinchsite
Queued events for site iwinchsite
[DEBUG] 2020-04-25 19:47:48,629 | /home/abhi/Documents/frappe/frappe-iwinch/apps/frappe/frappe/utils/scheduler.py:
Site: iwinchsite
Queued events for site iwinchsite
[DEBUG] 2020-04-25 19:48:48,759 | /home/abhi/Documents/frappe/frappe-iwinch/apps/frappe/frappe/utils/scheduler.py:
Site: iwinchsite
Queued events for site iwinchsite
[DEBUG] 2020-04-25 19:49:48,869 | /home/abhi/Documents/frappe/frappe-iwinch/apps/frappe/frappe/utils/scheduler.py:
Site: iwinchsite
Queued events for site iwinchsite
[DEBUG] 2020-04-25 19:50:48,978 | /home/abhi/Documents/frappe/frappe-iwinch/apps/frappe/frappe/utils/scheduler.py:
Site: iwinchsite
Queued events for site iwinchsite
[DEBUG] 2020-04-25 19:51:49,087 | /home/abhi/Documents/frappe/frappe-iwinch/apps/frappe/frappe/utils/scheduler.py:
Site: iwinchsite
Queued events for site iwinchsite
[DEBUG] 2020-04-25 19:52:49,220 | /home/abhi/Documents/frappe/frappe-iwinch/apps/frappe/frappe/utils/scheduler.py:
Site: iwinchsite
Queued events for site iwinchsite
[DEBUG] 2020-04-25 19:53:49,328 | /home/abhi/Documents/frappe/frappe-iwinch/apps/frappe/frappe/utils/scheduler.py:
Site: iwinchsite
Queued events for site iwinchsite
[DEBUG] 2020-04-25 19:54:49,438 | /home/abhi/Documents/frappe/frappe-iwinch/apps/frappe/frappe/utils/scheduler.py:
Site: iwinchsite
Queued events for site iwinchsite
[DEBUG] 2020-04-25 19:55:49,556 | /home/abhi/Documents/frappe/frappe-iwinch/apps/frappe/frappe/utils/scheduler.py:
Site: iwinchsite
Queued events for site iwinchsite
[DEBUG] 2020-04-25 19:56:49,684 | /home/abhi/Documents/frappe/frappe-iwinch/apps/frappe/frappe/utils/scheduler.py:
Site: iwinchsite
Queued events for site iwinchsite
[DEBUG] 2020-04-25 19:57:49,793 | /home/abhi/Documents/frappe/frappe-iwinch/apps/frappe/frappe/utils/scheduler.py:
Site: iwinchsite
Queued events for site iwinchsite
[DEBUG] 2020-04-25 19:58:49,904 | /home/abhi/Documents/frappe/frappe-iwinch/apps/frappe/frappe/utils/scheduler.py:
Site: iwinchsite
Queued events for site iwinchsite
[DEBUG] 2020-04-25 19:59:50,011 | /home/abhi/Documents/frappe/frappe-iwinch/apps/frappe/frappe/utils/scheduler.py:
Site: iwinchsite
Queued events for site iwinchsite
[DEBUG] 2020-04-25 20:00:50,147 | /home/abhi/Documents/frappe/frappe-iwinch/apps/frappe/frappe/utils/scheduler.py:
Site: iwinchsite
Queued events for site iwinchsite
[DEBUG] 2020-04-25 20:01:50,259 | /home/abhi/Documents/frappe/frappe-iwinch/apps/frappe/frappe/utils/scheduler.py:
Site: iwinchsite
Queued events for site iwinchsite
[DEBUG] 2020-04-25 20:02:50,367 | /home/abhi/Documents/frappe/frappe-iwinch/apps/frappe/frappe/utils/scheduler.py:
Site: iwinchsite
Queued events for site iwinchsite
[DEBUG] 2020-04-25 20:03:50,509 | /home/abhi/Documents/frappe/frappe-iwinch/apps/frappe/frappe/utils/scheduler.py:
Site: iwinchsite
Queued events for site iwinchsite
[DEBUG] 2020-04-25 20:04:50,650 | /home/abhi/Documents/frappe/frappe-iwinch/apps/frappe/frappe/utils/scheduler.py:
Site: iwinchsite
Queued events for site iwinchsite
[DEBUG] 2020-04-25 20:05:50,765 | /home/abhi/Documents/frappe/frappe-iwinch/apps/frappe/frappe/utils/scheduler.py:
Site: iwinchsite
Queued events for site iwinchsite
[DEBUG] 2020-04-25 20:06:50,875 | /home/abhi/Documents/frappe/frappe-iwinch/apps/frappe/frappe/utils/scheduler.py:
Site: iwinchsite
Queued events for site iwinchsite
[DEBUG] 2020-04-25 20:07:50,966 | /home/abhi/Documents/frappe/frappe-iwinch/apps/frappe/frappe/utils/scheduler.py:
Site: iwinchsite
Queued events for site iwinchsite
[DEBUG] 2020-04-25 20:08:51,094 | /home/abhi/Documents/frappe/frappe-iwinch/apps/frappe/frappe/utils/scheduler.py:
Site: iwinchsite
Queued events for site iwinchsite
[DEBUG] 2020-04-25 20:09:51,215 | /home/abhi/Documents/frappe/frappe-iwinch/apps/frappe/frappe/utils/scheduler.py:
Site: iwinchsite
Queued events for site iwinchsite
[DEBUG] 2020-04-25 20:10:51,329 | /home/abhi/Documents/frappe/frappe-iwinch/apps/frappe/frappe/utils/scheduler.py:
Site: iwinchsite
Queued events for site iwinchsite
[DEBUG] 2020-04-25 20:11:51,439 | /home/abhi/Documents/frappe/frappe-iwinch/apps/frappe/frappe/utils/scheduler.py:
Site: iwinchsite
Queued events for site iwinchsite
[DEBUG] 2020-04-25 20:12:51,571 | /home/abhi/Documents/frappe/frappe-iwinch/apps/frappe/frappe/utils/scheduler.py:
Site: iwinchsite
Queued events for site iwinchsite
[DEBUG] 2020-04-25 20:13:51,675 | /home/abhi/Documents/frappe/frappe-iwinch/apps/frappe/frappe/utils/scheduler.py:
Site: iwinchsite
Queued events for site iwinchsite
[DEBUG] 2020-04-25 20:14:51,791 | /home/abhi/Documents/frappe/frappe-iwinch/apps/frappe/frappe/utils/scheduler.py:
Site: iwinchsite
Queued events for site iwinchsite
[DEBUG] 2020-04-25 20:15:51,899 | /home/abhi/Documents/frappe/frappe-iwinch/apps/frappe/frappe/utils/scheduler.py:
Site: iwinchsite
Queued events for site iwinchsite
[DEBUG] 2020-04-25 20:16:52,029 | /home/abhi/Documents/frappe/frappe-iwinch/apps/frappe/frappe/utils/scheduler.py:
Site: iwinchsite
Queued events for site iwinchsite
[DEBUG] 2020-04-25 20:17:52,144 | /home/abhi/Documents/frappe/frappe-iwinch/apps/frappe/frappe/utils/scheduler.py:
Site: iwinchsite
Queued events for site iwinchsite
[DEBUG] 2020-04-25 20:18:52,260 | /home/abhi/Documents/frappe/frappe-iwinch/apps/frappe/frappe/utils/scheduler.py:
Site: iwinchsite
Queued events for site iwinchsite
[DEBUG] 2020-04-25 20:19:52,379 | /home/abhi/Documents/frappe/frappe-iwinch/apps/frappe/frappe/utils/scheduler.py:
Site: iwinchsite
Queued events for site iwinchsite
[DEBUG] 2020-04-25 20:20:52,510 | /home/abhi/Documents/frappe/frappe-iwinch/apps/frappe/frappe/utils/scheduler.py:
Site: iwinchsite
Queued events for site iwinchsite
[DEBUG] 2020-04-25 20:21:52,626 | /home/abhi/Documents/frappe/frappe-iwinch/apps/frappe/frappe/utils/scheduler.py:
Site: iwinchsite
Queued events for site iwinchsite
[DEBUG] 2020-04-25 20:22:52,740 | /home/abhi/Documents/frappe/frappe-iwinch/apps/frappe/frappe/utils/scheduler.py:
Site: iwinchsite
Queued events for site iwinchsite
[DEBUG] 2020-04-25 20:23:52,841 | /home/abhi/Documents/frappe/frappe-iwinch/apps/frappe/frappe/utils/scheduler.py:
Site: iwinchsite
Queued events for site iwinchsite
[DEBUG] 2020-04-25 20:24:52,964 | /home/abhi/Documents/frappe/frappe-iwinch/apps/frappe/frappe/utils/scheduler.py:
Site: iwinchsite
Queued events for site iwinchsite
[DEBUG] 2020-04-25 20:25:53,075 | /home/abhi/Documents/frappe/frappe-iwinch/apps/frappe/frappe/utils/scheduler.py:
Site: iwinchsite
Queued events for site iwinchsite
[DEBUG] 2020-04-25 20:26:53,186 | /home/abhi/Documents/frappe/frappe-iwinch/apps/frappe/frappe/utils/scheduler.py:
Site: iwinchsite
Queued events for site iwinchsite
[DEBUG] 2020-04-25 20:27:53,292 | /home/abhi/Documents/frappe/frappe-iwinch/apps/frappe/frappe/utils/scheduler.py:
Site: iwinchsite
Queued events for site iwinchsite
[DEBUG] 2020-04-25 20:28:53,417 | /home/abhi/Documents/frappe/frappe-iwinch/apps/frappe/frappe/utils/scheduler.py:
Site: iwinchsite
Queued events for site iwinchsite
[DEBUG] 2020-04-25 20:29:53,526 | /home/abhi/Documents/frappe/frappe-iwinch/apps/frappe/frappe/utils/scheduler.py:
Site: iwinchsite
Queued events for site iwinchsite
[DEBUG] 2020-04-25 20:30:53,634 | /home/abhi/Documents/frappe/frappe-iwinch/apps/frappe/frappe/utils/scheduler.py:
Site: iwinchsite
Queued events for site iwinchsite
[DEBUG] 2020-04-25 20:31:53,741 | /home/abhi/Documents/frappe/frappe-iwinch/apps/frappe/frappe/utils/scheduler.py:
Site: iwinchsite
Queued events for site iwinchsite
[DEBUG] 2020-04-25 20:32:53,864 | /home/abhi/Documents/frappe/frappe-iwinch/apps/frappe/frappe/utils/scheduler.py:
Site: iwinchsite
Queued events for site iwinchsite
[DEBUG] 2020-04-25 20:33:53,972 | /home/abhi/Documents/frappe/frappe-iwinch/apps/frappe/frappe/utils/scheduler.py:
Site: iwinchsite
Queued events for site iwinchsite
[DEBUG] 2020-04-25 20:34:54,082 | /home/abhi/Documents/frappe/frappe-iwinch/apps/frappe/frappe/utils/scheduler.py:
Site: iwinchsite
Queued events for site iwinchsite
[DEBUG] 2020-04-25 20:35:54,190 | /home/abhi/Documents/frappe/frappe-iwinch/apps/frappe/frappe/utils/scheduler.py:
Site: iwinchsite
Queued events for site iwinchsite
[DEBUG] 2020-04-25 20:36:54,314 | /home/abhi/Documents/frappe/frappe-iwinch/apps/frappe/frappe/utils/scheduler.py:
Site: iwinchsite
Queued events for site iwinchsite
[DEBUG] 2020-04-25 20:37:54,422 | /home/abhi/Documents/frappe/frappe-iwinch/apps/frappe/frappe/utils/scheduler.py:
Site: iwinchsite
Queued events for site iwinchsite
[DEBUG] 2020-04-25 20:38:54,530 | /home/abhi/Documents/frappe/frappe-iwinch/apps/frappe/frappe/utils/scheduler.py:
Site: iwinchsite
Queued events for site iwinchsite
[DEBUG] 2020-04-25 20:39:54,657 | /home/abhi/Documents/frappe/frappe-iwinch/apps/frappe/frappe/utils/scheduler.py:
Site: iwinchsite
Queued events for site iwinchsite
[DEBUG] 2020-04-25 20:40:54,792 | /home/abhi/Documents/frappe/frappe-iwinch/apps/frappe/frappe/utils/scheduler.py:
Site: iwinchsite
Queued events for site iwinchsite
[DEBUG] 2020-04-25 20:41:54,898 | /home/abhi/Documents/frappe/frappe-iwinch/apps/frappe/frappe/utils/scheduler.py:
Site: iwinchsite
Queued events for site iwinchsite
[DEBUG] 2020-04-25 20:42:55,008 | /home/abhi/Documents/frappe/frappe-iwinch/apps/frappe/frappe/utils/scheduler.py:
Site: iwinchsite
Queued events for site iwinchsite
[DEBUG] 2020-04-25 20:43:55,128 | /home/abhi/Documents/frappe/frappe-iwinch/apps/frappe/frappe/utils/scheduler.py:
Site: iwinchsite
Queued events for site iwinchsite
[DEBUG] 2020-04-25 20:44:55,268 | /home/abhi/Documents/frappe/frappe-iwinch/apps/frappe/frappe/utils/scheduler.py:
Site: iwinchsite
Queued events for site iwinchsite
[DEBUG] 2020-04-25 20:45:55,383 | /home/abhi/Documents/frappe/frappe-iwinch/apps/frappe/frappe/utils/scheduler.py:
Site: iwinchsite
Queued events for site iwinchsite
[DEBUG] 2020-04-25 20:46:55,494 | /home/abhi/Documents/frappe/frappe-iwinch/apps/frappe/frappe/utils/scheduler.py:
Site: iwinchsite
Queued events for site iwinchsite
[DEBUG] 2020-04-25 20:47:55,604 | /home/abhi/Documents/frappe/frappe-iwinch/apps/frappe/frappe/utils/scheduler.py:
Site: iwinchsite
Queued events for site iwinchsite
[DEBUG] 2020-04-25 20:48:55,730 | /home/abhi/Documents/frappe/frappe-iwinch/apps/frappe/frappe/utils/scheduler.py:
Site: iwinchsite
Queued events for site iwinchsite
[DEBUG] 2020-04-25 20:49:55,835 | /home/abhi/Documents/frappe/frappe-iwinch/apps/frappe/frappe/utils/scheduler.py:
Site: iwinchsite
Queued events for site iwinchsite
[DEBUG] 2020-04-25 20:50:55,946 | /home/abhi/Documents/frappe/frappe-iwinch/apps/frappe/frappe/utils/scheduler.py:
Site: iwinchsite
Queued events for site iwinchsite
[DEBUG] 2020-04-25 20:51:56,062 | /home/abhi/Documents/frappe/frappe-iwinch/apps/frappe/frappe/utils/scheduler.py:
Site: iwinchsite
Queued events for site iwinchsite
[DEBUG] 2020-04-25 20:52:56,186 | /home/abhi/Documents/frappe/frappe-iwinch/apps/frappe/frappe/utils/scheduler.py:
Site: iwinchsite
Queued events for site iwinchsite
[DEBUG] 2020-04-25 20:53:56,300 | /home/abhi/Documents/frappe/frappe-iwinch/apps/frappe/frappe/utils/scheduler.py:
Site: iwinchsite
Queued events for site iwinchsite
[DEBUG] 2020-04-25 20:54:56,406 | /home/abhi/Documents/frappe/frappe-iwinch/apps/frappe/frappe/utils/scheduler.py:
Site: iwinchsite
Queued events for site iwinchsite
[DEBUG] 2020-04-25 20:55:56,515 | /home/abhi/Documents/frappe/frappe-iwinch/apps/frappe/frappe/utils/scheduler.py:
Site: iwinchsite
Queued events for site iwinchsite
[DEBUG] 2020-04-25 20:56:56,651 | /home/abhi/Documents/frappe/frappe-iwinch/apps/frappe/frappe/utils/scheduler.py:
Site: iwinchsite
Queued events for site iwinchsite
[DEBUG] 2020-04-25 20:57:56,754 | /home/abhi/Documents/frappe/frappe-iwinch/apps/frappe/frappe/utils/scheduler.py:
Site: iwinchsite
Queued events for site iwinchsite
[DEBUG] 2020-04-25 20:58:56,872 | /home/abhi/Documents/frappe/frappe-iwinch/apps/frappe/frappe/utils/scheduler.py:
Site: iwinchsite
Queued events for site iwinchsite
[DEBUG] 2020-04-25 20:59:56,977 | /home/abhi/Documents/frappe/frappe-iwinch/apps/frappe/frappe/utils/scheduler.py:
Site: iwinchsite
Queued events for site iwinchsite
[DEBUG] 2020-04-25 21:00:57,119 | /home/abhi/Documents/frappe/frappe-iwinch/apps/frappe/frappe/utils/scheduler.py:
Site: iwinchsite
Queued events for site iwinchsite
[DEBUG] 2020-04-25 21:01:57,232 | /home/abhi/Documents/frappe/frappe-iwinch/apps/frappe/frappe/utils/scheduler.py:
Site: iwinchsite
Queued events for site iwinchsite
[DEBUG] 2020-04-25 21:02:57,340 | /home/abhi/Documents/frappe/frappe-iwinch/apps/frappe/frappe/utils/scheduler.py:
Site: iwinchsite
Queued events for site iwinchsite
[DEBUG] 2020-04-25 21:03:57,460 | /home/abhi/Documents/frappe/frappe-iwinch/apps/frappe/frappe/utils/scheduler.py:
Site: iwinchsite
Queued events for site iwinchsite
[DEBUG] 2020-04-25 21:04:57,591 | /home/abhi/Documents/frappe/frappe-iwinch/apps/frappe/frappe/utils/scheduler.py:
Site: iwinchsite
Queued events for site iwinchsite
[DEBUG] 2020-04-25 21:05:57,690 | /home/abhi/Documents/frappe/frappe-iwinch/apps/frappe/frappe/utils/scheduler.py:
Site: iwinchsite
Queued events for site iwinchsite
[DEBUG] 2020-04-25 21:06:57,793 | /home/abhi/Documents/frappe/frappe-iwinch/apps/frappe/frappe/utils/scheduler.py:
Site: iwinchsite
Queued events for site iwinchsite
[DEBUG] 2020-04-25 21:07:57,901 | /home/abhi/Documents/frappe/frappe-iwinch/apps/frappe/frappe/utils/scheduler.py:
Site: iwinchsite
Queued events for site iwinchsite
[DEBUG] 2020-04-25 21:08:58,049 | /home/abhi/Documents/frappe/frappe-iwinch/apps/frappe/frappe/utils/scheduler.py:
Site: iwinchsite
Queued events for site iwinchsite
[DEBUG] 2020-04-25 21:09:58,163 | /home/abhi/Documents/frappe/frappe-iwinch/apps/frappe/frappe/utils/scheduler.py:
Site: iwinchsite
Queued events for site iwinchsite
[DEBUG] 2020-04-25 21:10:58,280 | /home/abhi/Documents/frappe/frappe-iwinch/apps/frappe/frappe/utils/scheduler.py:
Site: iwinchsite
Queued events for site iwinchsite
[ERROR] 2020-04-25 21:12:36,597 | /home/abhi/Documents/frappe/frappe-iwinch/apps/frappe/frappe/app.py:
Site: iwinchsite
Form Dict: {
 "cmd": "frappe.realtime.get_user_info"
}
Request Error
Traceback (most recent call last):
  File "/home/abhi/Documents/frappe/frappe-iwinch/apps/frappe/frappe/app.py", line 62, in application
    response = frappe.api.handle()
  File "/home/abhi/Documents/frappe/frappe-iwinch/apps/frappe/frappe/api.py", line 56, in handle
    return frappe.handler.handle()
  File "/home/abhi/Documents/frappe/frappe-iwinch/apps/frappe/frappe/handler.py", line 22, in handle
    data = execute_cmd(cmd)
  File "/home/abhi/Documents/frappe/frappe-iwinch/apps/frappe/frappe/handler.py", line 61, in execute_cmd
    return frappe.call(method, **frappe.form_dict)
  File "/home/abhi/Documents/frappe/frappe-iwinch/apps/frappe/frappe/__init__.py", line 1055, in call
    return fn(*args, **newargs)
TypeError: get_user_info() missing 1 required positional argument: 'sid'
[ERROR] 2020-04-25 21:12:36,821 | /home/abhi/Documents/frappe/frappe-iwinch/apps/frappe/frappe/utils/error.py:
Could not take error snapshot: invalid syntax (<string>, line 1)
Traceback (most recent call last):
  File "/home/abhi/Documents/frappe/frappe-iwinch/apps/frappe/frappe/app.py", line 62, in application
    response = frappe.api.handle()
  File "/home/abhi/Documents/frappe/frappe-iwinch/apps/frappe/frappe/api.py", line 56, in handle
    return frappe.handler.handle()
  File "/home/abhi/Documents/frappe/frappe-iwinch/apps/frappe/frappe/handler.py", line 22, in handle
    data = execute_cmd(cmd)
  File "/home/abhi/Documents/frappe/frappe-iwinch/apps/frappe/frappe/handler.py", line 61, in execute_cmd
    return frappe.call(method, **frappe.form_dict)
  File "/home/abhi/Documents/frappe/frappe-iwinch/apps/frappe/frappe/__init__.py", line 1055, in call
    return fn(*args, **newargs)
TypeError: get_user_info() missing 1 required positional argument: 'sid'

During handling of the above exception, another exception occurred:

Traceback (most recent call last):
  File "/home/abhi/Documents/frappe/frappe-iwinch/apps/frappe/frappe/utils/error.py", line 36, in make_error_snapshot
    snapshot = get_snapshot(exception)
  File "/home/abhi/Documents/frappe/frappe-iwinch/apps/frappe/frappe/utils/error.py", line 132, in get_snapshot
    value = eval(value)
  File "<string>", line 1
    <built-in method with_traceback of TypeError object>
    ^
SyntaxError: invalid syntax
[DEBUG] 2020-04-25 21:13:34,866 | /home/abhi/Documents/frappe/frappe-iwinch/apps/frappe/frappe/utils/scheduler.py:
Site: iwinchsite
Queued events for site iwinchsite
[DEBUG] 2020-04-25 21:14:34,982 | /home/abhi/Documents/frappe/frappe-iwinch/apps/frappe/frappe/utils/scheduler.py:
Site: iwinchsite
Queued events for site iwinchsite
[DEBUG] 2020-04-25 21:15:35,117 | /home/abhi/Documents/frappe/frappe-iwinch/apps/frappe/frappe/utils/scheduler.py:
Site: iwinchsite
Queued events for site iwinchsite
[DEBUG] 2020-04-25 21:16:35,264 | /home/abhi/Documents/frappe/frappe-iwinch/apps/frappe/frappe/utils/scheduler.py:
Site: iwinchsite
Queued events for site iwinchsite
[DEBUG] 2020-04-25 21:17:35,362 | /home/abhi/Documents/frappe/frappe-iwinch/apps/frappe/frappe/utils/scheduler.py:
Site: iwinchsite
Queued events for site iwinchsite
[DEBUG] 2020-04-25 21:18:35,477 | /home/abhi/Documents/frappe/frappe-iwinch/apps/frappe/frappe/utils/scheduler.py:
Site: iwinchsite
Queued events for site iwinchsite
[DEBUG] 2020-04-25 21:19:35,585 | /home/abhi/Documents/frappe/frappe-iwinch/apps/frappe/frappe/utils/scheduler.py:
Site: iwinchsite
Queued events for site iwinchsite
[DEBUG] 2020-04-25 21:20:35,715 | /home/abhi/Documents/frappe/frappe-iwinch/apps/frappe/frappe/utils/scheduler.py:
Site: iwinchsite
Queued events for site iwinchsite
[DEBUG] 2020-04-25 21:21:35,839 | /home/abhi/Documents/frappe/frappe-iwinch/apps/frappe/frappe/utils/scheduler.py:
Site: iwinchsite
Queued events for site iwinchsite
[DEBUG] 2020-04-25 21:22:35,953 | /home/abhi/Documents/frappe/frappe-iwinch/apps/frappe/frappe/utils/scheduler.py:
Site: iwinchsite
Queued events for site iwinchsite
[DEBUG] 2020-04-25 21:23:36,056 | /home/abhi/Documents/frappe/frappe-iwinch/apps/frappe/frappe/utils/scheduler.py:
Site: iwinchsite
Queued events for site iwinchsite
[DEBUG] 2020-04-25 21:24:36,206 | /home/abhi/Documents/frappe/frappe-iwinch/apps/frappe/frappe/utils/scheduler.py:
Site: iwinchsite
Queued events for site iwinchsite
[DEBUG] 2020-04-25 21:25:36,314 | /home/abhi/Documents/frappe/frappe-iwinch/apps/frappe/frappe/utils/scheduler.py:
Site: iwinchsite
Queued events for site iwinchsite
[DEBUG] 2020-04-25 21:26:36,429 | /home/abhi/Documents/frappe/frappe-iwinch/apps/frappe/frappe/utils/scheduler.py:
Site: iwinchsite
Queued events for site iwinchsite
[DEBUG] 2020-04-25 21:27:36,534 | /home/abhi/Documents/frappe/frappe-iwinch/apps/frappe/frappe/utils/scheduler.py:
Site: iwinchsite
Queued events for site iwinchsite
[DEBUG] 2020-04-25 21:28:36,663 | /home/abhi/Documents/frappe/frappe-iwinch/apps/frappe/frappe/utils/scheduler.py:
Site: iwinchsite
Queued events for site iwinchsite
[DEBUG] 2020-04-25 21:29:36,777 | /home/abhi/Documents/frappe/frappe-iwinch/apps/frappe/frappe/utils/scheduler.py:
Site: iwinchsite
Queued events for site iwinchsite
[DEBUG] 2020-04-25 21:30:36,889 | /home/abhi/Documents/frappe/frappe-iwinch/apps/frappe/frappe/utils/scheduler.py:
Site: iwinchsite
Queued events for site iwinchsite
[DEBUG] 2020-04-25 21:31:37,000 | /home/abhi/Documents/frappe/frappe-iwinch/apps/frappe/frappe/utils/scheduler.py:
Site: iwinchsite
Queued events for site iwinchsite
[DEBUG] 2020-04-25 21:32:37,130 | /home/abhi/Documents/frappe/frappe-iwinch/apps/frappe/frappe/utils/scheduler.py:
Site: iwinchsite
Queued events for site iwinchsite
[DEBUG] 2020-04-25 21:33:37,246 | /home/abhi/Documents/frappe/frappe-iwinch/apps/frappe/frappe/utils/scheduler.py:
Site: iwinchsite
Queued events for site iwinchsite
[DEBUG] 2020-04-25 21:34:37,357 | /home/abhi/Documents/frappe/frappe-iwinch/apps/frappe/frappe/utils/scheduler.py:
Site: iwinchsite
Queued events for site iwinchsite
[DEBUG] 2020-04-25 21:35:37,467 | /home/abhi/Documents/frappe/frappe-iwinch/apps/frappe/frappe/utils/scheduler.py:
Site: iwinchsite
Queued events for site iwinchsite
[DEBUG] 2020-04-25 21:36:37,598 | /home/abhi/Documents/frappe/frappe-iwinch/apps/frappe/frappe/utils/scheduler.py:
Site: iwinchsite
Queued events for site iwinchsite
[DEBUG] 2020-04-25 21:37:37,702 | /home/abhi/Documents/frappe/frappe-iwinch/apps/frappe/frappe/utils/scheduler.py:
Site: iwinchsite
Queued events for site iwinchsite
[DEBUG] 2020-04-25 21:38:37,811 | /home/abhi/Documents/frappe/frappe-iwinch/apps/frappe/frappe/utils/scheduler.py:
Site: iwinchsite
Queued events for site iwinchsite
[DEBUG] 2020-04-25 21:39:37,921 | /home/abhi/Documents/frappe/frappe-iwinch/apps/frappe/frappe/utils/scheduler.py:
Site: iwinchsite
Queued events for site iwinchsite
[DEBUG] 2020-04-25 21:40:38,056 | /home/abhi/Documents/frappe/frappe-iwinch/apps/frappe/frappe/utils/scheduler.py:
Site: iwinchsite
Queued events for site iwinchsite
[DEBUG] 2020-04-25 21:41:38,166 | /home/abhi/Documents/frappe/frappe-iwinch/apps/frappe/frappe/utils/scheduler.py:
Site: iwinchsite
Queued events for site iwinchsite
[DEBUG] 2020-04-25 21:42:38,285 | /home/abhi/Documents/frappe/frappe-iwinch/apps/frappe/frappe/utils/scheduler.py:
Site: iwinchsite
Queued events for site iwinchsite
[DEBUG] 2020-04-25 21:43:38,398 | /home/abhi/Documents/frappe/frappe-iwinch/apps/frappe/frappe/utils/scheduler.py:
Site: iwinchsite
Queued events for site iwinchsite
[DEBUG] 2020-04-25 21:44:38,543 | /home/abhi/Documents/frappe/frappe-iwinch/apps/frappe/frappe/utils/scheduler.py:
Site: iwinchsite
Queued events for site iwinchsite
[DEBUG] 2020-04-25 21:45:38,654 | /home/abhi/Documents/frappe/frappe-iwinch/apps/frappe/frappe/utils/scheduler.py:
Site: iwinchsite
Queued events for site iwinchsite
[DEBUG] 2020-04-25 21:46:38,761 | /home/abhi/Documents/frappe/frappe-iwinch/apps/frappe/frappe/utils/scheduler.py:
Site: iwinchsite
Queued events for site iwinchsite
[DEBUG] 2020-04-25 21:47:38,885 | /home/abhi/Documents/frappe/frappe-iwinch/apps/frappe/frappe/utils/scheduler.py:
Site: iwinchsite
Queued events for site iwinchsite
[DEBUG] 2020-04-25 21:48:39,013 | /home/abhi/Documents/frappe/frappe-iwinch/apps/frappe/frappe/utils/scheduler.py:
Site: iwinchsite
Queued events for site iwinchsite
[DEBUG] 2020-04-25 21:49:39,123 | /home/abhi/Documents/frappe/frappe-iwinch/apps/frappe/frappe/utils/scheduler.py:
Site: iwinchsite
Queued events for site iwinchsite
[DEBUG] 2020-04-25 21:50:39,236 | /home/abhi/Documents/frappe/frappe-iwinch/apps/frappe/frappe/utils/scheduler.py:
Site: iwinchsite
Queued events for site iwinchsite
[DEBUG] 2020-04-25 21:51:39,351 | /home/abhi/Documents/frappe/frappe-iwinch/apps/frappe/frappe/utils/scheduler.py:
Site: iwinchsite
Queued events for site iwinchsite
[DEBUG] 2020-04-25 21:52:39,501 | /home/abhi/Documents/frappe/frappe-iwinch/apps/frappe/frappe/utils/scheduler.py:
Site: iwinchsite
Queued events for site iwinchsite
[DEBUG] 2020-04-25 21:53:39,619 | /home/abhi/Documents/frappe/frappe-iwinch/apps/frappe/frappe/utils/scheduler.py:
Site: iwinchsite
Queued events for site iwinchsite
[DEBUG] 2020-04-25 21:54:39,727 | /home/abhi/Documents/frappe/frappe-iwinch/apps/frappe/frappe/utils/scheduler.py:
Site: iwinchsite
Queued events for site iwinchsite
[DEBUG] 2020-04-25 21:55:39,841 | /home/abhi/Documents/frappe/frappe-iwinch/apps/frappe/frappe/utils/scheduler.py:
Site: iwinchsite
Queued events for site iwinchsite
[DEBUG] 2020-04-25 21:56:39,969 | /home/abhi/Documents/frappe/frappe-iwinch/apps/frappe/frappe/utils/scheduler.py:
Site: iwinchsite
Queued events for site iwinchsite
[DEBUG] 2020-04-25 21:57:40,085 | /home/abhi/Documents/frappe/frappe-iwinch/apps/frappe/frappe/utils/scheduler.py:
Site: iwinchsite
Queued events for site iwinchsite
[DEBUG] 2020-04-25 21:58:40,219 | /home/abhi/Documents/frappe/frappe-iwinch/apps/frappe/frappe/utils/scheduler.py:
Site: iwinchsite
Queued events for site iwinchsite
[DEBUG] 2020-04-25 21:59:40,333 | /home/abhi/Documents/frappe/frappe-iwinch/apps/frappe/frappe/utils/scheduler.py:
Site: iwinchsite
Queued events for site iwinchsite
[DEBUG] 2020-04-25 22:00:40,470 | /home/abhi/Documents/frappe/frappe-iwinch/apps/frappe/frappe/utils/scheduler.py:
Site: iwinchsite
Queued events for site iwinchsite
[DEBUG] 2020-04-25 22:01:40,582 | /home/abhi/Documents/frappe/frappe-iwinch/apps/frappe/frappe/utils/scheduler.py:
Site: iwinchsite
Queued events for site iwinchsite
[DEBUG] 2020-04-25 22:02:40,698 | /home/abhi/Documents/frappe/frappe-iwinch/apps/frappe/frappe/utils/scheduler.py:
Site: iwinchsite
Queued events for site iwinchsite
[DEBUG] 2020-04-25 22:03:40,815 | /home/abhi/Documents/frappe/frappe-iwinch/apps/frappe/frappe/utils/scheduler.py:
Site: iwinchsite
Queued events for site iwinchsite
[DEBUG] 2020-04-25 22:04:40,937 | /home/abhi/Documents/frappe/frappe-iwinch/apps/frappe/frappe/utils/scheduler.py:
Site: iwinchsite
Queued events for site iwinchsite
[DEBUG] 2020-04-25 22:05:41,048 | /home/abhi/Documents/frappe/frappe-iwinch/apps/frappe/frappe/utils/scheduler.py:
Site: iwinchsite
Queued events for site iwinchsite
[DEBUG] 2020-04-25 22:06:41,156 | /home/abhi/Documents/frappe/frappe-iwinch/apps/frappe/frappe/utils/scheduler.py:
Site: iwinchsite
Queued events for site iwinchsite
[DEBUG] 2020-04-25 22:07:41,258 | /home/abhi/Documents/frappe/frappe-iwinch/apps/frappe/frappe/utils/scheduler.py:
Site: iwinchsite
Queued events for site iwinchsite
[DEBUG] 2020-04-25 22:08:41,395 | /home/abhi/Documents/frappe/frappe-iwinch/apps/frappe/frappe/utils/scheduler.py:
Site: iwinchsite
Queued events for site iwinchsite
[DEBUG] 2020-04-25 22:09:41,508 | /home/abhi/Documents/frappe/frappe-iwinch/apps/frappe/frappe/utils/scheduler.py:
Site: iwinchsite
Queued events for site iwinchsite
[DEBUG] 2020-04-25 22:10:41,622 | /home/abhi/Documents/frappe/frappe-iwinch/apps/frappe/frappe/utils/scheduler.py:
Site: iwinchsite
Queued events for site iwinchsite
[DEBUG] 2020-04-25 22:11:41,736 | /home/abhi/Documents/frappe/frappe-iwinch/apps/frappe/frappe/utils/scheduler.py:
Site: iwinchsite
Queued events for site iwinchsite
[DEBUG] 2020-04-25 22:12:41,865 | /home/abhi/Documents/frappe/frappe-iwinch/apps/frappe/frappe/utils/scheduler.py:
Site: iwinchsite
Queued events for site iwinchsite
[DEBUG] 2020-04-25 22:13:41,964 | /home/abhi/Documents/frappe/frappe-iwinch/apps/frappe/frappe/utils/scheduler.py:
Site: iwinchsite
Queued events for site iwinchsite
[DEBUG] 2020-04-25 22:14:42,076 | /home/abhi/Documents/frappe/frappe-iwinch/apps/frappe/frappe/utils/scheduler.py:
Site: iwinchsite
Queued events for site iwinchsite
[DEBUG] 2020-04-25 22:15:42,195 | /home/abhi/Documents/frappe/frappe-iwinch/apps/frappe/frappe/utils/scheduler.py:
Site: iwinchsite
Queued events for site iwinchsite
[DEBUG] 2020-04-25 22:16:42,323 | /home/abhi/Documents/frappe/frappe-iwinch/apps/frappe/frappe/utils/scheduler.py:
Site: iwinchsite
Queued events for site iwinchsite
[DEBUG] 2020-04-25 22:17:42,442 | /home/abhi/Documents/frappe/frappe-iwinch/apps/frappe/frappe/utils/scheduler.py:
Site: iwinchsite
Queued events for site iwinchsite
[DEBUG] 2020-04-25 22:18:42,547 | /home/abhi/Documents/frappe/frappe-iwinch/apps/frappe/frappe/utils/scheduler.py:
Site: iwinchsite
Queued events for site iwinchsite
[DEBUG] 2020-04-25 22:19:42,662 | /home/abhi/Documents/frappe/frappe-iwinch/apps/frappe/frappe/utils/scheduler.py:
Site: iwinchsite
Queued events for site iwinchsite
[DEBUG] 2020-04-25 22:20:42,800 | /home/abhi/Documents/frappe/frappe-iwinch/apps/frappe/frappe/utils/scheduler.py:
Site: iwinchsite
Queued events for site iwinchsite
