[ERROR] 2020-04-25 14:50:20,967 | /home/abhi/Documents/frappe/frappe-iwinch/apps/frappe/frappe/app.py:
Site: iwinchsite
Form Dict: {
 "cmd": "",
 "filters": "{\"customer\":\"suku@xyz.com\"}",
 "page_length": "10",
 "start": "0"
}
Request Error
Traceback (most recent call last):
  File "/home/abhi/Documents/frappe/frappe-iwinch/apps/frappe/frappe/app.py", line 62, in application
    response = frappe.api.handle()
  File "/home/abhi/Documents/frappe/frappe-iwinch/apps/frappe/frappe/api.py", line 56, in handle
    return frappe.handler.handle()
  File "/home/abhi/Documents/frappe/frappe-iwinch/apps/frappe/frappe/handler.py", line 22, in handle
    data = execute_cmd(cmd)
  File "/home/abhi/Documents/frappe/frappe-iwinch/apps/frappe/frappe/handler.py", line 50, in execute_cmd
    raise e
  File "/home/abhi/Documents/frappe/frappe-iwinch/apps/frappe/frappe/handler.py", line 47, in execute_cmd
    method = get_attr(cmd)
  File "/home/abhi/Documents/frappe/frappe-iwinch/apps/frappe/frappe/handler.py", line 207, in get_attr
    method = globals()[cmd]
KeyError: ''
