[ERROR] 2020-04-25 14:50:20,989 | /home/abhi/Documents/frappe/frappe-iwinch/apps/frappe/frappe/utils/error.py:
Could not take error snapshot: invalid syntax (<string>, line 1)
Traceback (most recent call last):
  File "/home/abhi/Documents/frappe/frappe-iwinch/apps/frappe/frappe/app.py", line 62, in application
    response = frappe.api.handle()
  File "/home/abhi/Documents/frappe/frappe-iwinch/apps/frappe/frappe/api.py", line 56, in handle
    return frappe.handler.handle()
  File "/home/abhi/Documents/frappe/frappe-iwinch/apps/frappe/frappe/handler.py", line 22, in handle
    data = execute_cmd(cmd)
  File "/home/abhi/Documents/frappe/frappe-iwinch/apps/frappe/frappe/handler.py", line 50, in execute_cmd
    raise e
  File "/home/abhi/Documents/frappe/frappe-iwinch/apps/frappe/frappe/handler.py", line 47, in execute_cmd
    method = get_attr(cmd)
  File "/home/abhi/Documents/frappe/frappe-iwinch/apps/frappe/frappe/handler.py", line 207, in get_attr
    method = globals()[cmd]
KeyError: ''

During handling of the above exception, another exception occurred:

Traceback (most recent call last):
  File "/home/abhi/Documents/frappe/frappe-iwinch/apps/frappe/frappe/utils/error.py", line 36, in make_error_snapshot
    snapshot = get_snapshot(exception)
  File "/home/abhi/Documents/frappe/frappe-iwinch/apps/frappe/frappe/utils/error.py", line 132, in get_snapshot
    value = eval(value)
  File "<string>", line 1
    <built-in method with_traceback of KeyError object>
    ^
SyntaxError: invalid syntax
