[DEBUG] 2020-04-27 16:26:22,472 | /home/abhi/Documents/frappe/frappe-iwinch/apps/frappe/frappe/utils/scheduler.py:
Site: iwinchsite
Queued events for site iwinchsite
[DEBUG] 2020-04-27 16:27:22,620 | /home/abhi/Documents/frappe/frappe-iwinch/apps/frappe/frappe/utils/scheduler.py:
Site: iwinchsite
Queued events for site iwinchsite
[DEBUG] 2020-04-27 16:28:22,934 | /home/abhi/Documents/frappe/frappe-iwinch/apps/frappe/frappe/utils/scheduler.py:
Site: iwinchsite
Queued events for site iwinchsite
[DEBUG] 2020-04-27 16:29:23,060 | /home/abhi/Documents/frappe/frappe-iwinch/apps/frappe/frappe/utils/scheduler.py:
Site: iwinchsite
Queued events for site iwinchsite
[DEBUG] 2020-04-27 16:30:23,171 | /home/abhi/Documents/frappe/frappe-iwinch/apps/frappe/frappe/utils/scheduler.py:
Site: iwinchsite
Queued events for site iwinchsite
[DEBUG] 2020-04-27 16:31:23,288 | /home/abhi/Documents/frappe/frappe-iwinch/apps/frappe/frappe/utils/scheduler.py:
Site: iwinchsite
Queued events for site iwinchsite
[DEBUG] 2020-04-27 16:32:23,424 | /home/abhi/Documents/frappe/frappe-iwinch/apps/frappe/frappe/utils/scheduler.py:
Site: iwinchsite
Queued events for site iwinchsite
[DEBUG] 2020-04-27 16:33:23,532 | /home/abhi/Documents/frappe/frappe-iwinch/apps/frappe/frappe/utils/scheduler.py:
Site: iwinchsite
Queued events for site iwinchsite
[DEBUG] 2020-04-27 16:34:23,651 | /home/abhi/Documents/frappe/frappe-iwinch/apps/frappe/frappe/utils/scheduler.py:
Site: iwinchsite
Queued events for site iwinchsite
[DEBUG] 2020-04-27 16:35:23,768 | /home/abhi/Documents/frappe/frappe-iwinch/apps/frappe/frappe/utils/scheduler.py:
Site: iwinchsite
Queued events for site iwinchsite
[DEBUG] 2020-04-27 16:36:23,902 | /home/abhi/Documents/frappe/frappe-iwinch/apps/frappe/frappe/utils/scheduler.py:
Site: iwinchsite
Queued events for site iwinchsite
[DEBUG] 2020-04-27 16:37:24,026 | /home/abhi/Documents/frappe/frappe-iwinch/apps/frappe/frappe/utils/scheduler.py:
Site: iwinchsite
Queued events for site iwinchsite
[DEBUG] 2020-04-27 16:38:24,163 | /home/abhi/Documents/frappe/frappe-iwinch/apps/frappe/frappe/utils/scheduler.py:
Site: iwinchsite
Queued events for site iwinchsite
[DEBUG] 2020-04-27 16:39:43,811 | /home/abhi/Documents/frappe/frappe-iwinch/apps/frappe/frappe/utils/scheduler.py:
Site: iwinchsite
Queued events for site iwinchsite
[DEBUG] 2020-04-27 16:40:44,620 | /home/abhi/Documents/frappe/frappe-iwinch/apps/frappe/frappe/utils/scheduler.py:
Site: iwinchsite
Queued events for site iwinchsite
[DEBUG] 2020-04-27 16:41:44,996 | /home/abhi/Documents/frappe/frappe-iwinch/apps/frappe/frappe/utils/scheduler.py:
Site: iwinchsite
Queued events for site iwinchsite
[DEBUG] 2020-04-27 16:42:54,494 | /home/abhi/Documents/frappe/frappe-iwinch/apps/frappe/frappe/utils/scheduler.py:
Site: iwinchsite
Queued events for site iwinchsite
[DEBUG] 2020-04-27 16:44:48,352 | /home/abhi/Documents/frappe/frappe-iwinch/apps/frappe/frappe/utils/scheduler.py:
Site: iwinchsite
Queued events for site iwinchsite
[DEBUG] 2020-04-27 17:05:55,540 | /home/abhi/Documents/frappe/frappe-iwinch/apps/frappe/frappe/utils/scheduler.py:
Site: iwinchsite
Queued events for site iwinchsite
[DEBUG] 2020-04-27 17:06:55,897 | /home/abhi/Documents/frappe/frappe-iwinch/apps/frappe/frappe/utils/scheduler.py:
Site: iwinchsite
Queued events for site iwinchsite
[DEBUG] 2020-04-27 17:07:56,140 | /home/abhi/Documents/frappe/frappe-iwinch/apps/frappe/frappe/utils/scheduler.py:
Site: iwinchsite
Queued events for site iwinchsite
[DEBUG] 2020-04-27 17:08:56,279 | /home/abhi/Documents/frappe/frappe-iwinch/apps/frappe/frappe/utils/scheduler.py:
Site: iwinchsite
Queued events for site iwinchsite
[DEBUG] 2020-04-27 17:09:56,439 | /home/abhi/Documents/frappe/frappe-iwinch/apps/frappe/frappe/utils/scheduler.py:
Site: iwinchsite
Queued events for site iwinchsite
[DEBUG] 2020-04-27 17:10:56,554 | /home/abhi/Documents/frappe/frappe-iwinch/apps/frappe/frappe/utils/scheduler.py:
Site: iwinchsite
Queued events for site iwinchsite
[DEBUG] 2020-04-27 17:11:56,756 | /home/abhi/Documents/frappe/frappe-iwinch/apps/frappe/frappe/utils/scheduler.py:
Site: iwinchsite
Queued events for site iwinchsite
[DEBUG] 2020-04-27 17:12:56,933 | /home/abhi/Documents/frappe/frappe-iwinch/apps/frappe/frappe/utils/scheduler.py:
Site: iwinchsite
Queued events for site iwinchsite
[DEBUG] 2020-04-27 17:13:57,200 | /home/abhi/Documents/frappe/frappe-iwinch/apps/frappe/frappe/utils/scheduler.py:
Site: iwinchsite
Queued events for site iwinchsite
[DEBUG] 2020-04-27 17:14:57,323 | /home/abhi/Documents/frappe/frappe-iwinch/apps/frappe/frappe/utils/scheduler.py:
Site: iwinchsite
Queued events for site iwinchsite
[DEBUG] 2020-04-27 17:15:57,707 | /home/abhi/Documents/frappe/frappe-iwinch/apps/frappe/frappe/utils/scheduler.py:
Site: iwinchsite
Queued events for site iwinchsite
[DEBUG] 2020-04-27 17:16:58,633 | /home/abhi/Documents/frappe/frappe-iwinch/apps/frappe/frappe/utils/scheduler.py:
Site: iwinchsite
Queued events for site iwinchsite
[DEBUG] 2020-04-27 17:17:59,192 | /home/abhi/Documents/frappe/frappe-iwinch/apps/frappe/frappe/utils/scheduler.py:
Site: iwinchsite
Queued events for site iwinchsite
[DEBUG] 2020-04-27 17:18:59,309 | /home/abhi/Documents/frappe/frappe-iwinch/apps/frappe/frappe/utils/scheduler.py:
Site: iwinchsite
Queued events for site iwinchsite
[DEBUG] 2020-04-27 17:19:59,412 | /home/abhi/Documents/frappe/frappe-iwinch/apps/frappe/frappe/utils/scheduler.py:
Site: iwinchsite
Queued events for site iwinchsite
[DEBUG] 2020-04-27 17:20:59,543 | /home/abhi/Documents/frappe/frappe-iwinch/apps/frappe/frappe/utils/scheduler.py:
Site: iwinchsite
Queued events for site iwinchsite
[DEBUG] 2020-04-27 17:21:59,768 | /home/abhi/Documents/frappe/frappe-iwinch/apps/frappe/frappe/utils/scheduler.py:
Site: iwinchsite
Queued events for site iwinchsite
[DEBUG] 2020-04-27 17:23:00,011 | /home/abhi/Documents/frappe/frappe-iwinch/apps/frappe/frappe/utils/scheduler.py:
Site: iwinchsite
Queued events for site iwinchsite
[DEBUG] 2020-04-27 17:24:00,391 | /home/abhi/Documents/frappe/frappe-iwinch/apps/frappe/frappe/utils/scheduler.py:
Site: iwinchsite
Queued events for site iwinchsite
[DEBUG] 2020-04-27 17:25:00,628 | /home/abhi/Documents/frappe/frappe-iwinch/apps/frappe/frappe/utils/scheduler.py:
Site: iwinchsite
Queued events for site iwinchsite
[DEBUG] 2020-04-27 17:26:00,813 | /home/abhi/Documents/frappe/frappe-iwinch/apps/frappe/frappe/utils/scheduler.py:
Site: iwinchsite
Queued events for site iwinchsite
[DEBUG] 2020-04-27 17:27:01,014 | /home/abhi/Documents/frappe/frappe-iwinch/apps/frappe/frappe/utils/scheduler.py:
Site: iwinchsite
Queued events for site iwinchsite
[DEBUG] 2020-04-27 17:28:01,534 | /home/abhi/Documents/frappe/frappe-iwinch/apps/frappe/frappe/utils/scheduler.py:
Site: iwinchsite
Queued events for site iwinchsite
[DEBUG] 2020-04-27 17:29:05,296 | /home/abhi/Documents/frappe/frappe-iwinch/apps/frappe/frappe/utils/scheduler.py:
Site: iwinchsite
Queued events for site iwinchsite
[DEBUG] 2020-04-27 17:30:05,992 | /home/abhi/Documents/frappe/frappe-iwinch/apps/frappe/frappe/utils/scheduler.py:
Site: iwinchsite
Queued events for site iwinchsite
[DEBUG] 2020-04-27 17:37:15,930 | /home/abhi/Documents/frappe/frappe-iwinch/apps/frappe/frappe/utils/scheduler.py:
Site: iwinchsite
Queued events for site iwinchsite
[DEBUG] 2020-04-27 17:38:16,049 | /home/abhi/Documents/frappe/frappe-iwinch/apps/frappe/frappe/utils/scheduler.py:
Site: iwinchsite
Queued events for site iwinchsite
[DEBUG] 2020-04-27 17:39:16,388 | /home/abhi/Documents/frappe/frappe-iwinch/apps/frappe/frappe/utils/scheduler.py:
Site: iwinchsite
Queued events for site iwinchsite
[DEBUG] 2020-04-27 17:40:16,674 | /home/abhi/Documents/frappe/frappe-iwinch/apps/frappe/frappe/utils/scheduler.py:
Site: iwinchsite
Queued events for site iwinchsite
[DEBUG] 2020-04-27 17:41:16,789 | /home/abhi/Documents/frappe/frappe-iwinch/apps/frappe/frappe/utils/scheduler.py:
Site: iwinchsite
Queued events for site iwinchsite
[DEBUG] 2020-04-27 17:42:16,902 | /home/abhi/Documents/frappe/frappe-iwinch/apps/frappe/frappe/utils/scheduler.py:
Site: iwinchsite
Queued events for site iwinchsite
[DEBUG] 2020-04-27 17:43:17,165 | /home/abhi/Documents/frappe/frappe-iwinch/apps/frappe/frappe/utils/scheduler.py:
Site: iwinchsite
Queued events for site iwinchsite
[DEBUG] 2020-04-27 17:44:17,437 | /home/abhi/Documents/frappe/frappe-iwinch/apps/frappe/frappe/utils/scheduler.py:
Site: iwinchsite
Queued events for site iwinchsite
[DEBUG] 2020-04-27 17:45:17,551 | /home/abhi/Documents/frappe/frappe-iwinch/apps/frappe/frappe/utils/scheduler.py:
Site: iwinchsite
Queued events for site iwinchsite
[DEBUG] 2020-04-27 17:46:17,664 | /home/abhi/Documents/frappe/frappe-iwinch/apps/frappe/frappe/utils/scheduler.py:
Site: iwinchsite
Queued events for site iwinchsite
[DEBUG] 2020-04-27 17:47:17,764 | /home/abhi/Documents/frappe/frappe-iwinch/apps/frappe/frappe/utils/scheduler.py:
Site: iwinchsite
Queued events for site iwinchsite
[DEBUG] 2020-04-27 17:48:17,903 | /home/abhi/Documents/frappe/frappe-iwinch/apps/frappe/frappe/utils/scheduler.py:
Site: iwinchsite
Queued events for site iwinchsite
[DEBUG] 2020-04-27 17:49:18,009 | /home/abhi/Documents/frappe/frappe-iwinch/apps/frappe/frappe/utils/scheduler.py:
Site: iwinchsite
Queued events for site iwinchsite
[DEBUG] 2020-04-27 17:50:18,116 | /home/abhi/Documents/frappe/frappe-iwinch/apps/frappe/frappe/utils/scheduler.py:
Site: iwinchsite
Queued events for site iwinchsite
[DEBUG] 2020-04-27 17:51:18,225 | /home/abhi/Documents/frappe/frappe-iwinch/apps/frappe/frappe/utils/scheduler.py:
Site: iwinchsite
Queued events for site iwinchsite
[DEBUG] 2020-04-27 17:52:18,352 | /home/abhi/Documents/frappe/frappe-iwinch/apps/frappe/frappe/utils/scheduler.py:
Site: iwinchsite
Queued events for site iwinchsite
[ERROR] 2020-04-27 17:52:43,523 | /home/abhi/Documents/frappe/frappe-iwinch/apps/frappe/frappe/app.py:
Site: iwinchsite
Form Dict: {
 "cmd": "profiles.api_admin.list_riders",
 "filters": "{}",
 "order_by": "creation desc",
 "page_length": "10",
 "start": "0"
}
Request Error
Traceback (most recent call last):
  File "/home/abhi/Documents/frappe/frappe-iwinch/apps/frappe/frappe/app.py", line 62, in application
    response = frappe.api.handle()
  File "/home/abhi/Documents/frappe/frappe-iwinch/apps/frappe/frappe/api.py", line 56, in handle
    return frappe.handler.handle()
  File "/home/abhi/Documents/frappe/frappe-iwinch/apps/frappe/frappe/handler.py", line 22, in handle
    data = execute_cmd(cmd)
  File "/home/abhi/Documents/frappe/frappe-iwinch/apps/frappe/frappe/handler.py", line 50, in execute_cmd
    raise e
  File "/home/abhi/Documents/frappe/frappe-iwinch/apps/frappe/frappe/handler.py", line 47, in execute_cmd
    method = get_attr(cmd)
  File "/home/abhi/Documents/frappe/frappe-iwinch/apps/frappe/frappe/handler.py", line 205, in get_attr
    method = frappe.get_attr(cmd)
  File "/home/abhi/Documents/frappe/frappe-iwinch/apps/frappe/frappe/__init__.py", line 1046, in get_attr
    return getattr(get_module(modulename), methodname)
  File "/home/abhi/Documents/frappe/frappe-iwinch/apps/frappe/frappe/__init__.py", line 827, in get_module
    return importlib.import_module(modulename)
  File "/home/abhi/Documents/frappe/frappe-iwinch/env/lib/python3.6/importlib/__init__.py", line 126, in import_module
    return _bootstrap._gcd_import(name[level:], package, level)
  File "<frozen importlib._bootstrap>", line 994, in _gcd_import
  File "<frozen importlib._bootstrap>", line 971, in _find_and_load
  File "<frozen importlib._bootstrap>", line 955, in _find_and_load_unlocked
  File "<frozen importlib._bootstrap>", line 665, in _load_unlocked
  File "<frozen importlib._bootstrap_external>", line 678, in exec_module
  File "<frozen importlib._bootstrap>", line 219, in _call_with_frames_removed
  File "/home/abhi/Documents/frappe/frappe-iwinch/apps/profiles/profiles/api_admin.py", line 144, in <module>
    @frappe.whitelist(name)
NameError: name 'name' is not defined
[ERROR] 2020-04-27 17:52:43,523 | /home/abhi/Documents/frappe/frappe-iwinch/apps/frappe/frappe/app.py:
Site: iwinchsite
Form Dict: {
 "cmd": "profiles.api_admin.list_riders",
 "filters": "{}",
 "order_by": "creation desc",
 "page_length": "10",
 "start": "0"
}
Site: iwinchsite
Form Dict: {
 "cmd": "profiles.api_admin.list_riders",
 "filters": "{}",
 "order_by": "creation desc",
 "page_length": "10",
 "start": "0"
}
Request Error
Traceback (most recent call last):
  File "/home/abhi/Documents/frappe/frappe-iwinch/apps/frappe/frappe/app.py", line 62, in application
    response = frappe.api.handle()
  File "/home/abhi/Documents/frappe/frappe-iwinch/apps/frappe/frappe/api.py", line 56, in handle
    return frappe.handler.handle()
  File "/home/abhi/Documents/frappe/frappe-iwinch/apps/frappe/frappe/handler.py", line 22, in handle
    data = execute_cmd(cmd)
  File "/home/abhi/Documents/frappe/frappe-iwinch/apps/frappe/frappe/handler.py", line 50, in execute_cmd
    raise e
  File "/home/abhi/Documents/frappe/frappe-iwinch/apps/frappe/frappe/handler.py", line 47, in execute_cmd
    method = get_attr(cmd)
  File "/home/abhi/Documents/frappe/frappe-iwinch/apps/frappe/frappe/handler.py", line 205, in get_attr
    method = frappe.get_attr(cmd)
  File "/home/abhi/Documents/frappe/frappe-iwinch/apps/frappe/frappe/__init__.py", line 1046, in get_attr
    return getattr(get_module(modulename), methodname)
  File "/home/abhi/Documents/frappe/frappe-iwinch/apps/frappe/frappe/__init__.py", line 827, in get_module
    return importlib.import_module(modulename)
  File "/home/abhi/Documents/frappe/frappe-iwinch/env/lib/python3.6/importlib/__init__.py", line 126, in import_module
    return _bootstrap._gcd_import(name[level:], package, level)
  File "<frozen importlib._bootstrap>", line 994, in _gcd_import
  File "<frozen importlib._bootstrap>", line 971, in _find_and_load
  File "<frozen importlib._bootstrap>", line 955, in _find_and_load_unlocked
  File "<frozen importlib._bootstrap>", line 665, in _load_unlocked
  File "<frozen importlib._bootstrap_external>", line 678, in exec_module
  File "<frozen importlib._bootstrap>", line 219, in _call_with_frames_removed
  File "/home/abhi/Documents/frappe/frappe-iwinch/apps/profiles/profiles/api_admin.py", line 144, in <module>
    @frappe.whitelist(name)
NameError: name 'name' is not defined
[ERROR] 2020-04-27 17:52:43,523 | /home/abhi/Documents/frappe/frappe-iwinch/apps/frappe/frappe/app.py:
Site: iwinchsite
Form Dict: {
 "cmd": "profiles.api_admin.list_riders",
 "filters": "{}",
 "order_by": "creation desc",
 "page_length": "10",
 "start": "0"
}
Request Error
Traceback (most recent call last):
  File "/home/abhi/Documents/frappe/frappe-iwinch/apps/frappe/frappe/app.py", line 62, in application
    response = frappe.api.handle()
  File "/home/abhi/Documents/frappe/frappe-iwinch/apps/frappe/frappe/api.py", line 56, in handle
    return frappe.handler.handle()
  File "/home/abhi/Documents/frappe/frappe-iwinch/apps/frappe/frappe/handler.py", line 22, in handle
    data = execute_cmd(cmd)
  File "/home/abhi/Documents/frappe/frappe-iwinch/apps/frappe/frappe/handler.py", line 50, in execute_cmd
    raise e
  File "/home/abhi/Documents/frappe/frappe-iwinch/apps/frappe/frappe/handler.py", line 47, in execute_cmd
    method = get_attr(cmd)
  File "/home/abhi/Documents/frappe/frappe-iwinch/apps/frappe/frappe/handler.py", line 205, in get_attr
    method = frappe.get_attr(cmd)
  File "/home/abhi/Documents/frappe/frappe-iwinch/apps/frappe/frappe/__init__.py", line 1046, in get_attr
    return getattr(get_module(modulename), methodname)
  File "/home/abhi/Documents/frappe/frappe-iwinch/apps/frappe/frappe/__init__.py", line 827, in get_module
    return importlib.import_module(modulename)
  File "/home/abhi/Documents/frappe/frappe-iwinch/env/lib/python3.6/importlib/__init__.py", line 126, in import_module
    return _bootstrap._gcd_import(name[level:], package, level)
  File "<frozen importlib._bootstrap>", line 994, in _gcd_import
  File "<frozen importlib._bootstrap>", line 971, in _find_and_load
  File "<frozen importlib._bootstrap>", line 955, in _find_and_load_unlocked
  File "<frozen importlib._bootstrap>", line 665, in _load_unlocked
  File "<frozen importlib._bootstrap_external>", line 678, in exec_module
  File "<frozen importlib._bootstrap>", line 219, in _call_with_frames_removed
  File "/home/abhi/Documents/frappe/frappe-iwinch/apps/profiles/profiles/api_admin.py", line 144, in <module>
    @frappe.whitelist(name)
NameError: name 'name' is not defined
[ERROR] 2020-04-27 17:52:43,523 | /home/abhi/Documents/frappe/frappe-iwinch/apps/frappe/frappe/app.py:
Site: iwinchsite
Form Dict: {
 "cmd": "profiles.api_admin.list_riders",
 "filters": "{}",
 "order_by": "creation desc",
 "page_length": "10",
 "start": "0"
}
Site: iwinchsite
Form Dict: {
 "cmd": "profiles.api_admin.list_riders",
 "filters": "{}",
 "order_by": "creation desc",
 "page_length": "10",
 "start": "0"
}
Request Error
Traceback (most recent call last):
  File "/home/abhi/Documents/frappe/frappe-iwinch/apps/frappe/frappe/app.py", line 62, in application
    response = frappe.api.handle()
  File "/home/abhi/Documents/frappe/frappe-iwinch/apps/frappe/frappe/api.py", line 56, in handle
    return frappe.handler.handle()
  File "/home/abhi/Documents/frappe/frappe-iwinch/apps/frappe/frappe/handler.py", line 22, in handle
    data = execute_cmd(cmd)
  File "/home/abhi/Documents/frappe/frappe-iwinch/apps/frappe/frappe/handler.py", line 50, in execute_cmd
    raise e
  File "/home/abhi/Documents/frappe/frappe-iwinch/apps/frappe/frappe/handler.py", line 47, in execute_cmd
    method = get_attr(cmd)
  File "/home/abhi/Documents/frappe/frappe-iwinch/apps/frappe/frappe/handler.py", line 205, in get_attr
    method = frappe.get_attr(cmd)
  File "/home/abhi/Documents/frappe/frappe-iwinch/apps/frappe/frappe/__init__.py", line 1046, in get_attr
    return getattr(get_module(modulename), methodname)
  File "/home/abhi/Documents/frappe/frappe-iwinch/apps/frappe/frappe/__init__.py", line 827, in get_module
    return importlib.import_module(modulename)
  File "/home/abhi/Documents/frappe/frappe-iwinch/env/lib/python3.6/importlib/__init__.py", line 126, in import_module
    return _bootstrap._gcd_import(name[level:], package, level)
  File "<frozen importlib._bootstrap>", line 994, in _gcd_import
  File "<frozen importlib._bootstrap>", line 971, in _find_and_load
  File "<frozen importlib._bootstrap>", line 955, in _find_and_load_unlocked
  File "<frozen importlib._bootstrap>", line 665, in _load_unlocked
  File "<frozen importlib._bootstrap_external>", line 678, in exec_module
  File "<frozen importlib._bootstrap>", line 219, in _call_with_frames_removed
  File "/home/abhi/Documents/frappe/frappe-iwinch/apps/profiles/profiles/api_admin.py", line 144, in <module>
    @frappe.whitelist(name)
NameError: name 'name' is not defined
[ERROR] 2020-04-27 17:52:43,808 | /home/abhi/Documents/frappe/frappe-iwinch/apps/frappe/frappe/utils/error.py:
Could not take error snapshot: invalid syntax (<string>, line 1)
Traceback (most recent call last):
  File "/home/abhi/Documents/frappe/frappe-iwinch/apps/frappe/frappe/app.py", line 62, in application
    response = frappe.api.handle()
  File "/home/abhi/Documents/frappe/frappe-iwinch/apps/frappe/frappe/api.py", line 56, in handle
    return frappe.handler.handle()
  File "/home/abhi/Documents/frappe/frappe-iwinch/apps/frappe/frappe/handler.py", line 22, in handle
    data = execute_cmd(cmd)
  File "/home/abhi/Documents/frappe/frappe-iwinch/apps/frappe/frappe/handler.py", line 50, in execute_cmd
    raise e
  File "/home/abhi/Documents/frappe/frappe-iwinch/apps/frappe/frappe/handler.py", line 47, in execute_cmd
    method = get_attr(cmd)
  File "/home/abhi/Documents/frappe/frappe-iwinch/apps/frappe/frappe/handler.py", line 205, in get_attr
    method = frappe.get_attr(cmd)
  File "/home/abhi/Documents/frappe/frappe-iwinch/apps/frappe/frappe/__init__.py", line 1046, in get_attr
    return getattr(get_module(modulename), methodname)
  File "/home/abhi/Documents/frappe/frappe-iwinch/apps/frappe/frappe/__init__.py", line 827, in get_module
    return importlib.import_module(modulename)
  File "/home/abhi/Documents/frappe/frappe-iwinch/env/lib/python3.6/importlib/__init__.py", line 126, in import_module
    return _bootstrap._gcd_import(name[level:], package, level)
  File "<frozen importlib._bootstrap>", line 994, in _gcd_import
  File "<frozen importlib._bootstrap>", line 971, in _find_and_load
  File "<frozen importlib._bootstrap>", line 955, in _find_and_load_unlocked
  File "<frozen importlib._bootstrap>", line 665, in _load_unlocked
  File "<frozen importlib._bootstrap_external>", line 678, in exec_module
  File "<frozen importlib._bootstrap>", line 219, in _call_with_frames_removed
  File "/home/abhi/Documents/frappe/frappe-iwinch/apps/profiles/profiles/api_admin.py", line 144, in <module>
    @frappe.whitelist(name)
NameError: name 'name' is not defined

During handling of the above exception, another exception occurred:

Traceback (most recent call last):
  File "/home/abhi/Documents/frappe/frappe-iwinch/apps/frappe/frappe/utils/error.py", line 36, in make_error_snapshot
    snapshot = get_snapshot(exception)
  File "/home/abhi/Documents/frappe/frappe-iwinch/apps/frappe/frappe/utils/error.py", line 132, in get_snapshot
    value = eval(value)
  File "<string>", line 1
    <built-in method with_traceback of NameError object>
    ^
SyntaxError: invalid syntax
[ERROR] 2020-04-27 17:52:43,839 | /home/abhi/Documents/frappe/frappe-iwinch/apps/frappe/frappe/utils/error.py:
Could not take error snapshot: invalid syntax (<string>, line 1)
Traceback (most recent call last):
  File "/home/abhi/Documents/frappe/frappe-iwinch/apps/frappe/frappe/app.py", line 62, in application
    response = frappe.api.handle()
  File "/home/abhi/Documents/frappe/frappe-iwinch/apps/frappe/frappe/api.py", line 56, in handle
    return frappe.handler.handle()
  File "/home/abhi/Documents/frappe/frappe-iwinch/apps/frappe/frappe/handler.py", line 22, in handle
    data = execute_cmd(cmd)
  File "/home/abhi/Documents/frappe/frappe-iwinch/apps/frappe/frappe/handler.py", line 50, in execute_cmd
    raise e
  File "/home/abhi/Documents/frappe/frappe-iwinch/apps/frappe/frappe/handler.py", line 47, in execute_cmd
    method = get_attr(cmd)
  File "/home/abhi/Documents/frappe/frappe-iwinch/apps/frappe/frappe/handler.py", line 205, in get_attr
    method = frappe.get_attr(cmd)
  File "/home/abhi/Documents/frappe/frappe-iwinch/apps/frappe/frappe/__init__.py", line 1046, in get_attr
    return getattr(get_module(modulename), methodname)
  File "/home/abhi/Documents/frappe/frappe-iwinch/apps/frappe/frappe/__init__.py", line 827, in get_module
    return importlib.import_module(modulename)
  File "/home/abhi/Documents/frappe/frappe-iwinch/env/lib/python3.6/importlib/__init__.py", line 126, in import_module
    return _bootstrap._gcd_import(name[level:], package, level)
  File "<frozen importlib._bootstrap>", line 994, in _gcd_import
  File "<frozen importlib._bootstrap>", line 971, in _find_and_load
  File "<frozen importlib._bootstrap>", line 955, in _find_and_load_unlocked
  File "<frozen importlib._bootstrap>", line 665, in _load_unlocked
  File "<frozen importlib._bootstrap_external>", line 678, in exec_module
  File "<frozen importlib._bootstrap>", line 219, in _call_with_frames_removed
  File "/home/abhi/Documents/frappe/frappe-iwinch/apps/profiles/profiles/api_admin.py", line 144, in <module>
    @frappe.whitelist(name)
NameError: name 'name' is not defined

During handling of the above exception, another exception occurred:

Traceback (most recent call last):
  File "/home/abhi/Documents/frappe/frappe-iwinch/apps/frappe/frappe/utils/error.py", line 36, in make_error_snapshot
    snapshot = get_snapshot(exception)
  File "/home/abhi/Documents/frappe/frappe-iwinch/apps/frappe/frappe/utils/error.py", line 132, in get_snapshot
    value = eval(value)
  File "<string>", line 1
    <built-in method with_traceback of NameError object>
    ^
SyntaxError: invalid syntax
[ERROR] 2020-04-27 17:52:44,698 | /home/abhi/Documents/frappe/frappe-iwinch/apps/frappe/frappe/app.py:
Site: iwinchsite
Form Dict: {
 "cmd": "profiles.api_admin.list_drivers",
 "filters": "{}",
 "order_by": "creation desc",
 "page_length": "10",
 "start": "0"
}
Request Error
Traceback (most recent call last):
  File "/home/abhi/Documents/frappe/frappe-iwinch/apps/frappe/frappe/app.py", line 62, in application
    response = frappe.api.handle()
  File "/home/abhi/Documents/frappe/frappe-iwinch/apps/frappe/frappe/api.py", line 56, in handle
    return frappe.handler.handle()
  File "/home/abhi/Documents/frappe/frappe-iwinch/apps/frappe/frappe/handler.py", line 22, in handle
    data = execute_cmd(cmd)
  File "/home/abhi/Documents/frappe/frappe-iwinch/apps/frappe/frappe/handler.py", line 50, in execute_cmd
    raise e
  File "/home/abhi/Documents/frappe/frappe-iwinch/apps/frappe/frappe/handler.py", line 47, in execute_cmd
    method = get_attr(cmd)
  File "/home/abhi/Documents/frappe/frappe-iwinch/apps/frappe/frappe/handler.py", line 205, in get_attr
    method = frappe.get_attr(cmd)
  File "/home/abhi/Documents/frappe/frappe-iwinch/apps/frappe/frappe/__init__.py", line 1046, in get_attr
    return getattr(get_module(modulename), methodname)
  File "/home/abhi/Documents/frappe/frappe-iwinch/apps/frappe/frappe/__init__.py", line 827, in get_module
    return importlib.import_module(modulename)
  File "/home/abhi/Documents/frappe/frappe-iwinch/env/lib/python3.6/importlib/__init__.py", line 126, in import_module
    return _bootstrap._gcd_import(name[level:], package, level)
  File "<frozen importlib._bootstrap>", line 994, in _gcd_import
  File "<frozen importlib._bootstrap>", line 971, in _find_and_load
  File "<frozen importlib._bootstrap>", line 955, in _find_and_load_unlocked
  File "<frozen importlib._bootstrap>", line 665, in _load_unlocked
  File "<frozen importlib._bootstrap_external>", line 678, in exec_module
  File "<frozen importlib._bootstrap>", line 219, in _call_with_frames_removed
  File "/home/abhi/Documents/frappe/frappe-iwinch/apps/profiles/profiles/api_admin.py", line 144, in <module>
    @frappe.whitelist(name)
NameError: name 'name' is not defined
[ERROR] 2020-04-27 17:52:44,698 | /home/abhi/Documents/frappe/frappe-iwinch/apps/frappe/frappe/app.py:
Site: iwinchsite
Form Dict: {
 "cmd": "profiles.api_admin.list_drivers",
 "filters": "{}",
 "order_by": "creation desc",
 "page_length": "10",
 "start": "0"
}
Site: iwinchsite
Form Dict: {
 "cmd": "profiles.api_admin.list_drivers",
 "filters": "{}",
 "order_by": "creation desc",
 "page_length": "10",
 "start": "0"
}
Request Error
Traceback (most recent call last):
  File "/home/abhi/Documents/frappe/frappe-iwinch/apps/frappe/frappe/app.py", line 62, in application
    response = frappe.api.handle()
  File "/home/abhi/Documents/frappe/frappe-iwinch/apps/frappe/frappe/api.py", line 56, in handle
    return frappe.handler.handle()
  File "/home/abhi/Documents/frappe/frappe-iwinch/apps/frappe/frappe/handler.py", line 22, in handle
    data = execute_cmd(cmd)
  File "/home/abhi/Documents/frappe/frappe-iwinch/apps/frappe/frappe/handler.py", line 50, in execute_cmd
    raise e
  File "/home/abhi/Documents/frappe/frappe-iwinch/apps/frappe/frappe/handler.py", line 47, in execute_cmd
    method = get_attr(cmd)
  File "/home/abhi/Documents/frappe/frappe-iwinch/apps/frappe/frappe/handler.py", line 205, in get_attr
    method = frappe.get_attr(cmd)
  File "/home/abhi/Documents/frappe/frappe-iwinch/apps/frappe/frappe/__init__.py", line 1046, in get_attr
    return getattr(get_module(modulename), methodname)
  File "/home/abhi/Documents/frappe/frappe-iwinch/apps/frappe/frappe/__init__.py", line 827, in get_module
    return importlib.import_module(modulename)
  File "/home/abhi/Documents/frappe/frappe-iwinch/env/lib/python3.6/importlib/__init__.py", line 126, in import_module
    return _bootstrap._gcd_import(name[level:], package, level)
  File "<frozen importlib._bootstrap>", line 994, in _gcd_import
  File "<frozen importlib._bootstrap>", line 971, in _find_and_load
  File "<frozen importlib._bootstrap>", line 955, in _find_and_load_unlocked
  File "<frozen importlib._bootstrap>", line 665, in _load_unlocked
  File "<frozen importlib._bootstrap_external>", line 678, in exec_module
  File "<frozen importlib._bootstrap>", line 219, in _call_with_frames_removed
  File "/home/abhi/Documents/frappe/frappe-iwinch/apps/profiles/profiles/api_admin.py", line 144, in <module>
    @frappe.whitelist(name)
NameError: name 'name' is not defined
[ERROR] 2020-04-27 17:52:44,699 | /home/abhi/Documents/frappe/frappe-iwinch/apps/frappe/frappe/app.py:
Site: iwinchsite
Form Dict: {
 "cmd": "profiles.api_admin.list_drivers",
 "filters": "{}",
 "order_by": "creation desc",
 "page_length": "10",
 "start": "0"
}
Request Error
Traceback (most recent call last):
  File "/home/abhi/Documents/frappe/frappe-iwinch/apps/frappe/frappe/app.py", line 62, in application
    response = frappe.api.handle()
  File "/home/abhi/Documents/frappe/frappe-iwinch/apps/frappe/frappe/api.py", line 56, in handle
    return frappe.handler.handle()
  File "/home/abhi/Documents/frappe/frappe-iwinch/apps/frappe/frappe/handler.py", line 22, in handle
    data = execute_cmd(cmd)
  File "/home/abhi/Documents/frappe/frappe-iwinch/apps/frappe/frappe/handler.py", line 50, in execute_cmd
    raise e
  File "/home/abhi/Documents/frappe/frappe-iwinch/apps/frappe/frappe/handler.py", line 47, in execute_cmd
    method = get_attr(cmd)
  File "/home/abhi/Documents/frappe/frappe-iwinch/apps/frappe/frappe/handler.py", line 205, in get_attr
    method = frappe.get_attr(cmd)
  File "/home/abhi/Documents/frappe/frappe-iwinch/apps/frappe/frappe/__init__.py", line 1046, in get_attr
    return getattr(get_module(modulename), methodname)
  File "/home/abhi/Documents/frappe/frappe-iwinch/apps/frappe/frappe/__init__.py", line 827, in get_module
    return importlib.import_module(modulename)
  File "/home/abhi/Documents/frappe/frappe-iwinch/env/lib/python3.6/importlib/__init__.py", line 126, in import_module
    return _bootstrap._gcd_import(name[level:], package, level)
  File "<frozen importlib._bootstrap>", line 994, in _gcd_import
  File "<frozen importlib._bootstrap>", line 971, in _find_and_load
  File "<frozen importlib._bootstrap>", line 955, in _find_and_load_unlocked
  File "<frozen importlib._bootstrap>", line 665, in _load_unlocked
  File "<frozen importlib._bootstrap_external>", line 678, in exec_module
  File "<frozen importlib._bootstrap>", line 219, in _call_with_frames_removed
  File "/home/abhi/Documents/frappe/frappe-iwinch/apps/profiles/profiles/api_admin.py", line 144, in <module>
    @frappe.whitelist(name)
NameError: name 'name' is not defined
[ERROR] 2020-04-27 17:52:44,699 | /home/abhi/Documents/frappe/frappe-iwinch/apps/frappe/frappe/app.py:
Site: iwinchsite
Form Dict: {
 "cmd": "profiles.api_admin.list_drivers",
 "filters": "{}",
 "order_by": "creation desc",
 "page_length": "10",
 "start": "0"
}
Site: iwinchsite
Form Dict: {
 "cmd": "profiles.api_admin.list_drivers",
 "filters": "{}",
 "order_by": "creation desc",
 "page_length": "10",
 "start": "0"
}
Request Error
Traceback (most recent call last):
  File "/home/abhi/Documents/frappe/frappe-iwinch/apps/frappe/frappe/app.py", line 62, in application
    response = frappe.api.handle()
  File "/home/abhi/Documents/frappe/frappe-iwinch/apps/frappe/frappe/api.py", line 56, in handle
    return frappe.handler.handle()
  File "/home/abhi/Documents/frappe/frappe-iwinch/apps/frappe/frappe/handler.py", line 22, in handle
    data = execute_cmd(cmd)
  File "/home/abhi/Documents/frappe/frappe-iwinch/apps/frappe/frappe/handler.py", line 50, in execute_cmd
    raise e
  File "/home/abhi/Documents/frappe/frappe-iwinch/apps/frappe/frappe/handler.py", line 47, in execute_cmd
    method = get_attr(cmd)
  File "/home/abhi/Documents/frappe/frappe-iwinch/apps/frappe/frappe/handler.py", line 205, in get_attr
    method = frappe.get_attr(cmd)
  File "/home/abhi/Documents/frappe/frappe-iwinch/apps/frappe/frappe/__init__.py", line 1046, in get_attr
    return getattr(get_module(modulename), methodname)
  File "/home/abhi/Documents/frappe/frappe-iwinch/apps/frappe/frappe/__init__.py", line 827, in get_module
    return importlib.import_module(modulename)
  File "/home/abhi/Documents/frappe/frappe-iwinch/env/lib/python3.6/importlib/__init__.py", line 126, in import_module
    return _bootstrap._gcd_import(name[level:], package, level)
  File "<frozen importlib._bootstrap>", line 994, in _gcd_import
  File "<frozen importlib._bootstrap>", line 971, in _find_and_load
  File "<frozen importlib._bootstrap>", line 955, in _find_and_load_unlocked
  File "<frozen importlib._bootstrap>", line 665, in _load_unlocked
  File "<frozen importlib._bootstrap_external>", line 678, in exec_module
  File "<frozen importlib._bootstrap>", line 219, in _call_with_frames_removed
  File "/home/abhi/Documents/frappe/frappe-iwinch/apps/profiles/profiles/api_admin.py", line 144, in <module>
    @frappe.whitelist(name)
NameError: name 'name' is not defined
[ERROR] 2020-04-27 17:52:44,772 | /home/abhi/Documents/frappe/frappe-iwinch/apps/frappe/frappe/utils/error.py:
Could not take error snapshot: invalid syntax (<string>, line 1)
Traceback (most recent call last):
  File "/home/abhi/Documents/frappe/frappe-iwinch/apps/frappe/frappe/app.py", line 62, in application
    response = frappe.api.handle()
  File "/home/abhi/Documents/frappe/frappe-iwinch/apps/frappe/frappe/api.py", line 56, in handle
    return frappe.handler.handle()
  File "/home/abhi/Documents/frappe/frappe-iwinch/apps/frappe/frappe/handler.py", line 22, in handle
    data = execute_cmd(cmd)
  File "/home/abhi/Documents/frappe/frappe-iwinch/apps/frappe/frappe/handler.py", line 50, in execute_cmd
    raise e
  File "/home/abhi/Documents/frappe/frappe-iwinch/apps/frappe/frappe/handler.py", line 47, in execute_cmd
    method = get_attr(cmd)
  File "/home/abhi/Documents/frappe/frappe-iwinch/apps/frappe/frappe/handler.py", line 205, in get_attr
    method = frappe.get_attr(cmd)
  File "/home/abhi/Documents/frappe/frappe-iwinch/apps/frappe/frappe/__init__.py", line 1046, in get_attr
    return getattr(get_module(modulename), methodname)
  File "/home/abhi/Documents/frappe/frappe-iwinch/apps/frappe/frappe/__init__.py", line 827, in get_module
    return importlib.import_module(modulename)
  File "/home/abhi/Documents/frappe/frappe-iwinch/env/lib/python3.6/importlib/__init__.py", line 126, in import_module
    return _bootstrap._gcd_import(name[level:], package, level)
  File "<frozen importlib._bootstrap>", line 994, in _gcd_import
  File "<frozen importlib._bootstrap>", line 971, in _find_and_load
  File "<frozen importlib._bootstrap>", line 955, in _find_and_load_unlocked
  File "<frozen importlib._bootstrap>", line 665, in _load_unlocked
  File "<frozen importlib._bootstrap_external>", line 678, in exec_module
  File "<frozen importlib._bootstrap>", line 219, in _call_with_frames_removed
  File "/home/abhi/Documents/frappe/frappe-iwinch/apps/profiles/profiles/api_admin.py", line 144, in <module>
    @frappe.whitelist(name)
NameError: name 'name' is not defined

During handling of the above exception, another exception occurred:

Traceback (most recent call last):
  File "/home/abhi/Documents/frappe/frappe-iwinch/apps/frappe/frappe/utils/error.py", line 36, in make_error_snapshot
    snapshot = get_snapshot(exception)
  File "/home/abhi/Documents/frappe/frappe-iwinch/apps/frappe/frappe/utils/error.py", line 132, in get_snapshot
    value = eval(value)
  File "<string>", line 1
    <built-in method with_traceback of NameError object>
    ^
SyntaxError: invalid syntax
[ERROR] 2020-04-27 17:52:44,804 | /home/abhi/Documents/frappe/frappe-iwinch/apps/frappe/frappe/utils/error.py:
Could not take error snapshot: invalid syntax (<string>, line 1)
Traceback (most recent call last):
  File "/home/abhi/Documents/frappe/frappe-iwinch/apps/frappe/frappe/app.py", line 62, in application
    response = frappe.api.handle()
  File "/home/abhi/Documents/frappe/frappe-iwinch/apps/frappe/frappe/api.py", line 56, in handle
    return frappe.handler.handle()
  File "/home/abhi/Documents/frappe/frappe-iwinch/apps/frappe/frappe/handler.py", line 22, in handle
    data = execute_cmd(cmd)
  File "/home/abhi/Documents/frappe/frappe-iwinch/apps/frappe/frappe/handler.py", line 50, in execute_cmd
    raise e
  File "/home/abhi/Documents/frappe/frappe-iwinch/apps/frappe/frappe/handler.py", line 47, in execute_cmd
    method = get_attr(cmd)
  File "/home/abhi/Documents/frappe/frappe-iwinch/apps/frappe/frappe/handler.py", line 205, in get_attr
    method = frappe.get_attr(cmd)
  File "/home/abhi/Documents/frappe/frappe-iwinch/apps/frappe/frappe/__init__.py", line 1046, in get_attr
    return getattr(get_module(modulename), methodname)
  File "/home/abhi/Documents/frappe/frappe-iwinch/apps/frappe/frappe/__init__.py", line 827, in get_module
    return importlib.import_module(modulename)
  File "/home/abhi/Documents/frappe/frappe-iwinch/env/lib/python3.6/importlib/__init__.py", line 126, in import_module
    return _bootstrap._gcd_import(name[level:], package, level)
  File "<frozen importlib._bootstrap>", line 994, in _gcd_import
  File "<frozen importlib._bootstrap>", line 971, in _find_and_load
  File "<frozen importlib._bootstrap>", line 955, in _find_and_load_unlocked
  File "<frozen importlib._bootstrap>", line 665, in _load_unlocked
  File "<frozen importlib._bootstrap_external>", line 678, in exec_module
  File "<frozen importlib._bootstrap>", line 219, in _call_with_frames_removed
  File "/home/abhi/Documents/frappe/frappe-iwinch/apps/profiles/profiles/api_admin.py", line 144, in <module>
    @frappe.whitelist(name)
NameError: name 'name' is not defined

During handling of the above exception, another exception occurred:

Traceback (most recent call last):
  File "/home/abhi/Documents/frappe/frappe-iwinch/apps/frappe/frappe/utils/error.py", line 36, in make_error_snapshot
    snapshot = get_snapshot(exception)
  File "/home/abhi/Documents/frappe/frappe-iwinch/apps/frappe/frappe/utils/error.py", line 132, in get_snapshot
    value = eval(value)
  File "<string>", line 1
    <built-in method with_traceback of NameError object>
    ^
SyntaxError: invalid syntax
[ERROR] 2020-04-27 17:52:48,262 | /home/abhi/Documents/frappe/frappe-iwinch/apps/frappe/frappe/app.py:
Site: iwinchsite
Form Dict: {
 "cmd": "profiles.api_admin.list_riders",
 "filters": "{}",
 "order_by": "creation desc",
 "page_length": "10",
 "start": "0"
}
Request Error
Traceback (most recent call last):
  File "/home/abhi/Documents/frappe/frappe-iwinch/apps/frappe/frappe/app.py", line 62, in application
    response = frappe.api.handle()
  File "/home/abhi/Documents/frappe/frappe-iwinch/apps/frappe/frappe/api.py", line 56, in handle
    return frappe.handler.handle()
  File "/home/abhi/Documents/frappe/frappe-iwinch/apps/frappe/frappe/handler.py", line 22, in handle
    data = execute_cmd(cmd)
  File "/home/abhi/Documents/frappe/frappe-iwinch/apps/frappe/frappe/handler.py", line 50, in execute_cmd
    raise e
  File "/home/abhi/Documents/frappe/frappe-iwinch/apps/frappe/frappe/handler.py", line 47, in execute_cmd
    method = get_attr(cmd)
  File "/home/abhi/Documents/frappe/frappe-iwinch/apps/frappe/frappe/handler.py", line 205, in get_attr
    method = frappe.get_attr(cmd)
  File "/home/abhi/Documents/frappe/frappe-iwinch/apps/frappe/frappe/__init__.py", line 1046, in get_attr
    return getattr(get_module(modulename), methodname)
  File "/home/abhi/Documents/frappe/frappe-iwinch/apps/frappe/frappe/__init__.py", line 827, in get_module
    return importlib.import_module(modulename)
  File "/home/abhi/Documents/frappe/frappe-iwinch/env/lib/python3.6/importlib/__init__.py", line 126, in import_module
    return _bootstrap._gcd_import(name[level:], package, level)
  File "<frozen importlib._bootstrap>", line 994, in _gcd_import
  File "<frozen importlib._bootstrap>", line 971, in _find_and_load
  File "<frozen importlib._bootstrap>", line 955, in _find_and_load_unlocked
  File "<frozen importlib._bootstrap>", line 665, in _load_unlocked
  File "<frozen importlib._bootstrap_external>", line 678, in exec_module
  File "<frozen importlib._bootstrap>", line 219, in _call_with_frames_removed
  File "/home/abhi/Documents/frappe/frappe-iwinch/apps/profiles/profiles/api_admin.py", line 144, in <module>
    @frappe.whitelist(name)
NameError: name 'name' is not defined
[ERROR] 2020-04-27 17:52:48,270 | /home/abhi/Documents/frappe/frappe-iwinch/apps/frappe/frappe/app.py:
Site: iwinchsite
Form Dict: {
 "cmd": "profiles.api_admin.list_riders",
 "filters": "{}",
 "order_by": "creation desc",
 "page_length": "10",
 "start": "0"
}
Request Error
Traceback (most recent call last):
  File "/home/abhi/Documents/frappe/frappe-iwinch/apps/frappe/frappe/app.py", line 62, in application
    response = frappe.api.handle()
  File "/home/abhi/Documents/frappe/frappe-iwinch/apps/frappe/frappe/api.py", line 56, in handle
    return frappe.handler.handle()
  File "/home/abhi/Documents/frappe/frappe-iwinch/apps/frappe/frappe/handler.py", line 22, in handle
    data = execute_cmd(cmd)
  File "/home/abhi/Documents/frappe/frappe-iwinch/apps/frappe/frappe/handler.py", line 50, in execute_cmd
    raise e
  File "/home/abhi/Documents/frappe/frappe-iwinch/apps/frappe/frappe/handler.py", line 47, in execute_cmd
    method = get_attr(cmd)
  File "/home/abhi/Documents/frappe/frappe-iwinch/apps/frappe/frappe/handler.py", line 205, in get_attr
    method = frappe.get_attr(cmd)
  File "/home/abhi/Documents/frappe/frappe-iwinch/apps/frappe/frappe/__init__.py", line 1046, in get_attr
    return getattr(get_module(modulename), methodname)
  File "/home/abhi/Documents/frappe/frappe-iwinch/apps/frappe/frappe/__init__.py", line 827, in get_module
    return importlib.import_module(modulename)
  File "/home/abhi/Documents/frappe/frappe-iwinch/env/lib/python3.6/importlib/__init__.py", line 126, in import_module
    return _bootstrap._gcd_import(name[level:], package, level)
  File "<frozen importlib._bootstrap>", line 994, in _gcd_import
  File "<frozen importlib._bootstrap>", line 971, in _find_and_load
  File "<frozen importlib._bootstrap>", line 955, in _find_and_load_unlocked
  File "<frozen importlib._bootstrap>", line 665, in _load_unlocked
  File "<frozen importlib._bootstrap_external>", line 678, in exec_module
  File "<frozen importlib._bootstrap>", line 219, in _call_with_frames_removed
  File "/home/abhi/Documents/frappe/frappe-iwinch/apps/profiles/profiles/api_admin.py", line 144, in <module>
    @frappe.whitelist(name)
NameError: name 'name' is not defined
[ERROR] 2020-04-27 17:52:48,270 | /home/abhi/Documents/frappe/frappe-iwinch/apps/frappe/frappe/app.py:
Site: iwinchsite
Form Dict: {
 "cmd": "profiles.api_admin.list_riders",
 "filters": "{}",
 "order_by": "creation desc",
 "page_length": "10",
 "start": "0"
}
Site: iwinchsite
Form Dict: {
 "cmd": "profiles.api_admin.list_riders",
 "filters": "{}",
 "order_by": "creation desc",
 "page_length": "10",
 "start": "0"
}
Request Error
Traceback (most recent call last):
  File "/home/abhi/Documents/frappe/frappe-iwinch/apps/frappe/frappe/app.py", line 62, in application
    response = frappe.api.handle()
  File "/home/abhi/Documents/frappe/frappe-iwinch/apps/frappe/frappe/api.py", line 56, in handle
    return frappe.handler.handle()
  File "/home/abhi/Documents/frappe/frappe-iwinch/apps/frappe/frappe/handler.py", line 22, in handle
    data = execute_cmd(cmd)
  File "/home/abhi/Documents/frappe/frappe-iwinch/apps/frappe/frappe/handler.py", line 50, in execute_cmd
    raise e
  File "/home/abhi/Documents/frappe/frappe-iwinch/apps/frappe/frappe/handler.py", line 47, in execute_cmd
    method = get_attr(cmd)
  File "/home/abhi/Documents/frappe/frappe-iwinch/apps/frappe/frappe/handler.py", line 205, in get_attr
    method = frappe.get_attr(cmd)
  File "/home/abhi/Documents/frappe/frappe-iwinch/apps/frappe/frappe/__init__.py", line 1046, in get_attr
    return getattr(get_module(modulename), methodname)
  File "/home/abhi/Documents/frappe/frappe-iwinch/apps/frappe/frappe/__init__.py", line 827, in get_module
    return importlib.import_module(modulename)
  File "/home/abhi/Documents/frappe/frappe-iwinch/env/lib/python3.6/importlib/__init__.py", line 126, in import_module
    return _bootstrap._gcd_import(name[level:], package, level)
  File "<frozen importlib._bootstrap>", line 994, in _gcd_import
  File "<frozen importlib._bootstrap>", line 971, in _find_and_load
  File "<frozen importlib._bootstrap>", line 955, in _find_and_load_unlocked
  File "<frozen importlib._bootstrap>", line 665, in _load_unlocked
  File "<frozen importlib._bootstrap_external>", line 678, in exec_module
  File "<frozen importlib._bootstrap>", line 219, in _call_with_frames_removed
  File "/home/abhi/Documents/frappe/frappe-iwinch/apps/profiles/profiles/api_admin.py", line 144, in <module>
    @frappe.whitelist(name)
NameError: name 'name' is not defined
[ERROR] 2020-04-27 17:52:48,559 | /home/abhi/Documents/frappe/frappe-iwinch/apps/frappe/frappe/utils/error.py:
Could not take error snapshot: invalid syntax (<string>, line 1)
Traceback (most recent call last):
  File "/home/abhi/Documents/frappe/frappe-iwinch/apps/frappe/frappe/app.py", line 62, in application
    response = frappe.api.handle()
  File "/home/abhi/Documents/frappe/frappe-iwinch/apps/frappe/frappe/api.py", line 56, in handle
    return frappe.handler.handle()
  File "/home/abhi/Documents/frappe/frappe-iwinch/apps/frappe/frappe/handler.py", line 22, in handle
    data = execute_cmd(cmd)
  File "/home/abhi/Documents/frappe/frappe-iwinch/apps/frappe/frappe/handler.py", line 50, in execute_cmd
    raise e
  File "/home/abhi/Documents/frappe/frappe-iwinch/apps/frappe/frappe/handler.py", line 47, in execute_cmd
    method = get_attr(cmd)
  File "/home/abhi/Documents/frappe/frappe-iwinch/apps/frappe/frappe/handler.py", line 205, in get_attr
    method = frappe.get_attr(cmd)
  File "/home/abhi/Documents/frappe/frappe-iwinch/apps/frappe/frappe/__init__.py", line 1046, in get_attr
    return getattr(get_module(modulename), methodname)
  File "/home/abhi/Documents/frappe/frappe-iwinch/apps/frappe/frappe/__init__.py", line 827, in get_module
    return importlib.import_module(modulename)
  File "/home/abhi/Documents/frappe/frappe-iwinch/env/lib/python3.6/importlib/__init__.py", line 126, in import_module
    return _bootstrap._gcd_import(name[level:], package, level)
  File "<frozen importlib._bootstrap>", line 994, in _gcd_import
  File "<frozen importlib._bootstrap>", line 971, in _find_and_load
  File "<frozen importlib._bootstrap>", line 955, in _find_and_load_unlocked
  File "<frozen importlib._bootstrap>", line 665, in _load_unlocked
  File "<frozen importlib._bootstrap_external>", line 678, in exec_module
  File "<frozen importlib._bootstrap>", line 219, in _call_with_frames_removed
  File "/home/abhi/Documents/frappe/frappe-iwinch/apps/profiles/profiles/api_admin.py", line 144, in <module>
    @frappe.whitelist(name)
NameError: name 'name' is not defined

During handling of the above exception, another exception occurred:

Traceback (most recent call last):
  File "/home/abhi/Documents/frappe/frappe-iwinch/apps/frappe/frappe/utils/error.py", line 36, in make_error_snapshot
    snapshot = get_snapshot(exception)
  File "/home/abhi/Documents/frappe/frappe-iwinch/apps/frappe/frappe/utils/error.py", line 132, in get_snapshot
    value = eval(value)
  File "<string>", line 1
    <built-in method with_traceback of NameError object>
    ^
SyntaxError: invalid syntax
[ERROR] 2020-04-27 17:52:48,572 | /home/abhi/Documents/frappe/frappe-iwinch/apps/frappe/frappe/utils/error.py:
Could not take error snapshot: invalid syntax (<string>, line 1)
Traceback (most recent call last):
  File "/home/abhi/Documents/frappe/frappe-iwinch/apps/frappe/frappe/app.py", line 62, in application
    response = frappe.api.handle()
  File "/home/abhi/Documents/frappe/frappe-iwinch/apps/frappe/frappe/api.py", line 56, in handle
    return frappe.handler.handle()
  File "/home/abhi/Documents/frappe/frappe-iwinch/apps/frappe/frappe/handler.py", line 22, in handle
    data = execute_cmd(cmd)
  File "/home/abhi/Documents/frappe/frappe-iwinch/apps/frappe/frappe/handler.py", line 50, in execute_cmd
    raise e
  File "/home/abhi/Documents/frappe/frappe-iwinch/apps/frappe/frappe/handler.py", line 47, in execute_cmd
    method = get_attr(cmd)
  File "/home/abhi/Documents/frappe/frappe-iwinch/apps/frappe/frappe/handler.py", line 205, in get_attr
    method = frappe.get_attr(cmd)
  File "/home/abhi/Documents/frappe/frappe-iwinch/apps/frappe/frappe/__init__.py", line 1046, in get_attr
    return getattr(get_module(modulename), methodname)
  File "/home/abhi/Documents/frappe/frappe-iwinch/apps/frappe/frappe/__init__.py", line 827, in get_module
    return importlib.import_module(modulename)
  File "/home/abhi/Documents/frappe/frappe-iwinch/env/lib/python3.6/importlib/__init__.py", line 126, in import_module
    return _bootstrap._gcd_import(name[level:], package, level)
  File "<frozen importlib._bootstrap>", line 994, in _gcd_import
  File "<frozen importlib._bootstrap>", line 971, in _find_and_load
  File "<frozen importlib._bootstrap>", line 955, in _find_and_load_unlocked
  File "<frozen importlib._bootstrap>", line 665, in _load_unlocked
  File "<frozen importlib._bootstrap_external>", line 678, in exec_module
  File "<frozen importlib._bootstrap>", line 219, in _call_with_frames_removed
  File "/home/abhi/Documents/frappe/frappe-iwinch/apps/profiles/profiles/api_admin.py", line 144, in <module>
    @frappe.whitelist(name)
NameError: name 'name' is not defined

During handling of the above exception, another exception occurred:

Traceback (most recent call last):
  File "/home/abhi/Documents/frappe/frappe-iwinch/apps/frappe/frappe/utils/error.py", line 36, in make_error_snapshot
    snapshot = get_snapshot(exception)
  File "/home/abhi/Documents/frappe/frappe-iwinch/apps/frappe/frappe/utils/error.py", line 132, in get_snapshot
    value = eval(value)
  File "<string>", line 1
    <built-in method with_traceback of NameError object>
    ^
SyntaxError: invalid syntax
[ERROR] 2020-04-27 17:52:49,491 | /home/abhi/Documents/frappe/frappe-iwinch/apps/frappe/frappe/app.py:
Site: iwinchsite
Form Dict: {
 "cmd": "profiles.api_admin.get_user",
 "name": "suku@xyz.com"
}
Request Error
Traceback (most recent call last):
  File "/home/abhi/Documents/frappe/frappe-iwinch/apps/frappe/frappe/app.py", line 62, in application
    response = frappe.api.handle()
  File "/home/abhi/Documents/frappe/frappe-iwinch/apps/frappe/frappe/api.py", line 56, in handle
    return frappe.handler.handle()
  File "/home/abhi/Documents/frappe/frappe-iwinch/apps/frappe/frappe/handler.py", line 22, in handle
    data = execute_cmd(cmd)
  File "/home/abhi/Documents/frappe/frappe-iwinch/apps/frappe/frappe/handler.py", line 50, in execute_cmd
    raise e
  File "/home/abhi/Documents/frappe/frappe-iwinch/apps/frappe/frappe/handler.py", line 47, in execute_cmd
    method = get_attr(cmd)
  File "/home/abhi/Documents/frappe/frappe-iwinch/apps/frappe/frappe/handler.py", line 205, in get_attr
    method = frappe.get_attr(cmd)
  File "/home/abhi/Documents/frappe/frappe-iwinch/apps/frappe/frappe/__init__.py", line 1046, in get_attr
    return getattr(get_module(modulename), methodname)
  File "/home/abhi/Documents/frappe/frappe-iwinch/apps/frappe/frappe/__init__.py", line 827, in get_module
    return importlib.import_module(modulename)
  File "/home/abhi/Documents/frappe/frappe-iwinch/env/lib/python3.6/importlib/__init__.py", line 126, in import_module
    return _bootstrap._gcd_import(name[level:], package, level)
  File "<frozen importlib._bootstrap>", line 994, in _gcd_import
  File "<frozen importlib._bootstrap>", line 971, in _find_and_load
  File "<frozen importlib._bootstrap>", line 955, in _find_and_load_unlocked
  File "<frozen importlib._bootstrap>", line 665, in _load_unlocked
  File "<frozen importlib._bootstrap_external>", line 678, in exec_module
  File "<frozen importlib._bootstrap>", line 219, in _call_with_frames_removed
  File "/home/abhi/Documents/frappe/frappe-iwinch/apps/profiles/profiles/api_admin.py", line 144, in <module>
    @frappe.whitelist(name)
NameError: name 'name' is not defined
[ERROR] 2020-04-27 17:52:49,491 | /home/abhi/Documents/frappe/frappe-iwinch/apps/frappe/frappe/app.py:
Site: iwinchsite
Form Dict: {
 "cmd": "profiles.api_admin.get_user",
 "name": "suku@xyz.com"
}
Site: iwinchsite
Form Dict: {
 "cmd": "profiles.api_admin.get_user",
 "name": "suku@xyz.com"
}
Request Error
Traceback (most recent call last):
  File "/home/abhi/Documents/frappe/frappe-iwinch/apps/frappe/frappe/app.py", line 62, in application
    response = frappe.api.handle()
  File "/home/abhi/Documents/frappe/frappe-iwinch/apps/frappe/frappe/api.py", line 56, in handle
    return frappe.handler.handle()
  File "/home/abhi/Documents/frappe/frappe-iwinch/apps/frappe/frappe/handler.py", line 22, in handle
    data = execute_cmd(cmd)
  File "/home/abhi/Documents/frappe/frappe-iwinch/apps/frappe/frappe/handler.py", line 50, in execute_cmd
    raise e
  File "/home/abhi/Documents/frappe/frappe-iwinch/apps/frappe/frappe/handler.py", line 47, in execute_cmd
    method = get_attr(cmd)
  File "/home/abhi/Documents/frappe/frappe-iwinch/apps/frappe/frappe/handler.py", line 205, in get_attr
    method = frappe.get_attr(cmd)
  File "/home/abhi/Documents/frappe/frappe-iwinch/apps/frappe/frappe/__init__.py", line 1046, in get_attr
    return getattr(get_module(modulename), methodname)
  File "/home/abhi/Documents/frappe/frappe-iwinch/apps/frappe/frappe/__init__.py", line 827, in get_module
    return importlib.import_module(modulename)
  File "/home/abhi/Documents/frappe/frappe-iwinch/env/lib/python3.6/importlib/__init__.py", line 126, in import_module
    return _bootstrap._gcd_import(name[level:], package, level)
  File "<frozen importlib._bootstrap>", line 994, in _gcd_import
  File "<frozen importlib._bootstrap>", line 971, in _find_and_load
  File "<frozen importlib._bootstrap>", line 955, in _find_and_load_unlocked
  File "<frozen importlib._bootstrap>", line 665, in _load_unlocked
  File "<frozen importlib._bootstrap_external>", line 678, in exec_module
  File "<frozen importlib._bootstrap>", line 219, in _call_with_frames_removed
  File "/home/abhi/Documents/frappe/frappe-iwinch/apps/profiles/profiles/api_admin.py", line 144, in <module>
    @frappe.whitelist(name)
NameError: name 'name' is not defined
[ERROR] 2020-04-27 17:52:49,582 | /home/abhi/Documents/frappe/frappe-iwinch/apps/frappe/frappe/utils/error.py:
Could not take error snapshot: invalid syntax (<string>, line 1)
Traceback (most recent call last):
  File "/home/abhi/Documents/frappe/frappe-iwinch/apps/frappe/frappe/app.py", line 62, in application
    response = frappe.api.handle()
  File "/home/abhi/Documents/frappe/frappe-iwinch/apps/frappe/frappe/api.py", line 56, in handle
    return frappe.handler.handle()
  File "/home/abhi/Documents/frappe/frappe-iwinch/apps/frappe/frappe/handler.py", line 22, in handle
    data = execute_cmd(cmd)
  File "/home/abhi/Documents/frappe/frappe-iwinch/apps/frappe/frappe/handler.py", line 50, in execute_cmd
    raise e
  File "/home/abhi/Documents/frappe/frappe-iwinch/apps/frappe/frappe/handler.py", line 47, in execute_cmd
    method = get_attr(cmd)
  File "/home/abhi/Documents/frappe/frappe-iwinch/apps/frappe/frappe/handler.py", line 205, in get_attr
    method = frappe.get_attr(cmd)
  File "/home/abhi/Documents/frappe/frappe-iwinch/apps/frappe/frappe/__init__.py", line 1046, in get_attr
    return getattr(get_module(modulename), methodname)
  File "/home/abhi/Documents/frappe/frappe-iwinch/apps/frappe/frappe/__init__.py", line 827, in get_module
    return importlib.import_module(modulename)
  File "/home/abhi/Documents/frappe/frappe-iwinch/env/lib/python3.6/importlib/__init__.py", line 126, in import_module
    return _bootstrap._gcd_import(name[level:], package, level)
  File "<frozen importlib._bootstrap>", line 994, in _gcd_import
  File "<frozen importlib._bootstrap>", line 971, in _find_and_load
  File "<frozen importlib._bootstrap>", line 955, in _find_and_load_unlocked
  File "<frozen importlib._bootstrap>", line 665, in _load_unlocked
  File "<frozen importlib._bootstrap_external>", line 678, in exec_module
  File "<frozen importlib._bootstrap>", line 219, in _call_with_frames_removed
  File "/home/abhi/Documents/frappe/frappe-iwinch/apps/profiles/profiles/api_admin.py", line 144, in <module>
    @frappe.whitelist(name)
NameError: name 'name' is not defined

During handling of the above exception, another exception occurred:

Traceback (most recent call last):
  File "/home/abhi/Documents/frappe/frappe-iwinch/apps/frappe/frappe/utils/error.py", line 36, in make_error_snapshot
    snapshot = get_snapshot(exception)
  File "/home/abhi/Documents/frappe/frappe-iwinch/apps/frappe/frappe/utils/error.py", line 132, in get_snapshot
    value = eval(value)
  File "<string>", line 1
    <built-in method with_traceback of NameError object>
    ^
SyntaxError: invalid syntax
[DEBUG] 2020-04-27 17:53:18,464 | /home/abhi/Documents/frappe/frappe-iwinch/apps/frappe/frappe/utils/scheduler.py:
Site: iwinchsite
Queued events for site iwinchsite
[DEBUG] 2020-04-27 17:54:18,571 | /home/abhi/Documents/frappe/frappe-iwinch/apps/frappe/frappe/utils/scheduler.py:
Site: iwinchsite
Queued events for site iwinchsite
[DEBUG] 2020-04-27 17:55:18,685 | /home/abhi/Documents/frappe/frappe-iwinch/apps/frappe/frappe/utils/scheduler.py:
Site: iwinchsite
Queued events for site iwinchsite
[DEBUG] 2020-04-27 17:56:18,828 | /home/abhi/Documents/frappe/frappe-iwinch/apps/frappe/frappe/utils/scheduler.py:
Site: iwinchsite
Queued events for site iwinchsite
[DEBUG] 2020-04-27 17:57:18,940 | /home/abhi/Documents/frappe/frappe-iwinch/apps/frappe/frappe/utils/scheduler.py:
Site: iwinchsite
Queued events for site iwinchsite
[DEBUG] 2020-04-27 17:58:19,048 | /home/abhi/Documents/frappe/frappe-iwinch/apps/frappe/frappe/utils/scheduler.py:
Site: iwinchsite
Queued events for site iwinchsite
[DEBUG] 2020-04-27 17:59:19,165 | /home/abhi/Documents/frappe/frappe-iwinch/apps/frappe/frappe/utils/scheduler.py:
Site: iwinchsite
Queued events for site iwinchsite
[DEBUG] 2020-04-27 18:00:19,314 | /home/abhi/Documents/frappe/frappe-iwinch/apps/frappe/frappe/utils/scheduler.py:
Site: iwinchsite
Queued events for site iwinchsite
[DEBUG] 2020-04-27 18:01:19,426 | /home/abhi/Documents/frappe/frappe-iwinch/apps/frappe/frappe/utils/scheduler.py:
Site: iwinchsite
Queued events for site iwinchsite
[DEBUG] 2020-04-27 18:02:19,544 | /home/abhi/Documents/frappe/frappe-iwinch/apps/frappe/frappe/utils/scheduler.py:
Site: iwinchsite
Queued events for site iwinchsite
[DEBUG] 2020-04-27 18:03:19,663 | /home/abhi/Documents/frappe/frappe-iwinch/apps/frappe/frappe/utils/scheduler.py:
Site: iwinchsite
Queued events for site iwinchsite
[DEBUG] 2020-04-27 18:04:19,792 | /home/abhi/Documents/frappe/frappe-iwinch/apps/frappe/frappe/utils/scheduler.py:
Site: iwinchsite
Queued events for site iwinchsite
[DEBUG] 2020-04-27 18:05:19,895 | /home/abhi/Documents/frappe/frappe-iwinch/apps/frappe/frappe/utils/scheduler.py:
Site: iwinchsite
Queued events for site iwinchsite
[DEBUG] 2020-04-27 18:06:20,008 | /home/abhi/Documents/frappe/frappe-iwinch/apps/frappe/frappe/utils/scheduler.py:
Site: iwinchsite
Queued events for site iwinchsite
[DEBUG] 2020-04-27 18:07:20,122 | /home/abhi/Documents/frappe/frappe-iwinch/apps/frappe/frappe/utils/scheduler.py:
Site: iwinchsite
Queued events for site iwinchsite
[DEBUG] 2020-04-27 18:08:20,255 | /home/abhi/Documents/frappe/frappe-iwinch/apps/frappe/frappe/utils/scheduler.py:
Site: iwinchsite
Queued events for site iwinchsite
[DEBUG] 2020-04-27 18:09:20,377 | /home/abhi/Documents/frappe/frappe-iwinch/apps/frappe/frappe/utils/scheduler.py:
Site: iwinchsite
Queued events for site iwinchsite
[DEBUG] 2020-04-27 18:10:20,483 | /home/abhi/Documents/frappe/frappe-iwinch/apps/frappe/frappe/utils/scheduler.py:
Site: iwinchsite
Queued events for site iwinchsite
[DEBUG] 2020-04-27 18:11:20,608 | /home/abhi/Documents/frappe/frappe-iwinch/apps/frappe/frappe/utils/scheduler.py:
Site: iwinchsite
Queued events for site iwinchsite
[DEBUG] 2020-04-27 18:12:20,734 | /home/abhi/Documents/frappe/frappe-iwinch/apps/frappe/frappe/utils/scheduler.py:
Site: iwinchsite
Queued events for site iwinchsite
[DEBUG] 2020-04-27 18:13:20,849 | /home/abhi/Documents/frappe/frappe-iwinch/apps/frappe/frappe/utils/scheduler.py:
Site: iwinchsite
Queued events for site iwinchsite
[DEBUG] 2020-04-27 18:14:20,965 | /home/abhi/Documents/frappe/frappe-iwinch/apps/frappe/frappe/utils/scheduler.py:
Site: iwinchsite
Queued events for site iwinchsite
[DEBUG] 2020-04-27 18:15:21,078 | /home/abhi/Documents/frappe/frappe-iwinch/apps/frappe/frappe/utils/scheduler.py:
Site: iwinchsite
Queued events for site iwinchsite
[DEBUG] 2020-04-27 18:16:21,218 | /home/abhi/Documents/frappe/frappe-iwinch/apps/frappe/frappe/utils/scheduler.py:
Site: iwinchsite
Queued events for site iwinchsite
[DEBUG] 2020-04-27 18:17:21,329 | /home/abhi/Documents/frappe/frappe-iwinch/apps/frappe/frappe/utils/scheduler.py:
Site: iwinchsite
Queued events for site iwinchsite
[DEBUG] 2020-04-27 18:18:21,444 | /home/abhi/Documents/frappe/frappe-iwinch/apps/frappe/frappe/utils/scheduler.py:
Site: iwinchsite
Queued events for site iwinchsite
[DEBUG] 2020-04-27 18:19:21,549 | /home/abhi/Documents/frappe/frappe-iwinch/apps/frappe/frappe/utils/scheduler.py:
Site: iwinchsite
Queued events for site iwinchsite
[DEBUG] 2020-04-27 18:20:21,677 | /home/abhi/Documents/frappe/frappe-iwinch/apps/frappe/frappe/utils/scheduler.py:
Site: iwinchsite
Queued events for site iwinchsite
[DEBUG] 2020-04-27 18:21:21,793 | /home/abhi/Documents/frappe/frappe-iwinch/apps/frappe/frappe/utils/scheduler.py:
Site: iwinchsite
Queued events for site iwinchsite
[DEBUG] 2020-04-27 18:22:22,518 | /home/abhi/Documents/frappe/frappe-iwinch/apps/frappe/frappe/utils/scheduler.py:
Site: iwinchsite
Queued events for site iwinchsite
[DEBUG] 2020-04-27 18:23:22,633 | /home/abhi/Documents/frappe/frappe-iwinch/apps/frappe/frappe/utils/scheduler.py:
Site: iwinchsite
Queued events for site iwinchsite
[DEBUG] 2020-04-27 18:24:22,762 | /home/abhi/Documents/frappe/frappe-iwinch/apps/frappe/frappe/utils/scheduler.py:
Site: iwinchsite
Queued events for site iwinchsite
[DEBUG] 2020-04-27 18:25:22,876 | /home/abhi/Documents/frappe/frappe-iwinch/apps/frappe/frappe/utils/scheduler.py:
Site: iwinchsite
Queued events for site iwinchsite
[DEBUG] 2020-04-27 18:26:22,984 | /home/abhi/Documents/frappe/frappe-iwinch/apps/frappe/frappe/utils/scheduler.py:
Site: iwinchsite
Queued events for site iwinchsite
[DEBUG] 2020-04-27 18:27:23,091 | /home/abhi/Documents/frappe/frappe-iwinch/apps/frappe/frappe/utils/scheduler.py:
Site: iwinchsite
Queued events for site iwinchsite
[DEBUG] 2020-04-27 18:28:23,222 | /home/abhi/Documents/frappe/frappe-iwinch/apps/frappe/frappe/utils/scheduler.py:
Site: iwinchsite
Queued events for site iwinchsite
[DEBUG] 2020-04-27 18:29:23,330 | /home/abhi/Documents/frappe/frappe-iwinch/apps/frappe/frappe/utils/scheduler.py:
Site: iwinchsite
Queued events for site iwinchsite
[DEBUG] 2020-04-27 18:30:23,443 | /home/abhi/Documents/frappe/frappe-iwinch/apps/frappe/frappe/utils/scheduler.py:
Site: iwinchsite
Queued events for site iwinchsite
[DEBUG] 2020-04-27 18:31:23,552 | /home/abhi/Documents/frappe/frappe-iwinch/apps/frappe/frappe/utils/scheduler.py:
Site: iwinchsite
Queued events for site iwinchsite
[DEBUG] 2020-04-27 18:32:23,693 | /home/abhi/Documents/frappe/frappe-iwinch/apps/frappe/frappe/utils/scheduler.py:
Site: iwinchsite
Queued events for site iwinchsite
[DEBUG] 2020-04-27 18:33:23,801 | /home/abhi/Documents/frappe/frappe-iwinch/apps/frappe/frappe/utils/scheduler.py:
Site: iwinchsite
Queued events for site iwinchsite
[DEBUG] 2020-04-27 18:34:23,917 | /home/abhi/Documents/frappe/frappe-iwinch/apps/frappe/frappe/utils/scheduler.py:
Site: iwinchsite
Queued events for site iwinchsite
[DEBUG] 2020-04-27 18:35:24,034 | /home/abhi/Documents/frappe/frappe-iwinch/apps/frappe/frappe/utils/scheduler.py:
Site: iwinchsite
Queued events for site iwinchsite
[DEBUG] 2020-04-27 18:36:24,169 | /home/abhi/Documents/frappe/frappe-iwinch/apps/frappe/frappe/utils/scheduler.py:
Site: iwinchsite
Queued events for site iwinchsite
[DEBUG] 2020-04-27 18:37:24,280 | /home/abhi/Documents/frappe/frappe-iwinch/apps/frappe/frappe/utils/scheduler.py:
Site: iwinchsite
Queued events for site iwinchsite
[DEBUG] 2020-04-27 18:38:24,392 | /home/abhi/Documents/frappe/frappe-iwinch/apps/frappe/frappe/utils/scheduler.py:
Site: iwinchsite
Queued events for site iwinchsite
[DEBUG] 2020-04-27 18:39:24,507 | /home/abhi/Documents/frappe/frappe-iwinch/apps/frappe/frappe/utils/scheduler.py:
Site: iwinchsite
Queued events for site iwinchsite
[DEBUG] 2020-04-27 18:40:24,648 | /home/abhi/Documents/frappe/frappe-iwinch/apps/frappe/frappe/utils/scheduler.py:
Site: iwinchsite
Queued events for site iwinchsite
[DEBUG] 2020-04-27 18:41:24,771 | /home/abhi/Documents/frappe/frappe-iwinch/apps/frappe/frappe/utils/scheduler.py:
Site: iwinchsite
Queued events for site iwinchsite
[DEBUG] 2020-04-27 18:42:24,884 | /home/abhi/Documents/frappe/frappe-iwinch/apps/frappe/frappe/utils/scheduler.py:
Site: iwinchsite
Queued events for site iwinchsite
[DEBUG] 2020-04-27 18:43:25,001 | /home/abhi/Documents/frappe/frappe-iwinch/apps/frappe/frappe/utils/scheduler.py:
Site: iwinchsite
Queued events for site iwinchsite
[DEBUG] 2020-04-27 18:44:25,127 | /home/abhi/Documents/frappe/frappe-iwinch/apps/frappe/frappe/utils/scheduler.py:
Site: iwinchsite
Queued events for site iwinchsite
[DEBUG] 2020-04-27 18:45:25,243 | /home/abhi/Documents/frappe/frappe-iwinch/apps/frappe/frappe/utils/scheduler.py:
Site: iwinchsite
Queued events for site iwinchsite
[DEBUG] 2020-04-27 18:46:25,358 | /home/abhi/Documents/frappe/frappe-iwinch/apps/frappe/frappe/utils/scheduler.py:
Site: iwinchsite
Queued events for site iwinchsite
[DEBUG] 2020-04-27 18:47:25,477 | /home/abhi/Documents/frappe/frappe-iwinch/apps/frappe/frappe/utils/scheduler.py:
Site: iwinchsite
Queued events for site iwinchsite
[DEBUG] 2020-04-27 18:48:25,610 | /home/abhi/Documents/frappe/frappe-iwinch/apps/frappe/frappe/utils/scheduler.py:
Site: iwinchsite
Queued events for site iwinchsite
[DEBUG] 2020-04-27 18:49:25,717 | /home/abhi/Documents/frappe/frappe-iwinch/apps/frappe/frappe/utils/scheduler.py:
Site: iwinchsite
Queued events for site iwinchsite
[DEBUG] 2020-04-27 18:50:25,836 | /home/abhi/Documents/frappe/frappe-iwinch/apps/frappe/frappe/utils/scheduler.py:
Site: iwinchsite
Queued events for site iwinchsite
[DEBUG] 2020-04-27 18:51:25,947 | /home/abhi/Documents/frappe/frappe-iwinch/apps/frappe/frappe/utils/scheduler.py:
Site: iwinchsite
Queued events for site iwinchsite
[DEBUG] 2020-04-27 18:52:26,071 | /home/abhi/Documents/frappe/frappe-iwinch/apps/frappe/frappe/utils/scheduler.py:
Site: iwinchsite
Queued events for site iwinchsite
[DEBUG] 2020-04-27 18:53:26,184 | /home/abhi/Documents/frappe/frappe-iwinch/apps/frappe/frappe/utils/scheduler.py:
Site: iwinchsite
Queued events for site iwinchsite
[DEBUG] 2020-04-27 18:54:26,287 | /home/abhi/Documents/frappe/frappe-iwinch/apps/frappe/frappe/utils/scheduler.py:
Site: iwinchsite
Queued events for site iwinchsite
[DEBUG] 2020-04-27 18:55:26,397 | /home/abhi/Documents/frappe/frappe-iwinch/apps/frappe/frappe/utils/scheduler.py:
Site: iwinchsite
Queued events for site iwinchsite
[DEBUG] 2020-04-27 18:56:26,523 | /home/abhi/Documents/frappe/frappe-iwinch/apps/frappe/frappe/utils/scheduler.py:
Site: iwinchsite
Queued events for site iwinchsite
[DEBUG] 2020-04-27 18:57:26,635 | /home/abhi/Documents/frappe/frappe-iwinch/apps/frappe/frappe/utils/scheduler.py:
Site: iwinchsite
Queued events for site iwinchsite
[DEBUG] 2020-04-27 18:58:26,749 | /home/abhi/Documents/frappe/frappe-iwinch/apps/frappe/frappe/utils/scheduler.py:
Site: iwinchsite
Queued events for site iwinchsite
[DEBUG] 2020-04-27 18:59:26,862 | /home/abhi/Documents/frappe/frappe-iwinch/apps/frappe/frappe/utils/scheduler.py:
Site: iwinchsite
Queued events for site iwinchsite
[DEBUG] 2020-04-27 19:00:27,016 | /home/abhi/Documents/frappe/frappe-iwinch/apps/frappe/frappe/utils/scheduler.py:
Site: iwinchsite
Queued events for site iwinchsite
[DEBUG] 2020-04-27 19:01:27,127 | /home/abhi/Documents/frappe/frappe-iwinch/apps/frappe/frappe/utils/scheduler.py:
Site: iwinchsite
Queued events for site iwinchsite
[DEBUG] 2020-04-27 19:02:27,248 | /home/abhi/Documents/frappe/frappe-iwinch/apps/frappe/frappe/utils/scheduler.py:
Site: iwinchsite
Queued events for site iwinchsite
[DEBUG] 2020-04-27 19:03:27,362 | /home/abhi/Documents/frappe/frappe-iwinch/apps/frappe/frappe/utils/scheduler.py:
Site: iwinchsite
Queued events for site iwinchsite
[DEBUG] 2020-04-27 19:04:27,496 | /home/abhi/Documents/frappe/frappe-iwinch/apps/frappe/frappe/utils/scheduler.py:
Site: iwinchsite
Queued events for site iwinchsite
[DEBUG] 2020-04-27 19:05:27,612 | /home/abhi/Documents/frappe/frappe-iwinch/apps/frappe/frappe/utils/scheduler.py:
Site: iwinchsite
Queued events for site iwinchsite
[DEBUG] 2020-04-27 19:06:27,716 | /home/abhi/Documents/frappe/frappe-iwinch/apps/frappe/frappe/utils/scheduler.py:
Site: iwinchsite
Queued events for site iwinchsite
[DEBUG] 2020-04-27 19:07:27,828 | /home/abhi/Documents/frappe/frappe-iwinch/apps/frappe/frappe/utils/scheduler.py:
Site: iwinchsite
Queued events for site iwinchsite
[DEBUG] 2020-04-27 19:08:28,072 | /home/abhi/Documents/frappe/frappe-iwinch/apps/frappe/frappe/utils/scheduler.py:
Site: iwinchsite
Queued events for site iwinchsite
[DEBUG] 2020-04-27 19:09:28,303 | /home/abhi/Documents/frappe/frappe-iwinch/apps/frappe/frappe/utils/scheduler.py:
Site: iwinchsite
Queued events for site iwinchsite
[DEBUG] 2020-04-27 19:10:28,416 | /home/abhi/Documents/frappe/frappe-iwinch/apps/frappe/frappe/utils/scheduler.py:
Site: iwinchsite
Queued events for site iwinchsite
[DEBUG] 2020-04-27 19:11:28,526 | /home/abhi/Documents/frappe/frappe-iwinch/apps/frappe/frappe/utils/scheduler.py:
Site: iwinchsite
Queued events for site iwinchsite
[DEBUG] 2020-04-27 19:12:28,663 | /home/abhi/Documents/frappe/frappe-iwinch/apps/frappe/frappe/utils/scheduler.py:
Site: iwinchsite
Queued events for site iwinchsite
[DEBUG] 2020-04-27 19:13:28,777 | /home/abhi/Documents/frappe/frappe-iwinch/apps/frappe/frappe/utils/scheduler.py:
Site: iwinchsite
Queued events for site iwinchsite
[DEBUG] 2020-04-27 19:14:28,891 | /home/abhi/Documents/frappe/frappe-iwinch/apps/frappe/frappe/utils/scheduler.py:
Site: iwinchsite
Queued events for site iwinchsite
[DEBUG] 2020-04-27 19:15:29,009 | /home/abhi/Documents/frappe/frappe-iwinch/apps/frappe/frappe/utils/scheduler.py:
Site: iwinchsite
Queued events for site iwinchsite
[DEBUG] 2020-04-27 19:16:29,143 | /home/abhi/Documents/frappe/frappe-iwinch/apps/frappe/frappe/utils/scheduler.py:
Site: iwinchsite
Queued events for site iwinchsite
[DEBUG] 2020-04-27 19:17:29,252 | /home/abhi/Documents/frappe/frappe-iwinch/apps/frappe/frappe/utils/scheduler.py:
Site: iwinchsite
Queued events for site iwinchsite
[DEBUG] 2020-04-27 19:18:29,367 | /home/abhi/Documents/frappe/frappe-iwinch/apps/frappe/frappe/utils/scheduler.py:
Site: iwinchsite
Queued events for site iwinchsite
[DEBUG] 2020-04-27 19:19:29,480 | /home/abhi/Documents/frappe/frappe-iwinch/apps/frappe/frappe/utils/scheduler.py:
Site: iwinchsite
Queued events for site iwinchsite
[DEBUG] 2020-04-27 19:20:29,617 | /home/abhi/Documents/frappe/frappe-iwinch/apps/frappe/frappe/utils/scheduler.py:
Site: iwinchsite
Queued events for site iwinchsite
[DEBUG] 2020-04-27 19:21:29,732 | /home/abhi/Documents/frappe/frappe-iwinch/apps/frappe/frappe/utils/scheduler.py:
Site: iwinchsite
Queued events for site iwinchsite
[DEBUG] 2020-04-27 19:22:29,841 | /home/abhi/Documents/frappe/frappe-iwinch/apps/frappe/frappe/utils/scheduler.py:
Site: iwinchsite
Queued events for site iwinchsite
[DEBUG] 2020-04-27 19:23:29,956 | /home/abhi/Documents/frappe/frappe-iwinch/apps/frappe/frappe/utils/scheduler.py:
Site: iwinchsite
Queued events for site iwinchsite
[DEBUG] 2020-04-27 19:24:30,184 | /home/abhi/Documents/frappe/frappe-iwinch/apps/frappe/frappe/utils/scheduler.py:
Site: iwinchsite
Queued events for site iwinchsite
[DEBUG] 2020-04-27 19:25:30,295 | /home/abhi/Documents/frappe/frappe-iwinch/apps/frappe/frappe/utils/scheduler.py:
Site: iwinchsite
Queued events for site iwinchsite
[DEBUG] 2020-04-27 19:26:30,405 | /home/abhi/Documents/frappe/frappe-iwinch/apps/frappe/frappe/utils/scheduler.py:
Site: iwinchsite
Queued events for site iwinchsite
[DEBUG] 2020-04-27 19:27:30,515 | /home/abhi/Documents/frappe/frappe-iwinch/apps/frappe/frappe/utils/scheduler.py:
Site: iwinchsite
Queued events for site iwinchsite
[DEBUG] 2020-04-27 19:28:30,658 | /home/abhi/Documents/frappe/frappe-iwinch/apps/frappe/frappe/utils/scheduler.py:
Site: iwinchsite
Queued events for site iwinchsite
[DEBUG] 2020-04-27 19:29:30,768 | /home/abhi/Documents/frappe/frappe-iwinch/apps/frappe/frappe/utils/scheduler.py:
Site: iwinchsite
Queued events for site iwinchsite
[DEBUG] 2020-04-27 19:30:30,878 | /home/abhi/Documents/frappe/frappe-iwinch/apps/frappe/frappe/utils/scheduler.py:
Site: iwinchsite
Queued events for site iwinchsite
[DEBUG] 2020-04-27 19:31:30,992 | /home/abhi/Documents/frappe/frappe-iwinch/apps/frappe/frappe/utils/scheduler.py:
Site: iwinchsite
Queued events for site iwinchsite
[DEBUG] 2020-04-27 19:32:31,127 | /home/abhi/Documents/frappe/frappe-iwinch/apps/frappe/frappe/utils/scheduler.py:
Site: iwinchsite
Queued events for site iwinchsite
[DEBUG] 2020-04-27 19:33:31,245 | /home/abhi/Documents/frappe/frappe-iwinch/apps/frappe/frappe/utils/scheduler.py:
Site: iwinchsite
Queued events for site iwinchsite
[DEBUG] 2020-04-27 19:34:31,359 | /home/abhi/Documents/frappe/frappe-iwinch/apps/frappe/frappe/utils/scheduler.py:
Site: iwinchsite
Queued events for site iwinchsite
[DEBUG] 2020-04-27 19:35:31,475 | /home/abhi/Documents/frappe/frappe-iwinch/apps/frappe/frappe/utils/scheduler.py:
Site: iwinchsite
Queued events for site iwinchsite
[DEBUG] 2020-04-27 19:36:31,601 | /home/abhi/Documents/frappe/frappe-iwinch/apps/frappe/frappe/utils/scheduler.py:
Site: iwinchsite
Queued events for site iwinchsite
[DEBUG] 2020-04-27 19:37:31,711 | /home/abhi/Documents/frappe/frappe-iwinch/apps/frappe/frappe/utils/scheduler.py:
Site: iwinchsite
Queued events for site iwinchsite
[DEBUG] 2020-04-27 19:38:31,822 | /home/abhi/Documents/frappe/frappe-iwinch/apps/frappe/frappe/utils/scheduler.py:
Site: iwinchsite
Queued events for site iwinchsite
[DEBUG] 2020-04-27 19:39:31,929 | /home/abhi/Documents/frappe/frappe-iwinch/apps/frappe/frappe/utils/scheduler.py:
Site: iwinchsite
Queued events for site iwinchsite
[DEBUG] 2020-04-27 19:40:32,074 | /home/abhi/Documents/frappe/frappe-iwinch/apps/frappe/frappe/utils/scheduler.py:
Site: iwinchsite
Queued events for site iwinchsite
[DEBUG] 2020-04-27 19:41:32,185 | /home/abhi/Documents/frappe/frappe-iwinch/apps/frappe/frappe/utils/scheduler.py:
Site: iwinchsite
Queued events for site iwinchsite
[DEBUG] 2020-04-27 19:42:32,294 | /home/abhi/Documents/frappe/frappe-iwinch/apps/frappe/frappe/utils/scheduler.py:
Site: iwinchsite
Queued events for site iwinchsite
[DEBUG] 2020-04-27 19:43:32,399 | /home/abhi/Documents/frappe/frappe-iwinch/apps/frappe/frappe/utils/scheduler.py:
Site: iwinchsite
Queued events for site iwinchsite
[DEBUG] 2020-04-27 19:44:32,518 | /home/abhi/Documents/frappe/frappe-iwinch/apps/frappe/frappe/utils/scheduler.py:
Site: iwinchsite
Queued events for site iwinchsite
[DEBUG] 2020-04-27 19:45:32,624 | /home/abhi/Documents/frappe/frappe-iwinch/apps/frappe/frappe/utils/scheduler.py:
Site: iwinchsite
Queued events for site iwinchsite
[DEBUG] 2020-04-27 19:46:32,729 | /home/abhi/Documents/frappe/frappe-iwinch/apps/frappe/frappe/utils/scheduler.py:
Site: iwinchsite
Queued events for site iwinchsite
[DEBUG] 2020-04-27 19:47:32,836 | /home/abhi/Documents/frappe/frappe-iwinch/apps/frappe/frappe/utils/scheduler.py:
Site: iwinchsite
Queued events for site iwinchsite
[DEBUG] 2020-04-27 19:48:32,966 | /home/abhi/Documents/frappe/frappe-iwinch/apps/frappe/frappe/utils/scheduler.py:
Site: iwinchsite
Queued events for site iwinchsite
[DEBUG] 2020-04-27 19:49:33,073 | /home/abhi/Documents/frappe/frappe-iwinch/apps/frappe/frappe/utils/scheduler.py:
Site: iwinchsite
Queued events for site iwinchsite
[DEBUG] 2020-04-27 19:50:33,183 | /home/abhi/Documents/frappe/frappe-iwinch/apps/frappe/frappe/utils/scheduler.py:
Site: iwinchsite
Queued events for site iwinchsite
[DEBUG] 2020-04-27 19:51:33,297 | /home/abhi/Documents/frappe/frappe-iwinch/apps/frappe/frappe/utils/scheduler.py:
Site: iwinchsite
Queued events for site iwinchsite
[DEBUG] 2020-04-27 19:52:33,430 | /home/abhi/Documents/frappe/frappe-iwinch/apps/frappe/frappe/utils/scheduler.py:
Site: iwinchsite
Queued events for site iwinchsite
[DEBUG] 2020-04-27 19:53:33,537 | /home/abhi/Documents/frappe/frappe-iwinch/apps/frappe/frappe/utils/scheduler.py:
Site: iwinchsite
Queued events for site iwinchsite
[DEBUG] 2020-04-27 19:54:33,648 | /home/abhi/Documents/frappe/frappe-iwinch/apps/frappe/frappe/utils/scheduler.py:
Site: iwinchsite
Queued events for site iwinchsite
[DEBUG] 2020-04-27 19:55:33,766 | /home/abhi/Documents/frappe/frappe-iwinch/apps/frappe/frappe/utils/scheduler.py:
Site: iwinchsite
Queued events for site iwinchsite
[DEBUG] 2020-04-27 19:56:33,891 | /home/abhi/Documents/frappe/frappe-iwinch/apps/frappe/frappe/utils/scheduler.py:
Site: iwinchsite
Queued events for site iwinchsite
[DEBUG] 2020-04-27 19:57:34,002 | /home/abhi/Documents/frappe/frappe-iwinch/apps/frappe/frappe/utils/scheduler.py:
Site: iwinchsite
Queued events for site iwinchsite
[DEBUG] 2020-04-27 19:58:34,110 | /home/abhi/Documents/frappe/frappe-iwinch/apps/frappe/frappe/utils/scheduler.py:
Site: iwinchsite
Queued events for site iwinchsite
[DEBUG] 2020-04-27 19:59:34,222 | /home/abhi/Documents/frappe/frappe-iwinch/apps/frappe/frappe/utils/scheduler.py:
Site: iwinchsite
Queued events for site iwinchsite
[DEBUG] 2020-04-27 20:00:34,370 | /home/abhi/Documents/frappe/frappe-iwinch/apps/frappe/frappe/utils/scheduler.py:
Site: iwinchsite
Queued events for site iwinchsite
[DEBUG] 2020-04-27 20:01:34,479 | /home/abhi/Documents/frappe/frappe-iwinch/apps/frappe/frappe/utils/scheduler.py:
Site: iwinchsite
Queued events for site iwinchsite
[DEBUG] 2020-04-27 20:02:34,592 | /home/abhi/Documents/frappe/frappe-iwinch/apps/frappe/frappe/utils/scheduler.py:
Site: iwinchsite
Queued events for site iwinchsite
[DEBUG] 2020-04-27 20:03:34,698 | /home/abhi/Documents/frappe/frappe-iwinch/apps/frappe/frappe/utils/scheduler.py:
Site: iwinchsite
Queued events for site iwinchsite
[DEBUG] 2020-04-27 20:04:34,826 | /home/abhi/Documents/frappe/frappe-iwinch/apps/frappe/frappe/utils/scheduler.py:
Site: iwinchsite
Queued events for site iwinchsite
[DEBUG] 2020-04-27 20:05:34,933 | /home/abhi/Documents/frappe/frappe-iwinch/apps/frappe/frappe/utils/scheduler.py:
Site: iwinchsite
Queued events for site iwinchsite
[DEBUG] 2020-04-27 20:06:35,043 | /home/abhi/Documents/frappe/frappe-iwinch/apps/frappe/frappe/utils/scheduler.py:
Site: iwinchsite
Queued events for site iwinchsite
[DEBUG] 2020-04-27 20:07:35,158 | /home/abhi/Documents/frappe/frappe-iwinch/apps/frappe/frappe/utils/scheduler.py:
Site: iwinchsite
Queued events for site iwinchsite
[DEBUG] 2020-04-27 20:08:35,292 | /home/abhi/Documents/frappe/frappe-iwinch/apps/frappe/frappe/utils/scheduler.py:
Site: iwinchsite
Queued events for site iwinchsite
[DEBUG] 2020-04-27 20:09:35,398 | /home/abhi/Documents/frappe/frappe-iwinch/apps/frappe/frappe/utils/scheduler.py:
Site: iwinchsite
Queued events for site iwinchsite
[DEBUG] 2020-04-27 20:10:35,508 | /home/abhi/Documents/frappe/frappe-iwinch/apps/frappe/frappe/utils/scheduler.py:
Site: iwinchsite
Queued events for site iwinchsite
[DEBUG] 2020-04-27 20:11:35,622 | /home/abhi/Documents/frappe/frappe-iwinch/apps/frappe/frappe/utils/scheduler.py:
Site: iwinchsite
Queued events for site iwinchsite
[DEBUG] 2020-04-27 20:12:35,752 | /home/abhi/Documents/frappe/frappe-iwinch/apps/frappe/frappe/utils/scheduler.py:
Site: iwinchsite
Queued events for site iwinchsite
[DEBUG] 2020-04-27 20:13:35,869 | /home/abhi/Documents/frappe/frappe-iwinch/apps/frappe/frappe/utils/scheduler.py:
Site: iwinchsite
Queued events for site iwinchsite
[DEBUG] 2020-04-27 20:14:35,981 | /home/abhi/Documents/frappe/frappe-iwinch/apps/frappe/frappe/utils/scheduler.py:
Site: iwinchsite
Queued events for site iwinchsite
[DEBUG] 2020-04-27 20:15:36,093 | /home/abhi/Documents/frappe/frappe-iwinch/apps/frappe/frappe/utils/scheduler.py:
Site: iwinchsite
Queued events for site iwinchsite
[DEBUG] 2020-04-27 20:16:36,223 | /home/abhi/Documents/frappe/frappe-iwinch/apps/frappe/frappe/utils/scheduler.py:
Site: iwinchsite
Queued events for site iwinchsite
[DEBUG] 2020-04-27 20:17:36,336 | /home/abhi/Documents/frappe/frappe-iwinch/apps/frappe/frappe/utils/scheduler.py:
Site: iwinchsite
Queued events for site iwinchsite
[DEBUG] 2020-04-27 20:18:36,447 | /home/abhi/Documents/frappe/frappe-iwinch/apps/frappe/frappe/utils/scheduler.py:
Site: iwinchsite
Queued events for site iwinchsite
[DEBUG] 2020-04-27 20:19:36,555 | /home/abhi/Documents/frappe/frappe-iwinch/apps/frappe/frappe/utils/scheduler.py:
Site: iwinchsite
Queued events for site iwinchsite
[DEBUG] 2020-04-27 20:20:36,679 | /home/abhi/Documents/frappe/frappe-iwinch/apps/frappe/frappe/utils/scheduler.py:
Site: iwinchsite
Queued events for site iwinchsite
[DEBUG] 2020-04-27 20:21:36,791 | /home/abhi/Documents/frappe/frappe-iwinch/apps/frappe/frappe/utils/scheduler.py:
Site: iwinchsite
Queued events for site iwinchsite
[DEBUG] 2020-04-27 20:22:36,907 | /home/abhi/Documents/frappe/frappe-iwinch/apps/frappe/frappe/utils/scheduler.py:
Site: iwinchsite
Queued events for site iwinchsite
[DEBUG] 2020-04-27 20:23:37,015 | /home/abhi/Documents/frappe/frappe-iwinch/apps/frappe/frappe/utils/scheduler.py:
Site: iwinchsite
Queued events for site iwinchsite
[DEBUG] 2020-04-27 20:24:37,152 | /home/abhi/Documents/frappe/frappe-iwinch/apps/frappe/frappe/utils/scheduler.py:
Site: iwinchsite
Queued events for site iwinchsite
[DEBUG] 2020-04-27 20:25:37,262 | /home/abhi/Documents/frappe/frappe-iwinch/apps/frappe/frappe/utils/scheduler.py:
Site: iwinchsite
Queued events for site iwinchsite
[DEBUG] 2020-04-27 20:26:37,370 | /home/abhi/Documents/frappe/frappe-iwinch/apps/frappe/frappe/utils/scheduler.py:
Site: iwinchsite
Queued events for site iwinchsite
[DEBUG] 2020-04-27 20:27:37,481 | /home/abhi/Documents/frappe/frappe-iwinch/apps/frappe/frappe/utils/scheduler.py:
Site: iwinchsite
Queued events for site iwinchsite
[DEBUG] 2020-04-27 20:28:37,609 | /home/abhi/Documents/frappe/frappe-iwinch/apps/frappe/frappe/utils/scheduler.py:
Site: iwinchsite
Queued events for site iwinchsite
[DEBUG] 2020-04-27 20:29:37,718 | /home/abhi/Documents/frappe/frappe-iwinch/apps/frappe/frappe/utils/scheduler.py:
Site: iwinchsite
Queued events for site iwinchsite
[DEBUG] 2020-04-27 20:30:37,829 | /home/abhi/Documents/frappe/frappe-iwinch/apps/frappe/frappe/utils/scheduler.py:
Site: iwinchsite
Queued events for site iwinchsite
[DEBUG] 2020-04-27 20:31:37,939 | /home/abhi/Documents/frappe/frappe-iwinch/apps/frappe/frappe/utils/scheduler.py:
Site: iwinchsite
Queued events for site iwinchsite
[DEBUG] 2020-04-27 20:32:38,074 | /home/abhi/Documents/frappe/frappe-iwinch/apps/frappe/frappe/utils/scheduler.py:
Site: iwinchsite
Queued events for site iwinchsite
[DEBUG] 2020-04-27 20:33:38,183 | /home/abhi/Documents/frappe/frappe-iwinch/apps/frappe/frappe/utils/scheduler.py:
Site: iwinchsite
Queued events for site iwinchsite
[DEBUG] 2020-04-27 20:34:38,288 | /home/abhi/Documents/frappe/frappe-iwinch/apps/frappe/frappe/utils/scheduler.py:
Site: iwinchsite
Queued events for site iwinchsite
[DEBUG] 2020-04-27 20:35:38,398 | /home/abhi/Documents/frappe/frappe-iwinch/apps/frappe/frappe/utils/scheduler.py:
Site: iwinchsite
Queued events for site iwinchsite
[DEBUG] 2020-04-27 20:36:38,534 | /home/abhi/Documents/frappe/frappe-iwinch/apps/frappe/frappe/utils/scheduler.py:
Site: iwinchsite
Queued events for site iwinchsite
[DEBUG] 2020-04-27 20:37:38,642 | /home/abhi/Documents/frappe/frappe-iwinch/apps/frappe/frappe/utils/scheduler.py:
Site: iwinchsite
Queued events for site iwinchsite
[DEBUG] 2020-04-27 20:38:38,764 | /home/abhi/Documents/frappe/frappe-iwinch/apps/frappe/frappe/utils/scheduler.py:
Site: iwinchsite
Queued events for site iwinchsite
[DEBUG] 2020-04-27 20:39:38,874 | /home/abhi/Documents/frappe/frappe-iwinch/apps/frappe/frappe/utils/scheduler.py:
Site: iwinchsite
Queued events for site iwinchsite
[DEBUG] 2020-04-27 20:40:39,015 | /home/abhi/Documents/frappe/frappe-iwinch/apps/frappe/frappe/utils/scheduler.py:
Site: iwinchsite
Queued events for site iwinchsite
[DEBUG] 2020-04-27 20:41:39,129 | /home/abhi/Documents/frappe/frappe-iwinch/apps/frappe/frappe/utils/scheduler.py:
Site: iwinchsite
Queued events for site iwinchsite
[DEBUG] 2020-04-27 20:42:39,244 | /home/abhi/Documents/frappe/frappe-iwinch/apps/frappe/frappe/utils/scheduler.py:
Site: iwinchsite
Queued events for site iwinchsite
[DEBUG] 2020-04-27 20:43:39,352 | /home/abhi/Documents/frappe/frappe-iwinch/apps/frappe/frappe/utils/scheduler.py:
Site: iwinchsite
Queued events for site iwinchsite
[DEBUG] 2020-04-27 20:44:39,484 | /home/abhi/Documents/frappe/frappe-iwinch/apps/frappe/frappe/utils/scheduler.py:
Site: iwinchsite
Queued events for site iwinchsite
[DEBUG] 2020-04-27 20:45:39,598 | /home/abhi/Documents/frappe/frappe-iwinch/apps/frappe/frappe/utils/scheduler.py:
Site: iwinchsite
Queued events for site iwinchsite
[DEBUG] 2020-04-27 20:46:39,717 | /home/abhi/Documents/frappe/frappe-iwinch/apps/frappe/frappe/utils/scheduler.py:
Site: iwinchsite
Queued events for site iwinchsite
[DEBUG] 2020-04-27 20:47:39,839 | /home/abhi/Documents/frappe/frappe-iwinch/apps/frappe/frappe/utils/scheduler.py:
Site: iwinchsite
Queued events for site iwinchsite
[DEBUG] 2020-04-27 20:48:39,967 | /home/abhi/Documents/frappe/frappe-iwinch/apps/frappe/frappe/utils/scheduler.py:
Site: iwinchsite
Queued events for site iwinchsite
[DEBUG] 2020-04-27 20:49:40,081 | /home/abhi/Documents/frappe/frappe-iwinch/apps/frappe/frappe/utils/scheduler.py:
Site: iwinchsite
Queued events for site iwinchsite
[DEBUG] 2020-04-27 20:50:40,189 | /home/abhi/Documents/frappe/frappe-iwinch/apps/frappe/frappe/utils/scheduler.py:
Site: iwinchsite
Queued events for site iwinchsite
[DEBUG] 2020-04-27 20:51:40,293 | /home/abhi/Documents/frappe/frappe-iwinch/apps/frappe/frappe/utils/scheduler.py:
Site: iwinchsite
Queued events for site iwinchsite
[DEBUG] 2020-04-27 20:52:40,426 | /home/abhi/Documents/frappe/frappe-iwinch/apps/frappe/frappe/utils/scheduler.py:
Site: iwinchsite
Queued events for site iwinchsite
[DEBUG] 2020-04-27 20:53:40,544 | /home/abhi/Documents/frappe/frappe-iwinch/apps/frappe/frappe/utils/scheduler.py:
Site: iwinchsite
Queued events for site iwinchsite
[DEBUG] 2020-04-27 20:54:40,651 | /home/abhi/Documents/frappe/frappe-iwinch/apps/frappe/frappe/utils/scheduler.py:
Site: iwinchsite
Queued events for site iwinchsite
[DEBUG] 2020-04-27 20:55:40,760 | /home/abhi/Documents/frappe/frappe-iwinch/apps/frappe/frappe/utils/scheduler.py:
Site: iwinchsite
Queued events for site iwinchsite
[DEBUG] 2020-04-27 20:56:40,888 | /home/abhi/Documents/frappe/frappe-iwinch/apps/frappe/frappe/utils/scheduler.py:
Site: iwinchsite
Queued events for site iwinchsite
[DEBUG] 2020-04-27 20:57:41,007 | /home/abhi/Documents/frappe/frappe-iwinch/apps/frappe/frappe/utils/scheduler.py:
Site: iwinchsite
Queued events for site iwinchsite
[DEBUG] 2020-04-27 20:58:41,122 | /home/abhi/Documents/frappe/frappe-iwinch/apps/frappe/frappe/utils/scheduler.py:
Site: iwinchsite
Queued events for site iwinchsite
[DEBUG] 2020-04-27 20:59:41,241 | /home/abhi/Documents/frappe/frappe-iwinch/apps/frappe/frappe/utils/scheduler.py:
Site: iwinchsite
Queued events for site iwinchsite
[DEBUG] 2020-04-27 21:00:41,376 | /home/abhi/Documents/frappe/frappe-iwinch/apps/frappe/frappe/utils/scheduler.py:
Site: iwinchsite
Queued events for site iwinchsite
[DEBUG] 2020-04-27 21:01:41,488 | /home/abhi/Documents/frappe/frappe-iwinch/apps/frappe/frappe/utils/scheduler.py:
Site: iwinchsite
Queued events for site iwinchsite
[DEBUG] 2020-04-27 21:02:41,590 | /home/abhi/Documents/frappe/frappe-iwinch/apps/frappe/frappe/utils/scheduler.py:
Site: iwinchsite
Queued events for site iwinchsite
[DEBUG] 2020-04-27 21:03:41,694 | /home/abhi/Documents/frappe/frappe-iwinch/apps/frappe/frappe/utils/scheduler.py:
Site: iwinchsite
Queued events for site iwinchsite
[DEBUG] 2020-04-27 21:04:41,821 | /home/abhi/Documents/frappe/frappe-iwinch/apps/frappe/frappe/utils/scheduler.py:
Site: iwinchsite
Queued events for site iwinchsite
[DEBUG] 2020-04-27 21:05:41,934 | /home/abhi/Documents/frappe/frappe-iwinch/apps/frappe/frappe/utils/scheduler.py:
Site: iwinchsite
Queued events for site iwinchsite
[DEBUG] 2020-04-27 21:06:42,051 | /home/abhi/Documents/frappe/frappe-iwinch/apps/frappe/frappe/utils/scheduler.py:
Site: iwinchsite
Queued events for site iwinchsite
[DEBUG] 2020-04-27 21:07:42,156 | /home/abhi/Documents/frappe/frappe-iwinch/apps/frappe/frappe/utils/scheduler.py:
Site: iwinchsite
Queued events for site iwinchsite
[DEBUG] 2020-04-27 21:08:42,287 | /home/abhi/Documents/frappe/frappe-iwinch/apps/frappe/frappe/utils/scheduler.py:
Site: iwinchsite
Queued events for site iwinchsite
[DEBUG] 2020-04-27 21:09:42,397 | /home/abhi/Documents/frappe/frappe-iwinch/apps/frappe/frappe/utils/scheduler.py:
Site: iwinchsite
Queued events for site iwinchsite
[DEBUG] 2020-04-27 21:10:42,511 | /home/abhi/Documents/frappe/frappe-iwinch/apps/frappe/frappe/utils/scheduler.py:
Site: iwinchsite
Queued events for site iwinchsite
[DEBUG] 2020-04-27 21:11:42,629 | /home/abhi/Documents/frappe/frappe-iwinch/apps/frappe/frappe/utils/scheduler.py:
Site: iwinchsite
Queued events for site iwinchsite
[DEBUG] 2020-04-27 21:12:42,751 | /home/abhi/Documents/frappe/frappe-iwinch/apps/frappe/frappe/utils/scheduler.py:
Site: iwinchsite
Queued events for site iwinchsite
[DEBUG] 2020-04-27 21:13:42,863 | /home/abhi/Documents/frappe/frappe-iwinch/apps/frappe/frappe/utils/scheduler.py:
Site: iwinchsite
Queued events for site iwinchsite
[DEBUG] 2020-04-27 21:14:42,973 | /home/abhi/Documents/frappe/frappe-iwinch/apps/frappe/frappe/utils/scheduler.py:
Site: iwinchsite
Queued events for site iwinchsite
[DEBUG] 2020-04-27 21:15:43,085 | /home/abhi/Documents/frappe/frappe-iwinch/apps/frappe/frappe/utils/scheduler.py:
Site: iwinchsite
Queued events for site iwinchsite
[DEBUG] 2020-04-27 21:16:43,211 | /home/abhi/Documents/frappe/frappe-iwinch/apps/frappe/frappe/utils/scheduler.py:
Site: iwinchsite
Queued events for site iwinchsite
[DEBUG] 2020-04-27 21:17:43,329 | /home/abhi/Documents/frappe/frappe-iwinch/apps/frappe/frappe/utils/scheduler.py:
Site: iwinchsite
Queued events for site iwinchsite
[DEBUG] 2020-04-27 21:18:43,431 | /home/abhi/Documents/frappe/frappe-iwinch/apps/frappe/frappe/utils/scheduler.py:
Site: iwinchsite
Queued events for site iwinchsite
[DEBUG] 2020-04-27 21:19:43,536 | /home/abhi/Documents/frappe/frappe-iwinch/apps/frappe/frappe/utils/scheduler.py:
Site: iwinchsite
Queued events for site iwinchsite
[DEBUG] 2020-04-27 21:20:43,658 | /home/abhi/Documents/frappe/frappe-iwinch/apps/frappe/frappe/utils/scheduler.py:
Site: iwinchsite
Queued events for site iwinchsite
[DEBUG] 2020-04-27 21:21:43,763 | /home/abhi/Documents/frappe/frappe-iwinch/apps/frappe/frappe/utils/scheduler.py:
Site: iwinchsite
Queued events for site iwinchsite
[DEBUG] 2020-04-27 21:22:43,876 | /home/abhi/Documents/frappe/frappe-iwinch/apps/frappe/frappe/utils/scheduler.py:
Site: iwinchsite
Queued events for site iwinchsite
[DEBUG] 2020-04-27 21:23:43,981 | /home/abhi/Documents/frappe/frappe-iwinch/apps/frappe/frappe/utils/scheduler.py:
Site: iwinchsite
Queued events for site iwinchsite
[DEBUG] 2020-04-27 21:24:44,115 | /home/abhi/Documents/frappe/frappe-iwinch/apps/frappe/frappe/utils/scheduler.py:
Site: iwinchsite
Queued events for site iwinchsite
[DEBUG] 2020-04-27 21:25:44,222 | /home/abhi/Documents/frappe/frappe-iwinch/apps/frappe/frappe/utils/scheduler.py:
Site: iwinchsite
Queued events for site iwinchsite
[DEBUG] 2020-04-27 21:26:44,325 | /home/abhi/Documents/frappe/frappe-iwinch/apps/frappe/frappe/utils/scheduler.py:
Site: iwinchsite
Queued events for site iwinchsite
[DEBUG] 2020-04-27 21:27:44,435 | /home/abhi/Documents/frappe/frappe-iwinch/apps/frappe/frappe/utils/scheduler.py:
Site: iwinchsite
Queued events for site iwinchsite
[DEBUG] 2020-04-27 21:28:44,566 | /home/abhi/Documents/frappe/frappe-iwinch/apps/frappe/frappe/utils/scheduler.py:
Site: iwinchsite
Queued events for site iwinchsite
[DEBUG] 2020-04-27 21:29:44,682 | /home/abhi/Documents/frappe/frappe-iwinch/apps/frappe/frappe/utils/scheduler.py:
Site: iwinchsite
Queued events for site iwinchsite
[DEBUG] 2020-04-27 21:30:44,792 | /home/abhi/Documents/frappe/frappe-iwinch/apps/frappe/frappe/utils/scheduler.py:
Site: iwinchsite
Queued events for site iwinchsite
[DEBUG] 2020-04-27 21:31:44,898 | /home/abhi/Documents/frappe/frappe-iwinch/apps/frappe/frappe/utils/scheduler.py:
Site: iwinchsite
Queued events for site iwinchsite
[DEBUG] 2020-04-27 21:32:45,026 | /home/abhi/Documents/frappe/frappe-iwinch/apps/frappe/frappe/utils/scheduler.py:
Site: iwinchsite
Queued events for site iwinchsite
[DEBUG] 2020-04-27 21:33:45,135 | /home/abhi/Documents/frappe/frappe-iwinch/apps/frappe/frappe/utils/scheduler.py:
Site: iwinchsite
Queued events for site iwinchsite
[DEBUG] 2020-04-27 21:34:45,251 | /home/abhi/Documents/frappe/frappe-iwinch/apps/frappe/frappe/utils/scheduler.py:
Site: iwinchsite
Queued events for site iwinchsite
[DEBUG] 2020-04-27 21:35:45,363 | /home/abhi/Documents/frappe/frappe-iwinch/apps/frappe/frappe/utils/scheduler.py:
Site: iwinchsite
Queued events for site iwinchsite
[DEBUG] 2020-04-27 21:36:45,502 | /home/abhi/Documents/frappe/frappe-iwinch/apps/frappe/frappe/utils/scheduler.py:
Site: iwinchsite
Queued events for site iwinchsite
[DEBUG] 2020-04-27 21:37:45,605 | /home/abhi/Documents/frappe/frappe-iwinch/apps/frappe/frappe/utils/scheduler.py:
Site: iwinchsite
Queued events for site iwinchsite
[DEBUG] 2020-04-27 21:38:45,715 | /home/abhi/Documents/frappe/frappe-iwinch/apps/frappe/frappe/utils/scheduler.py:
Site: iwinchsite
Queued events for site iwinchsite
[DEBUG] 2020-04-27 21:39:45,825 | /home/abhi/Documents/frappe/frappe-iwinch/apps/frappe/frappe/utils/scheduler.py:
Site: iwinchsite
Queued events for site iwinchsite
[DEBUG] 2020-04-27 21:40:45,961 | /home/abhi/Documents/frappe/frappe-iwinch/apps/frappe/frappe/utils/scheduler.py:
Site: iwinchsite
Queued events for site iwinchsite
[DEBUG] 2020-04-27 21:41:46,079 | /home/abhi/Documents/frappe/frappe-iwinch/apps/frappe/frappe/utils/scheduler.py:
Site: iwinchsite
Queued events for site iwinchsite
[DEBUG] 2020-04-27 21:42:46,188 | /home/abhi/Documents/frappe/frappe-iwinch/apps/frappe/frappe/utils/scheduler.py:
Site: iwinchsite
Queued events for site iwinchsite
[DEBUG] 2020-04-27 21:43:46,295 | /home/abhi/Documents/frappe/frappe-iwinch/apps/frappe/frappe/utils/scheduler.py:
Site: iwinchsite
Queued events for site iwinchsite
[DEBUG] 2020-04-27 21:44:46,425 | /home/abhi/Documents/frappe/frappe-iwinch/apps/frappe/frappe/utils/scheduler.py:
Site: iwinchsite
Queued events for site iwinchsite
[DEBUG] 2020-04-27 21:45:46,538 | /home/abhi/Documents/frappe/frappe-iwinch/apps/frappe/frappe/utils/scheduler.py:
Site: iwinchsite
Queued events for site iwinchsite
[DEBUG] 2020-04-27 21:46:46,656 | /home/abhi/Documents/frappe/frappe-iwinch/apps/frappe/frappe/utils/scheduler.py:
Site: iwinchsite
Queued events for site iwinchsite
[DEBUG] 2020-04-27 21:47:46,762 | /home/abhi/Documents/frappe/frappe-iwinch/apps/frappe/frappe/utils/scheduler.py:
Site: iwinchsite
Queued events for site iwinchsite
[DEBUG] 2020-04-27 21:48:46,892 | /home/abhi/Documents/frappe/frappe-iwinch/apps/frappe/frappe/utils/scheduler.py:
Site: iwinchsite
Queued events for site iwinchsite
[DEBUG] 2020-04-27 21:49:47,006 | /home/abhi/Documents/frappe/frappe-iwinch/apps/frappe/frappe/utils/scheduler.py:
Site: iwinchsite
Queued events for site iwinchsite
[DEBUG] 2020-04-27 21:50:47,113 | /home/abhi/Documents/frappe/frappe-iwinch/apps/frappe/frappe/utils/scheduler.py:
Site: iwinchsite
Queued events for site iwinchsite
[DEBUG] 2020-04-27 21:51:47,223 | /home/abhi/Documents/frappe/frappe-iwinch/apps/frappe/frappe/utils/scheduler.py:
Site: iwinchsite
Queued events for site iwinchsite
[DEBUG] 2020-04-27 21:52:47,348 | /home/abhi/Documents/frappe/frappe-iwinch/apps/frappe/frappe/utils/scheduler.py:
Site: iwinchsite
Queued events for site iwinchsite
[DEBUG] 2020-04-27 21:53:47,457 | /home/abhi/Documents/frappe/frappe-iwinch/apps/frappe/frappe/utils/scheduler.py:
Site: iwinchsite
Queued events for site iwinchsite
[DEBUG] 2020-04-27 21:54:47,562 | /home/abhi/Documents/frappe/frappe-iwinch/apps/frappe/frappe/utils/scheduler.py:
Site: iwinchsite
Queued events for site iwinchsite
[DEBUG] 2020-04-27 21:55:47,667 | /home/abhi/Documents/frappe/frappe-iwinch/apps/frappe/frappe/utils/scheduler.py:
Site: iwinchsite
Queued events for site iwinchsite
[DEBUG] 2020-04-27 21:56:47,801 | /home/abhi/Documents/frappe/frappe-iwinch/apps/frappe/frappe/utils/scheduler.py:
Site: iwinchsite
Queued events for site iwinchsite
[DEBUG] 2020-04-27 21:57:47,902 | /home/abhi/Documents/frappe/frappe-iwinch/apps/frappe/frappe/utils/scheduler.py:
Site: iwinchsite
Queued events for site iwinchsite
[DEBUG] 2020-04-27 21:58:48,014 | /home/abhi/Documents/frappe/frappe-iwinch/apps/frappe/frappe/utils/scheduler.py:
Site: iwinchsite
Queued events for site iwinchsite
[DEBUG] 2020-04-27 21:59:48,132 | /home/abhi/Documents/frappe/frappe-iwinch/apps/frappe/frappe/utils/scheduler.py:
Site: iwinchsite
Queued events for site iwinchsite
[DEBUG] 2020-04-27 22:00:48,288 | /home/abhi/Documents/frappe/frappe-iwinch/apps/frappe/frappe/utils/scheduler.py:
Site: iwinchsite
Queued events for site iwinchsite
[DEBUG] 2020-04-27 22:01:48,395 | /home/abhi/Documents/frappe/frappe-iwinch/apps/frappe/frappe/utils/scheduler.py:
Site: iwinchsite
Queued events for site iwinchsite
[DEBUG] 2020-04-27 22:02:48,508 | /home/abhi/Documents/frappe/frappe-iwinch/apps/frappe/frappe/utils/scheduler.py:
Site: iwinchsite
Queued events for site iwinchsite
[DEBUG] 2020-04-27 22:03:48,623 | /home/abhi/Documents/frappe/frappe-iwinch/apps/frappe/frappe/utils/scheduler.py:
Site: iwinchsite
Queued events for site iwinchsite
[DEBUG] 2020-04-27 22:04:48,757 | /home/abhi/Documents/frappe/frappe-iwinch/apps/frappe/frappe/utils/scheduler.py:
Site: iwinchsite
Queued events for site iwinchsite
[DEBUG] 2020-04-27 22:05:48,869 | /home/abhi/Documents/frappe/frappe-iwinch/apps/frappe/frappe/utils/scheduler.py:
Site: iwinchsite
Queued events for site iwinchsite
[DEBUG] 2020-04-27 22:06:48,980 | /home/abhi/Documents/frappe/frappe-iwinch/apps/frappe/frappe/utils/scheduler.py:
Site: iwinchsite
Queued events for site iwinchsite
[DEBUG] 2020-04-27 22:07:49,097 | /home/abhi/Documents/frappe/frappe-iwinch/apps/frappe/frappe/utils/scheduler.py:
Site: iwinchsite
Queued events for site iwinchsite
