[ERROR] 2020-04-27 16:24:48,050 | /home/abhi/Documents/frappe/frappe-iwinch/apps/frappe/frappe/app.py:
Site: iwinchsite
Form Dict: {
 "cmd": "profiles.api_admin.customer_feedback",
 "filters": "{\"customer\":\"suku@xyz.com\"}",
 "page_length": "10",
 "start": "0"
}
Request Error
Traceback (most recent call last):
  File "/home/abhi/Documents/frappe/frappe-iwinch/apps/frappe/frappe/app.py", line 62, in application
    response = frappe.api.handle()
  File "/home/abhi/Documents/frappe/frappe-iwinch/apps/frappe/frappe/api.py", line 56, in handle
    return frappe.handler.handle()
  File "/home/abhi/Documents/frappe/frappe-iwinch/apps/frappe/frappe/handler.py", line 22, in handle
    data = execute_cmd(cmd)
  File "/home/abhi/Documents/frappe/frappe-iwinch/apps/frappe/frappe/handler.py", line 61, in execute_cmd
    return frappe.call(method, **frappe.form_dict)
  File "/home/abhi/Documents/frappe/frappe-iwinch/apps/frappe/frappe/__init__.py", line 1055, in call
    return fn(*args, **newargs)
  File "/home/abhi/Documents/frappe/frappe-iwinch/apps/profiles/profiles/api_admin.py", line 161, in customer_feedback
    start=start)
  File "/home/abhi/Documents/frappe/frappe-iwinch/apps/frappe/frappe/__init__.py", line 1291, in get_list
    return frappe.model.db_query.DatabaseQuery(doctype).execute(None, *args, **kwargs)
  File "/home/abhi/Documents/frappe/frappe-iwinch/apps/frappe/frappe/model/db_query.py", line 96, in execute
    result = self.build_and_run()
  File "/home/abhi/Documents/frappe/frappe-iwinch/apps/frappe/frappe/model/db_query.py", line 130, in build_and_run
    return frappe.db.sql(query, as_dict=not self.as_list, debug=self.debug, update=self.update)
  File "/home/abhi/Documents/frappe/frappe-iwinch/apps/frappe/frappe/database/database.py", line 171, in sql
    self._cursor.execute(query)
  File "/home/abhi/Documents/frappe/frappe-iwinch/env/lib/python3.6/site-packages/pymysql/cursors.py", line 170, in execute
    result = self._query(query)
  File "/home/abhi/Documents/frappe/frappe-iwinch/env/lib/python3.6/site-packages/pymysql/cursors.py", line 328, in _query
    conn.query(q)
  File "/home/abhi/Documents/frappe/frappe-iwinch/env/lib/python3.6/site-packages/pymysql/connections.py", line 517, in query
    self._affected_rows = self._read_query_result(unbuffered=unbuffered)
  File "/home/abhi/Documents/frappe/frappe-iwinch/env/lib/python3.6/site-packages/pymysql/connections.py", line 732, in _read_query_result
    result.read()
  File "/home/abhi/Documents/frappe/frappe-iwinch/env/lib/python3.6/site-packages/pymysql/connections.py", line 1075, in read
    first_packet = self.connection._read_packet()
  File "/home/abhi/Documents/frappe/frappe-iwinch/env/lib/python3.6/site-packages/pymysql/connections.py", line 684, in _read_packet
    packet.check_error()
  File "/home/abhi/Documents/frappe/frappe-iwinch/env/lib/python3.6/site-packages/pymysql/protocol.py", line 220, in check_error
    err.raise_mysql_exception(self._data)
  File "/home/abhi/Documents/frappe/frappe-iwinch/env/lib/python3.6/site-packages/pymysql/err.py", line 109, in raise_mysql_exception
    raise errorclass(errno, errval)
pymysql.err.ProgrammingError: (1064, "You have an error in your SQL syntax; check the manual that corresponds to your MariaDB server version for the right syntax to use near 'order, customer, provider, description\n\t\t\tfrom `tabCustomer Feedback`\n\t\t\twhere `' at line 1")
[ERROR] 2020-04-27 16:26:41,177 | /home/abhi/Documents/frappe/frappe-iwinch/apps/frappe/frappe/app.py:
Site: iwinchsite
Form Dict: {
 "cmd": "profiles.api_admin.customer_feedback",
 "filters": "{\"customer\":\"\"}",
 "page_length": "10",
 "start": "0"
}
Request Error
Traceback (most recent call last):
  File "/home/abhi/Documents/frappe/frappe-iwinch/apps/frappe/frappe/app.py", line 62, in application
    response = frappe.api.handle()
  File "/home/abhi/Documents/frappe/frappe-iwinch/apps/frappe/frappe/api.py", line 56, in handle
    return frappe.handler.handle()
  File "/home/abhi/Documents/frappe/frappe-iwinch/apps/frappe/frappe/handler.py", line 22, in handle
    data = execute_cmd(cmd)
  File "/home/abhi/Documents/frappe/frappe-iwinch/apps/frappe/frappe/handler.py", line 61, in execute_cmd
    return frappe.call(method, **frappe.form_dict)
  File "/home/abhi/Documents/frappe/frappe-iwinch/apps/frappe/frappe/__init__.py", line 1055, in call
    return fn(*args, **newargs)
  File "/home/abhi/Documents/frappe/frappe-iwinch/apps/profiles/profiles/api_admin.py", line 161, in customer_feedback
    start=start)
  File "/home/abhi/Documents/frappe/frappe-iwinch/apps/frappe/frappe/__init__.py", line 1291, in get_list
    return frappe.model.db_query.DatabaseQuery(doctype).execute(None, *args, **kwargs)
  File "/home/abhi/Documents/frappe/frappe-iwinch/apps/frappe/frappe/model/db_query.py", line 96, in execute
    result = self.build_and_run()
  File "/home/abhi/Documents/frappe/frappe-iwinch/apps/frappe/frappe/model/db_query.py", line 130, in build_and_run
    return frappe.db.sql(query, as_dict=not self.as_list, debug=self.debug, update=self.update)
  File "/home/abhi/Documents/frappe/frappe-iwinch/apps/frappe/frappe/database/database.py", line 171, in sql
    self._cursor.execute(query)
  File "/home/abhi/Documents/frappe/frappe-iwinch/env/lib/python3.6/site-packages/pymysql/cursors.py", line 170, in execute
    result = self._query(query)
  File "/home/abhi/Documents/frappe/frappe-iwinch/env/lib/python3.6/site-packages/pymysql/cursors.py", line 328, in _query
    conn.query(q)
  File "/home/abhi/Documents/frappe/frappe-iwinch/env/lib/python3.6/site-packages/pymysql/connections.py", line 517, in query
    self._affected_rows = self._read_query_result(unbuffered=unbuffered)
  File "/home/abhi/Documents/frappe/frappe-iwinch/env/lib/python3.6/site-packages/pymysql/connections.py", line 732, in _read_query_result
    result.read()
  File "/home/abhi/Documents/frappe/frappe-iwinch/env/lib/python3.6/site-packages/pymysql/connections.py", line 1075, in read
    first_packet = self.connection._read_packet()
  File "/home/abhi/Documents/frappe/frappe-iwinch/env/lib/python3.6/site-packages/pymysql/connections.py", line 684, in _read_packet
    packet.check_error()
  File "/home/abhi/Documents/frappe/frappe-iwinch/env/lib/python3.6/site-packages/pymysql/protocol.py", line 220, in check_error
    err.raise_mysql_exception(self._data)
  File "/home/abhi/Documents/frappe/frappe-iwinch/env/lib/python3.6/site-packages/pymysql/err.py", line 109, in raise_mysql_exception
    raise errorclass(errno, errval)
pymysql.err.ProgrammingError: (1064, "You have an error in your SQL syntax; check the manual that corresponds to your MariaDB server version for the right syntax to use near 'order, customer, provider, description\n\t\t\tfrom `tabCustomer Feedback`\n\t\t\t\n\t\t\t\n\t\t' at line 1")
[ERROR] 2020-04-27 16:26:56,389 | /home/abhi/Documents/frappe/frappe-iwinch/apps/frappe/frappe/app.py:
Site: iwinchsite
Form Dict: {
 "cmd": "profiles.api_admin.customer_feedback",
 "filters": "{\"customer\":\"suku@xyz.com\"}",
 "page_length": "10",
 "start": "0"
}
Request Error
Traceback (most recent call last):
  File "/home/abhi/Documents/frappe/frappe-iwinch/apps/frappe/frappe/app.py", line 62, in application
    response = frappe.api.handle()
  File "/home/abhi/Documents/frappe/frappe-iwinch/apps/frappe/frappe/api.py", line 56, in handle
    return frappe.handler.handle()
  File "/home/abhi/Documents/frappe/frappe-iwinch/apps/frappe/frappe/handler.py", line 22, in handle
    data = execute_cmd(cmd)
  File "/home/abhi/Documents/frappe/frappe-iwinch/apps/frappe/frappe/handler.py", line 61, in execute_cmd
    return frappe.call(method, **frappe.form_dict)
  File "/home/abhi/Documents/frappe/frappe-iwinch/apps/frappe/frappe/__init__.py", line 1055, in call
    return fn(*args, **newargs)
  File "/home/abhi/Documents/frappe/frappe-iwinch/apps/profiles/profiles/api_admin.py", line 161, in customer_feedback
    start=start)
  File "/home/abhi/Documents/frappe/frappe-iwinch/apps/frappe/frappe/__init__.py", line 1291, in get_list
    return frappe.model.db_query.DatabaseQuery(doctype).execute(None, *args, **kwargs)
  File "/home/abhi/Documents/frappe/frappe-iwinch/apps/frappe/frappe/model/db_query.py", line 96, in execute
    result = self.build_and_run()
  File "/home/abhi/Documents/frappe/frappe-iwinch/apps/frappe/frappe/model/db_query.py", line 130, in build_and_run
    return frappe.db.sql(query, as_dict=not self.as_list, debug=self.debug, update=self.update)
  File "/home/abhi/Documents/frappe/frappe-iwinch/apps/frappe/frappe/database/database.py", line 171, in sql
    self._cursor.execute(query)
  File "/home/abhi/Documents/frappe/frappe-iwinch/env/lib/python3.6/site-packages/pymysql/cursors.py", line 170, in execute
    result = self._query(query)
  File "/home/abhi/Documents/frappe/frappe-iwinch/env/lib/python3.6/site-packages/pymysql/cursors.py", line 328, in _query
    conn.query(q)
  File "/home/abhi/Documents/frappe/frappe-iwinch/env/lib/python3.6/site-packages/pymysql/connections.py", line 517, in query
    self._affected_rows = self._read_query_result(unbuffered=unbuffered)
  File "/home/abhi/Documents/frappe/frappe-iwinch/env/lib/python3.6/site-packages/pymysql/connections.py", line 732, in _read_query_result
    result.read()
  File "/home/abhi/Documents/frappe/frappe-iwinch/env/lib/python3.6/site-packages/pymysql/connections.py", line 1075, in read
    first_packet = self.connection._read_packet()
  File "/home/abhi/Documents/frappe/frappe-iwinch/env/lib/python3.6/site-packages/pymysql/connections.py", line 684, in _read_packet
    packet.check_error()
  File "/home/abhi/Documents/frappe/frappe-iwinch/env/lib/python3.6/site-packages/pymysql/protocol.py", line 220, in check_error
    err.raise_mysql_exception(self._data)
  File "/home/abhi/Documents/frappe/frappe-iwinch/env/lib/python3.6/site-packages/pymysql/err.py", line 109, in raise_mysql_exception
    raise errorclass(errno, errval)
pymysql.err.ProgrammingError: (1064, "You have an error in your SQL syntax; check the manual that corresponds to your MariaDB server version for the right syntax to use near 'order, customer, provider, description\n\t\t\tfrom `tabCustomer Feedback`\n\t\t\twhere `' at line 1")
